{
  "type": "service_account",
  "project_id": "fukuroaki-342114",
  "private_key_id": "7f666c3ef1367fa1150eae78aebf7639447c1073",
  "private_key": "-----BEGIN PRIVATE KEY-----\nMIIEvQIBADANBgkqhkiG9w0BAQEFAASCBKcwggSjAgEAAoIBAQCdIGGHTyfU8n01\n//9prKXUDbc44mqlqANQh3aw2UWSLxj33F7Da1tmOAgo71gCWKlVClZRxPCcBKhg\ntL4BiSaKnuUTdZHlm7/NUpXjLqPDxR6RoZiK6eRDuwdeZ2Y64t9/IUoNM7OfOOvB\nXJwBRVKDXBlQKcLVls1w1rbBC/FUJex4J9w762kxdCm3QAWIJ14Rua3X50ZSc3QH\n80jHWGzhPouBVM+JgOz6pswvVXAZaac4yCoLTf5TragvvljdMBc/g3lWmKYp9RaH\nF5auiqGLtAaeVRrxZOCW7waiYNCbvsLBKY7DJeBFqG3yoCu2f7ZcilWqWtcd795v\nJEtUyyeXAgMBAAECggEABBy7PYKICFeDiP/dYpnVVtEFFCs/OON5mSHyeUgDPVAx\ncLGglhZSzg1C9jWzyyi6EplMQqRk2uOqt6oDTwb7FNjgjFUHYuFj1uI41tLhqYrL\n9Tb4rXbYAodikGK9/WYl2a3rwjl+k5Kc/1jtIrT6jXWOzaPjwkzjRsPxaujLgbUL\ne6a0OW2s7J1/NwMl81Xuucy1AmIjGIMdj3TlZ9DnfuoDekJlItdomqZgfjTo95JN\nYG8/SBzUgsMosl8+Y/jz9TtmeBb8V49bHUpVmTPKIE50GcMeHlBU0MapxanZrjQV\nxayWoosP6u6QZzPzluB8ToycSEIlRZ4P9MTdO3NsAQKBgQDKoq9c1oHyuAsFZ14b\n6lSpciLS94v9MmvLlKGSbyE3CszBisDYJnJ4csNCeWO9Kwwctx0C/AoeDCVV1K3s\nTT3Wvw5pHwuWqWjG+ihW7sI2Ut5e0UU1FHWrDFa0eo367EcAg6vDJEZkL6F7ji8Z\n3VmsLOjvx+RpdJ0L0i+BYwOnJQKBgQDGgY/rURGW2UnDo5bnN0X631DS5IsvLW5k\nuSlYRKWkMXFulETF45J6bro7p0l2zK7zpniRbICPJW67FRpXET0CNJzegIclNjSC\nM0kWJYu+MVhXSo1J8qiIewfwyxqTDO+GCY6Vx7G+iOFvJL84WfkljdJogE8nugUY\nZkRAWF5FCwKBgQCuqbASi+uS9cS6MbFSypeTPwh5ZFtMMivsXP8wI44zzaFUqm8z\nYWCGJhXctJmeMv7LuaLOMcXexIViCGKqLqJA+opHXjU09m2UJYij9kV9Ycy/Wg8X\ng70xZP9Prdu4D/XboaNqH1h1fwDoaVR8LOngmQ1nsZtWsuezisbb9ibt6QKBgCcb\n/67tGfoOdWoGIQUM7syuks36GTICUW2mzW6Gl9vxodeXfrU+UO2uQyLdoqu1SALZ\nGYgNSIbraRWS4s2kp9B3bTCpQfci5tWAJTYnz5B5SF5qYcvf8zRwiO/4FBREyCww\nVddMsMhJT6EGLGZ904iCmKHeJbo9/CMCgw/qWShhAoGAM8glrJxtaf4sz4qsSCXU\nuhCCAj67LcKwmK5KZ48ezY4XO3pz/VDabqeDg6b0cXSrrGi7GkJte+o/8CflhDRg\nlvCcL4Dm7vyz0OwMHMmoSWvuKysoMetcseDMVFVaoOo3kis8ZmgiQMHFNJRmuNUD\nFxoDBmN6Bhz4qZCMmdb5zTg=\n-----END PRIVATE KEY-----\n",
  "client_email": "mirror-bot-no-18@fukuroaki-342114.iam.gserviceaccount.com",
  "client_id": "107492920638772514741",
  "auth_uri": "https://accounts.google.com/o/oauth2/auth",
  "token_uri": "https://oauth2.googleapis.com/token",
  "auth_provider_x509_cert_url": "https://www.googleapis.com/oauth2/v1/certs",
  "client_x509_cert_url": "https://www.googleapis.com/robot/v1/metadata/x509/mirror-bot-no-18%40fukuroaki-342114.iam.gserviceaccount.com"
}
