{
  "type": "service_account",
  "project_id": "fukuroaki-342114",
  "private_key_id": "877e55346cae460bc4c9ab8f1e6fb51c0a819f42",
  "private_key": "-----BEGIN PRIVATE KEY-----\nMIIEvwIBADANBgkqhkiG9w0BAQEFAASCBKkwggSlAgEAAoIBAQC6TctuXB4mpq3q\nOOrm0CtHivKNZTc+p1ycz0kaVJ9bdbyjweW6f38M+fys4K0vxsp7AGgeKA6eZvFb\nx/Qgl4nMKNOPPBqflE9xeAoWVJu4q4zNmX32E8D1z6HydRdt0o+LdGjQdqFp9zUS\nNeRAVnZYKf7ww80a2WLWx2ZZJP3h0eRSOJZedZjPwgglzPQN4JEYuCInBcm1SVX1\nVAN0TauJ+OzLKGIglDkdKq/YIunlTRWNTDxDmjRx/6DZd8nVNTZRK2B4Jq7bk984\nk724j/z0i1hCsC0xNXm/0mLD69D8s0tvTrXAmt+iYj9jl1o60IPLx+6kZkDjkFz2\nhU+8amgBAgMBAAECggEABYH+RSV5CLh9xMJpA2jdFrDfadm3r+T/wm0IYrxkt637\n5TV6xrA1P9t2ImBEDnkIjGlfKqERiZJOiWGYcIw6WSxN0Nq8iMI4NQkQ90cKEYQU\n1hE3HZrI5ht81K+sgSUr9Dn9TUhsjjbuPTsVo+dKeWHIdTK8shICL4pWlsUWsmHW\npkt51q7mRn9Nc53GzEjrDgKWHKPqjHBgD7G3vBmpcCg8xDfUS9f9hnE8Ex5Ulice\nA/DmHS60oanUlxaJxAwR0YqruqhpWW7U8R/KooH0gN9H5Kq5/i8NAai9ZZsUTzzl\nbCOz9m9JEdPhN5bR4UJwzUoF2nkadm/yW6/t7ZVVpwKBgQD2JV17wqckMyPBDA/f\nWJO7RkhzFeOC/FKnvjgYDAHWG2kw1AB8coVKERlZWDd3AUQIvM+rcGnZZnUwsTOw\nVKfZ9zcOj3h3oPkPZYgosgFUdGBYr78erCtbZeiSMdHm959Of1+J2/TKUEEBXgpu\nYEMIfHvM4b+yUwFuyEI3ZGzYBwKBgQDBwyLVFnTxja1py43bKGwJ9NZU/bUL8bkb\nvbYwiPIc8AZUg6mUdrl2r73Dl3ODvUtsNDBzvu5Q0og5d3XdkgPVCVtpL65puQc9\nf0+HPqJYDpDEyJH4AOeblPFFyiCIIul8xHJ+hYyU8Uk0lBzhRd16SdZR7ANA/+OW\nCG9ovhdttwKBgQDxI7HtqMitwhvo57Q1DkXMVhJsDKmSjTc8djHl/P1fkAMBfu/q\n+xZxdUbsLGxJ/cd09+RLBBnujV2JklAdExJNis85SHywVdcpqkI1/A0pe8lXmPUX\nS3w+UhwB/SSxrS04bbhfCklKWk0U1dhKQavqCGoQUajHPmJM8YtNUOkAyQKBgQCJ\ncLhJfEdxfDSw4aF6/l48Zb6OxPPiSBEsu1H7dXh/zEZBNq9YTyrZJGmvzsMyhFh2\npUJlJ97115CnarRheYxcVenQX/EQrx2Sorav0V7opVRNMZRQ3ZtsAadvAKQ4zMLg\nLJymYGbK06hAsnsV1C/46V0r+QSJ27j8mHkmTAhkWwKBgQD0BukUg9GDy1UPDa1A\nFUp+YTXaGH1oV58VcgWfbRWNc9S1MpD0E5Hf1hmrbevzNfls5WfjcwFdd+diDJY8\nH0tZoBlmkWwH+zhEeZgmOTt6kJOoHHMOc+RkWyU0CMUXNHbi+yZcNtyRGBfoe9iv\nS47Z4+WTImk2iuVGxa8mvjQcwQ==\n-----END PRIVATE KEY-----\n",
  "client_email": "mirror-bot-no-2@fukuroaki-342114.iam.gserviceaccount.com",
  "client_id": "113321939298122822055",
  "auth_uri": "https://accounts.google.com/o/oauth2/auth",
  "token_uri": "https://oauth2.googleapis.com/token",
  "auth_provider_x509_cert_url": "https://www.googleapis.com/oauth2/v1/certs",
  "client_x509_cert_url": "https://www.googleapis.com/robot/v1/metadata/x509/mirror-bot-no-2%40fukuroaki-342114.iam.gserviceaccount.com"
}
