{
  "type": "service_account",
  "project_id": "fukuroaki-342114",
  "private_key_id": "b5e6f8c19a1eef8900f18e345bd3e32ca2006a1e",
  "private_key": "-----BEGIN PRIVATE KEY-----\nMIIEvQIBADANBgkqhkiG9w0BAQEFAASCBKcwggSjAgEAAoIBAQC69kHAMrjfvW7W\ngSFlpluOFvgMDXuXsaSFHU+QxNbX9+dCWiGTsa/ZbWnNsKCNKBwDS5XXxgvoUoZ9\n+zLKCyG0/dgMBc17F2pdpfwaXsILmzEBcJaneuS1y0avqfL1q+mY9yolEvbMXWCr\n+LSHVXgMM//0N/7SfCXHNboPGBplYA9DLjV7WcYnNwcnrytjobDBPuJ5DgsONSMF\nKs+WwKF5Sv1pOjby5HuAsR1ruFylcbbjsdL2H9kLqioMF0eAJBnvZ/qsMv0kCbVv\nXDU3ruzary4D4HYGYYs49sQTjD+EVLkv4huQSDNY1BOWEpEuPIovb68HaUiOZCIb\nWSBTo4ktAgMBAAECggEACM0vhroMkIHlPiVpmlS00jFcH4sh8p/7CAY7eOv/Vj72\nLN473u1aQzDern9+a27ENNaB2RzacicybCtfdnoELfZWTaiXRhBx4jM+dUpZNb0q\nVzBC82L6ceF+NCZayPx9HIWkPwcPxcqukqH8c7OPGXn4NnnNXgDYsXJizjObCIMi\nrftvZ+8wXMV3xCFiJkI1tBS8U4B31t2kDJ5OHlBqwVT1KW+UhUo2ZAbBOq+bhpoa\nHY0lzJHfWRHw3uMq8bMcp0OhL5QVvO2GZ4rnsOk0UlcXYXZxLhViD7vPM0gT0RSg\nM9bZj5gBqTMTMztqzyo3EKnKvuCpJ7U8KB3X7BpJkQKBgQD2gH9ncjIgAiOl2xpV\neVW8bP2rOopZsb9GAPSCNjYo/9oWAq8ge5jq5US1iQeXi8Q9//gYtW8Xfs6Ea2VC\nRYMvrHVMaW1rlKcnqqRX3kWQNBLXjlOcpr+8vioAcfPh3mp5S7u73QKgxpejTMGP\nGcURW1Xm3C/Ari1+hOJ14AXGPQKBgQDCKnRw3XsuP6RVxzTp2+mB1yIBBVHmZXGz\nbJt4nkA+SbZleEesfxNVgj/DuTdhSMFuNuhEuH4l2gBOaf2asxViITyIcsAmIGd7\n5wC9O3dS8GISFTr7ZDDC38qsrlRhSTHaydzy50VirWQWpb3JFvmEVKmLYBEuZdAi\nUwZ1hIvtsQKBgHZyKkYHzmQpAv4YOSAnLHZdHMshVwdgbJtzrAnBiObMgfufkI0Y\nNtNwFULxtE8ynrp3+7vLurTcftmMTVy50B6hTL/JzQUrqeJakZuTN3PiQceIIU8d\npPZJnh8Womy/FgRwyqWrvi6JHqYeJMfhRxte+vjyhpOcXkn0Cmk/mya1AoGAMCZP\nEd4aufFWU18/I+9BDM3IxPAIy1XEyHXaaCL2U3v8G1WkkIZCySWvol2/+gQM08QR\n/VizD7fr84YdOcvHNbqARGYQeGP4xaUXbdXdVVf/OfTB162U2f6dSA1DJ4z7LAJ7\nJFFtx3awJ12ans9vuP01vjZojFT7NEfahjIEcUECgYEAgnJgh9CKQw3s3gYWSqJb\n3Jxvxy9L+6yG9DwpLI2GgG+ps/TSgWC6VcZMSEjaLus5uIF8T+OATc0oxJhMyNH2\nn9nkuefqSl9pxHTPRTCa/8puzU2LNwW1WTiPTjDMYRiX17T4rcnufQiZtxTWfWzP\nLWfBAI9K5ooRqIkeR+piHng=\n-----END PRIVATE KEY-----\n",
  "client_email": "mirror-bot-no-28@fukuroaki-342114.iam.gserviceaccount.com",
  "client_id": "103960225067750520988",
  "auth_uri": "https://accounts.google.com/o/oauth2/auth",
  "token_uri": "https://oauth2.googleapis.com/token",
  "auth_provider_x509_cert_url": "https://www.googleapis.com/oauth2/v1/certs",
  "client_x509_cert_url": "https://www.googleapis.com/robot/v1/metadata/x509/mirror-bot-no-28%40fukuroaki-342114.iam.gserviceaccount.com"
}
