{
  "type": "service_account",
  "project_id": "fukuroaki-342114",
  "private_key_id": "91bab2781e71a7b4391ad98d4355bc047f7a2a93",
  "private_key": "-----BEGIN PRIVATE KEY-----\nMIIEvQIBADANBgkqhkiG9w0BAQEFAASCBKcwggSjAgEAAoIBAQDUs5iYt0h2w20P\nUGHJ53Hm9mfXyLENZT222IiZ6+3jnvsuD5pQKybYQD9nRonmyuKg0a3OJKNBI0TH\n7mVYtVHpT9KHVQzYf2OKDxz9DxC1HKAA0lSkKmdUoWpe6S3Nb78KGwbw5lDM4FtY\ncm++PIyAK43mrsVlGGvJf8QZ6h/Kbb8HyVuzl0w3QvL1QULJhiEZiyKhudOdamBl\n7Q9t2u7itUkWETNAFe/gmAKr4HKIyTJSECECEyDH+QgxjnE/zU9ZlOnKq47pqUY0\nvpn2t8HAlQG0FRpg7V0gnuhKQdIew4IiFPgpM3EzjMKrr88cFWiPmf9VLBrxTJ2K\nTryF6sB9AgMBAAECggEACgfAGe+GtMcJdQ/q1J0b83LKOdRGeSW9j8pNQsjr6nB8\nUtM8iSxHxCnfc4zRgvctUb0hj5eNtUwm+bClydWfG7v+ZxBdLzZuqLuGt+5GcOv9\nJZzFjgpL3iNQg1JGrSnoXd8haCnMRKUN2bFn0JZFX+Pt6KN0Poy0xIdIZZpzTlXh\nigc8qI0pknpzAYBurCDhQ5S65IOYwLKdVLeKVbltTZh8EHoYjR1cRrtdJCsLzqCl\n4dSfFZ7KE36YEeSATExMk/OnWk6kLz5vdO14ixGDlileTwodF5jH6xoWi5fwc9XH\nBRAlX/0k8StxfW3b05/AA46fxsR+Cu2fqQTfU8baUQKBgQDs91aaqhOatOeiBqPa\n/MpMgdrsURhegcP5lx2ezKwb/UgKu/4pt6YyuNYD39e4ysTAGNqxBOzSfvTg099P\nEhJS5utPFz9+RUcceMGZgmt+R39EYuVb8M4RFHk3DLKXD5AXSBYXT5Ux11iQcVCd\n0JYbmqlYsV5Ut+76Og3+IgPeKQKBgQDlyU/dgiLkHANOSRNDuGS9J1Lmu3JYDNVo\nZUoyRlVMVGavtstXdnf9bV5bHQfbm3AMIbmQxXQyA+ByX6qP06PNgFo5P9O7qdcx\nCP0re8oovoudjsfGlGoNzpnFz07dTzZ+ibcbfFhMq6bTbzuYDXKoLG1/Dc9H8xEi\nCddER6PyNQKBgQDXhHjCwA6GdSP6a9mY8LK49J18sqDcS19G4FazN+kMp8Ze5O3b\nWUkR9qPG8E3NprVdFP3JY/ZT1921oV0HGCOMPLMkwrsfh7iOP5GsoT5MopAwTVXW\n0eNJC3rXQ3gmBaSCWDCnUN0bcIT/EeBFOBFd18NPhDmMCaGS+TwCt0MXSQKBgEFK\n6JSqa7uhchcGkKDHfmh5Cgdh7+WxD9qwHVsXvRkJSnxXVoQtt36dWxhMsXTnP/lS\ng+XtFU046MfXAyIHIx47gGeQCVvjsK/QPA/lBtZ4/jbw4Tc96LyvneYlN+WOoo9m\nFk+LD5QJmket7aMQ/ylmJl7Zz7JEEPQ5E5/lM2KZAoGAYpS1X6UvmB4BYuaefG1v\nBDxhpwwnZTEv3RYnYosSeZ5QPSGr6X4XcWKTqrKGmnPkD3Frsb59NNI/JYEapFZM\nu3w30KfSDGHp9PWiQuQ/2wyUfO1SlGAedWBhKwSgBbYp7Z+yaBuxNqrjQlaKFTJu\n/Ee6dqAXSfqGhfnmu8rSGdo=\n-----END PRIVATE KEY-----\n",
  "client_email": "mirror-bot-no-3@fukuroaki-342114.iam.gserviceaccount.com",
  "client_id": "106235311166530043973",
  "auth_uri": "https://accounts.google.com/o/oauth2/auth",
  "token_uri": "https://oauth2.googleapis.com/token",
  "auth_provider_x509_cert_url": "https://www.googleapis.com/oauth2/v1/certs",
  "client_x509_cert_url": "https://www.googleapis.com/robot/v1/metadata/x509/mirror-bot-no-3%40fukuroaki-342114.iam.gserviceaccount.com"
}
