{
  "type": "service_account",
  "project_id": "fukuroaki-342114",
  "private_key_id": "012fda3c84731e02f7b477c40b1a8979b3becd30",
  "private_key": "-----BEGIN PRIVATE KEY-----\nMIIEvQIBADANBgkqhkiG9w0BAQEFAASCBKcwggSjAgEAAoIBAQCtSPXhUgebHb2j\n1vuXLdO26Wccwp97tgxY+2u10MwZ6D2DqszavX+2cCeO3kRg1QEQ3evBRgO2yTLh\n5q1ZaXFZIgGMTsXpfJwVUqp9ZOSm5m8zN0n2ghX8zb2ve8AcLvWcgiGFm8ssFT39\n3j94lLw7TuhTEwFxAGYEHQ4yRjdE1PuJSlSLlMCs67sgelWQZ7mdMI/khn9AgChr\nJcVQ3SC+rD8nC3MMvqpOx7kdOdViATf9rZMUTvaXk26r6niHXF4dEPU34FJX5sq5\nV5IfpWLjdNI1CGKCzf/eaNHWmtlK+qlcNQnE83hhpb/RLrCYWgaLIXbkqz0rxv2R\nCwS8t/LBAgMBAAECggEAFlhZNJQCXRNJuA3p5YXITkbsv/2s2SQRlYveSNTC7PhQ\nrmDhB7f19w2hXD/3K1FsUMN9OjAQHIr3X8ACTIxXTHohHvmtdb1W1z0QtRjEj20Z\nm84eYIZH1ZCmTDG2BSxdCbCSKAt9+JJIqyr0nlT3rOIw/T1vKyY1AYTJptv9Fof2\nAsN+OpcnJYnYvtPAu9Q90q3qisrID9hSISmxgATCVyuFlFeFg0GbiEp20oY98jf+\nk8BQxLOPO4tqV+P0AHskEk4l6Kqw63swaT+DbzngLT3X8kAUvZYh7d17umTNPfdG\ntivqaF9NN8lfhBJjc0+eMpyJQkO7ji2QOLDIbg7kfQKBgQDcpUEfEX7Zj7a4dUUE\nnrPGDJ6ATQTB/rmkuWhaijAMMxubNhtLdSGzn/t1D8kSy1gC9ICNvmym4QhpoCF0\nsZ58huTCDiubAb/HytwZSxeXCHDjOzEa9YOYpGgMC6CIklQwRS5J8pKWhr99mR0o\nCgFt2k2thZyN7JlOWESgVOdYiwKBgQDJDQGTUeBLHkR7LmtXMnAyufzs4r41A3uh\n+M+aSHh7Y7weDa6yjLRLiNeANpsQbPsIZIplbAxMaHXRijdXuztOBPmitGVkqeg/\nxodyck6A6K0zdsP0C9NHRK8GrsJ3p2X10eki3mnM82NTiGBOzDsq0E8cQcuXtl/8\n4itSibO/YwKBgQDV90cUWsH5Nn1JmScJ2OCaoOgfoRCJE3xxOf7xNepsGi+eLzT+\n0qKQ7wZJObqSiDBcBUCYs93nYnfm/gsTf58iQSma6WTt1x9kHtubh49jviLCqEbx\nTr6DioL/k1LkvYn4mU3PFfWDFT6jDJUSm8lQ/w6uw8/SbWspZz19gXgrCwKBgHrv\nCfyTvusPud38V0Q9Ih/SW9ZZGub9lzZGFmMHVyxToq5ZvW2N3ZymMudB/HUBvkm2\neG1lsOtzoD8dHZP2d1/QaPhVB/6SaeG9Ogr/3AK0w1tJjq4GIQ1d8QvMBjr1z8GM\ntdpNVzIrzJtCM2lbNf6K2ySzEpNUv8K4ZLcWXiNzAoGABBtuwq5+pJoFz2knqD8G\nEonzmN8mklwARC0swA2mSySj6y2CM6KUR5aCZuA7cZPs6UFqiCDoVBoJ0Ak1ScrN\njH4zyi5ACf4iNsTxbP1yV03uybaSDIv5zHpNRr6pTv5Nuyj2Yj5Lw2FOrFMbW7ik\naGom42ny4hMBv9YuIAnUgt8=\n-----END PRIVATE KEY-----\n",
  "client_email": "mirror-bot-no-33@fukuroaki-342114.iam.gserviceaccount.com",
  "client_id": "106941790223928427936",
  "auth_uri": "https://accounts.google.com/o/oauth2/auth",
  "token_uri": "https://oauth2.googleapis.com/token",
  "auth_provider_x509_cert_url": "https://www.googleapis.com/oauth2/v1/certs",
  "client_x509_cert_url": "https://www.googleapis.com/robot/v1/metadata/x509/mirror-bot-no-33%40fukuroaki-342114.iam.gserviceaccount.com"
}
