{
  "type": "service_account",
  "project_id": "fukuroaki-342114",
  "private_key_id": "57dac875983b86c3ffe373016b8e7744d5e96534",
  "private_key": "-----BEGIN PRIVATE KEY-----\nMIIEvgIBADANBgkqhkiG9w0BAQEFAASCBKgwggSkAgEAAoIBAQC1iInr77THfbXT\nMZNxbKT3WUPybgLQQ9K8YM1iAiVtvi9DXArHqG0nBhzANvarbMlF38VhP0loC2zf\nsw3kI4KcABCz8E+fnW/XYWqBeanS2mel+p3w9R53KKMvxqJnrelOFMTUFo10of/D\n0FyHp7hxdOeEOa6xfTs+HwdJuFJk4CpUwPejopcnFXey3KVhaepvHMt5SWnWoOH0\nQx8gMHXJ4/7toLH474ywFSIWiMZD3iJC9TLEiiSB5jDPLZ5sXHF8OuGaIuFVtG0u\nfp3DKsPY9E6+6JQQ85WI3cC12hzguNm0iMOa7tf2VDtPv/qm49gBdN4XggJAPqFh\ntu03TSGFAgMBAAECggEAT+Lo0xfXRe0H3YtVF9aYWDODx8Vq3oziSb0N1QIdx4go\n02tHYSq48jHp6Bqn/bNvdZzuhwerPaq9fEoXJF0OJqmOsCjiWVsWs0Eu9hB80AoG\nD9BUvguYnxaWjblLkfXCFHbmUXElSfzaiakBdz8zV1Z7ZcBepMP4FLPh6KrBM5uE\njY92IRg5wA8ULIVna4nt1ZGZNg52eyGGV3BxBesHMCaSO0q4iAYw3Klnghhw8cOY\nGRH9/TfAV5jr+CLrbZGhuERgeaoOqsTytmsa7QOjZLmjl92ZRyWfG8V4jVo0SI6B\nWwV8tAXsLVKrpoBQf9zf72o3nnAn8PM+9SsqkaEHxwKBgQD6utVl4GqZ4+6/2FVO\nGLt/SvlsKOf6oQVlf7Nvg0wbhiRKgWrmWLs8Z3hf5be9Jh+1G6tjewWO7eXysX2G\nt6XCvUIaEc7nMNbWbpqpQ1Y1v560dwWTlRADs1N0plGN09KEQIeOY6bkI0h2+ekn\nyZ/e0w8gdYV9QffBJcbj1N3YywKBgQC5WVypeJCiidlReyxWC9EwQ5Q5dq9oq80V\nVF0xYNe4dH3H30MZKLZvEX3vCMerr41C3WQ1JqUSR5hNw7n51RypPBDuEtJmnX/W\nH7VcGWjIcwDo+FkVXQ7Ba+flXLqxCAmPg3N4y975TauhmbQ7ecMaYYCB24+O6WXc\nHcG7FCO07wKBgQCU6hqMY3ls5R+L+eTQeYgC1njFcJY3GSOnYO0lsgml30n2pl7j\naJfsDFhGPJ2gTeBPJJvqfcqTVWBZgGlZdgGRY+66pREJ5svyl8Zr+X5edezAqmA5\ngzL7v6o1ggK2BbTmr5zTSQR6Qypq34tHAk1dfmVhlesutdt8b/9smaUZeQKBgHQ+\n7pW/bv7x8+FdniXtTWq2x6zumf7M2VgKTFSex00Biq2jggKyfRDV6KTVXd14weDw\n11tafGcljgkfu3FMTqh5aqjWFy2SlE2oH2e+6+/j6Os0bzKt5YY79fntGY3UW6Kt\nr+tP+e1j4EP/EYHH0SyngCBxouzfxymxZALAE9DzAoGBAJYyBODOC0UFuz31Y56L\noOW37yTj0BDwbE5RPnP/bWcj7FEOYJgYAcCSHup7om8HszFzblCVdBv46sxz7u4l\nhiH2i2QsUfA1+HlCXp6/CjaActKoaxBWsdcY5AXiaCnmMaSvpVV9Gvf1UTh6UHLb\nytYHUEGZMndyHjHwplCaGr1V\n-----END PRIVATE KEY-----\n",
  "client_email": "mirror-bot-no-34@fukuroaki-342114.iam.gserviceaccount.com",
  "client_id": "108296264619130081157",
  "auth_uri": "https://accounts.google.com/o/oauth2/auth",
  "token_uri": "https://oauth2.googleapis.com/token",
  "auth_provider_x509_cert_url": "https://www.googleapis.com/oauth2/v1/certs",
  "client_x509_cert_url": "https://www.googleapis.com/robot/v1/metadata/x509/mirror-bot-no-34%40fukuroaki-342114.iam.gserviceaccount.com"
}
