{
  "type": "service_account",
  "project_id": "fukuroaki-342114",
  "private_key_id": "2d4dc2bfa6e5281e10904c6f39cafbe17631a504",
  "private_key": "-----BEGIN PRIVATE KEY-----\nMIIEvgIBADANBgkqhkiG9w0BAQEFAASCBKgwggSkAgEAAoIBAQDJ+LorcVl2egNx\nwKaF0tBfI2AWjjVJE2B7wMVL75CL1DBoZQaZfT4bLO0vIrzDi35F3qDAy0w0ZG1f\n/IpjGybPWA6A1HZczkud/tsSXziKODbd81+xKrtj37m7O28CXgbCobQY6PX5QTnJ\nPO6GCeu//3EGEtB0p/jKA8f2mj4oQTpV3GuGcY6cQsFtZFlz/qFoCDkH8Cgu9dGb\nl5jdzgvGmuqynzOGt9sNJhb2y4EwPxhY6X6NPlcxXEVcBvsij48/6UfOI1boDpAt\nd9T/vaHWuwgdOhmltm5jDpNqYsX72UoQHmxp22OfcsYYBABH7txtlae05G9EcgJr\n0/KlFu4hAgMBAAECggEAEJemc7s0Jk+PyOCSzZusEqTNWA0Gw6Ib4w7LJpnfvh0I\nfQsPp7xqRcFDGwQ3jbj//q1zd2M8N3GoqqIMnGe2oIITbvIFZ0prW+d8B95avsAv\ngbxkuCFSk7nlgEQ5snAXDhZKvWEmE/wPy0B+N/TIsVVC68TP60WBYtc8rj2trZDI\n5ZOIGT6vN7Wv67hujKlVAHfbAoARBGk99FdgCLcrkhQs+GrjCtklX6cylN2MgMH3\nzFN+72r2BSkSNcjzBMD+atpSi/sDyeYeqC2PkP1EOx47ob8EfrL7cTLG7t1ubTGG\nZ9WbxJZvi3K8eCq9Z9OkhqOQEo93ZjErICyv5PE2AQKBgQDkINBVDw0BFzagqKO7\nDPACbKcZT34niXjOiZG6FZXcqKO6GVHU5btWZi3nIs1HWajJfszQ3nBW1cIgHVmF\nhUKds/tlBsmE1KYSGbaYbeMZiLlDksz2enDZQERE2GnjjVGKLVKpZGNXUIp1G+NC\nE5X9C4yWzSS9bqjFipcdQ1MxSQKBgQDipc+3hefDnGXqr9B8r7du97mWq12sv6Cn\n5IDoSZaySnucB578+i2T1GYDITSOXVENIFOt7LeuMEgDEIAnvpVyUI3FkdUTpiWE\nn+q1+18J/4e5IVBPyGVu5gNbzj8BHkVkJe73aQZ/GGdeim4Tq1u1bpV9Z5SeKpXS\nsC08AjwuGQKBgCohIThEIkusRMtguXQGzKA1/pn/AzY7/hJud3odGGL6xdnNaT5e\n+rzW++0ukSh3F2O2xg5gtfBjY4lYwjqVRJspLOkYWsjsGItJMl5uFL2XcVdYWf++\n1u5YHwNz0AJVC9Tvz882md37IsbD0rFWOqHTqzACTKGrOQHaOVQPJeL5AoGBAIjy\nJVs/prV0F8TBbNkaF10Og+39J4HM29b2Y8l3RX3/MUcq967lv4pWSTlU4/uteN7U\njJtHsAipFan8W2MobgZ/k9ov7q6Lspm7Qseo1lklNC3xaiR68ocapibfrQQQ9V64\n6PZHWGyNI1BllnN+E9DBu8PlRVB4bMS8POjIdPJpAoGBAL8NlpMxWCxpkQIpgspn\ne+Widdl5UDsDWCjLdkC9N9Sjf62GB4KQtVr/UxTxI0w6dPhWxNxFcWL02V9iGPh0\n4jFxu0z6N8N8rsJZWV8e/qwDcpiQnI4BkM+WEOU5oCKEcIdL37uCz9T949ThnA5m\nbyIbzsLt8zFD2kqDRV/i/ibx\n-----END PRIVATE KEY-----\n",
  "client_email": "mirror-bot-no-40@fukuroaki-342114.iam.gserviceaccount.com",
  "client_id": "106000966320382128621",
  "auth_uri": "https://accounts.google.com/o/oauth2/auth",
  "token_uri": "https://oauth2.googleapis.com/token",
  "auth_provider_x509_cert_url": "https://www.googleapis.com/oauth2/v1/certs",
  "client_x509_cert_url": "https://www.googleapis.com/robot/v1/metadata/x509/mirror-bot-no-40%40fukuroaki-342114.iam.gserviceaccount.com"
}
