{
  "type": "service_account",
  "project_id": "fukuroaki-342114",
  "private_key_id": "d513c959524098b46ea239fb5b88a0a73a7295e0",
  "private_key": "-----BEGIN PRIVATE KEY-----\nMIIEvAIBADANBgkqhkiG9w0BAQEFAASCBKYwggSiAgEAAoIBAQCcsZF1iawhaR9u\nqiNmRcNEKpoKMhboVLv/A/zGRJ+j+JTdh6wVKfwqoMvtDMQ/eEnxQz86KADIobBH\ntkBOEzrhHZqdsZAz44/MjppNfinIZGhgRntNYHze4GjnZVasODPkQXKr+7O4xkoe\nOpKxiUa0oWmlvp85tl1xifj0pSJTGAgzPw22itVA55fEp4XwQgNoMVb9kNE5fCga\n3fFqOT9nxZAatYcXyd2iTk8f39k41fxTy5Ea3E4KCc21p3q/xL5F5irrDdgqcK6/\n5lM8r56w4pVkdSJ883ehneFQKT/MxWTleaMyBnIRNb+kHlchgqtpHKzio2InR+a3\nG2yEDbEHAgMBAAECggEAE+IETyHVEbhBIM2+CDA6AuBVA44vkfOOl2FuJcp3Z1sX\nqLSahWT6dn5I4h+Il3UwDMk3sK16y/qYX8Ekj8Oo6P/UqsXpQmxRxuchdUvZCXCU\nPgMzijIAJlfbd+FICjpne0NCxcf+mievJ/7OtnBw5GLHAR0bHzugx9N2H7UEkf57\nv4ZME/ZdeLIvLnMWL1wF5Iou3ulVaGu761bBhbJMbe6HNDre/aW+aKT3Tv7qefsd\nrwjcCa1zXMZ7GkGJa1qVLda/ATykzorb0MzQAckIro+0SeGY9xfTj/J6n70ZNIUB\neEWj4tL0vGheq6Wm6EEu+JXJgDLbdc9JLF2vZwAxQQKBgQDU35RqgRuGlXspG39b\nZ6CXu7GuviPrE622D/WOmlCG/Kw9E8NRFWbNuKXzoYZiIMXiyntqJYPvl5YLxrK0\np6Bg89w8Gd8N4VJ2S9zOh47lUNERneJueq/V5i0WhbR9F0usS/zo4MAyCBOhs85G\nq+FOMfckNrwCmnjlome85ORZ6QKBgQC8cEtXqB9ZCr3UOoLGWUc/FMrpWmLKwehq\nrte8cPoEYuGCOfvW7qmeD7nYG8WoExai49zs4hcTJHNEze+csXJLFVXCPgvBsO6e\nDRN3ssGWSz8cSuLmeTB2w8BCSaoMqfSsPyH4u7Mds0X6WhOmImM0R5+e5ePQE29b\n18jfYJ7tbwKBgG+SA2rS4kdmn1eLRvP0W1JLmLQaih7SgJBUywID1UL6uZeFfTBJ\nREl8htYriZBy1uSn9YlLwlvYGldvvAg9dyx5g6uob6UJvLutxTwmBnogIoPWOXBo\nMzKr4mPUjiWmCQ50AUlZSsKuQwPUhr+5pGvkekDrwxymM8k/lpmFaj3JAoGAat9B\nS9C1HroB2YjpvHbL+pHfVyOFHjuFhmPtRRnKIoy2Gzaph0fKeTOwEkoF+wIAd5fG\nJ68+qQOmQGKPwA2/pafPAKBR6KNhYdBGtz9xnbzFaVVrhI09GE6DDtValV4av0n7\nCWfi+ThAuvE1babZHsB0XhlB8DPll3A1o8LXwA8CgYBzMU5NpaDceoP/XYjvMcct\nuR3KnbSxEXH5UvLWvmi0ftVBNYkuY+XRh57iSmyQiSojVlh+5UCUHaZhNqgTBu81\nlYKUvp0dR9Iea3ZGuZuINIx9pnv2CM3UWd+0tNFYPyBVVjYTG9QhtI5wVZ3n7SzC\nHm8JC48LSGs6KUgt2bOSsg==\n-----END PRIVATE KEY-----\n",
  "client_email": "mirror-bot-no-43@fukuroaki-342114.iam.gserviceaccount.com",
  "client_id": "114204057608900253499",
  "auth_uri": "https://accounts.google.com/o/oauth2/auth",
  "token_uri": "https://oauth2.googleapis.com/token",
  "auth_provider_x509_cert_url": "https://www.googleapis.com/oauth2/v1/certs",
  "client_x509_cert_url": "https://www.googleapis.com/robot/v1/metadata/x509/mirror-bot-no-43%40fukuroaki-342114.iam.gserviceaccount.com"
}
