{
  "type": "service_account",
  "project_id": "fukuroaki-342114",
  "private_key_id": "fcb4d33926d29d4d266cae40a64ff515b6398d86",
  "private_key": "-----BEGIN PRIVATE KEY-----\nMIIEvAIBADANBgkqhkiG9w0BAQEFAASCBKYwggSiAgEAAoIBAQDtVOzoDd7U/57m\nI/zC/ham39hkqcLtKyIJDrbtB05EI9IaBNVl/Y8klS1jjCVnJiK3ywvVpzN3KxIR\nhIq8xVGUnueor1DoWZ0zxQ7a9jWrv7ANt/x0RlBoOn5XcJTIIqsGzsjRmzqQuExY\n5tvTR8FKbOXS3k06gDeapmPhvVk/ERc1Y3ZNd7aK050a6DdP8/KCt67Wu2mEWUZj\n78E+5P0yIw+zy+0aocjNRKd4+jSYU5puJdEWOhvf8yBcqGypbzSAm/Iyd2xTDPC4\n+5J2ygk31ncuwCFleZGmNyroxAkeLGCQ1TTcqfeH+6xhpKycC9bIqYLlGUO9BSYc\nrSstIkZNAgMBAAECgf8b92XzR68lFPokecPPNncfiEEiRjQyE7hvA3eKzCbs4KEM\nGoW1qatfJDUKW063rka+Ya7YqQXnhQEcD1efPEvgt4OU3RPWTWO44KpfeE6FbpEl\nt13dqxYj3MCxN72l18VPiA53T1NsukrvhES4djwmCQRhVNDE6Vb5Yky4Im03K7zy\nvvH2Df6yshA7bTUPLDklSbi/oUWAfytnBTwbvtmTT6galsofX6W5lUj53JQ3ECjn\nkU8NM3/bspK2PPH0KpffPhE09Yf+aiSOM6iR+CCpcHNxwFqaY1Y8VNcdlwaEnj58\ncQPIZ6yjWyHyaZvvL5T0CenoO5dPMf45LB5CMDMCgYEA/aqJ0MEfwkQGboZQAVud\nAn23/sVL61XUKY9mYalMmwTzsTpKi9c5vbynCYEn5NI02nTmqVxa1WUBKF4iqnfV\n7UvSvZdOXSLePPsbQ4PcUienrI7I1Zm8UtTvl80d6sLhIChuWP26u2TmwpeSJNpe\nCutKmkBLrpB4X6GDjvskc3sCgYEA74PqHAMm0wQf00KldE52fCsXcYasI/UVVkKo\nvUDmhw4d12qw9WP3bqX/H5ZmWnANbMzi00RlNQENbL2mXvl+AZOHPu/MhPrlaQi9\n9l1WHTL5gKa8ML5e/h8OWvu15N2ceYMdTfIAkgwxu1+cqZYotXfteV5Bk2bwCw+u\nfapwvtcCgYEAi5ml/Le75aqQK5VJRGYJs4xCjThBPsNeXnznqEmGui1we5GL4wfQ\nZCYFe0qUDO7OXYdGReBosNXEXFXqGAyZM92tnd8+Ji2BRugeqfpQbvoZ4fI2fq77\noE5FiTI+C6uyP4NgryL7+BNgl6jYqeVvKe0xglBuFiS1ylNV1oNKHS8CgYAEPFn8\nitW57528d7ZDW0vfIEf22wHaVPA+qUkgp7Ar/UTr1VgxzsXGcCsV3OwMd2TVYr40\nLEZ57H3XSXdSwKjI0FoY89azF1jNRblOTRJDy+37p3c2iXdWmSgA1ei+lmi5AWeY\nREpcStjqTmOP4DbyFp/dgJw6RhzCpVFZqZT62wKBgQDUD6nCrbzkKHsyCYQH/xaJ\nC8JH2iK/OGL2FDV+S7WH2fg6zgslxIv0wvDXEkbdhiHIBIlgJUZCRIY94ll3zJrQ\nBhFTMNGN8m06imCORf0l+pysLETWBqc0YwNVsm1znHn+hdAE4b3DXRB1WcT+jlb8\nOGL5lXEuBjjWr0usRXwBSg==\n-----END PRIVATE KEY-----\n",
  "client_email": "mirror-bot-no-46@fukuroaki-342114.iam.gserviceaccount.com",
  "client_id": "108537507221018414994",
  "auth_uri": "https://accounts.google.com/o/oauth2/auth",
  "token_uri": "https://oauth2.googleapis.com/token",
  "auth_provider_x509_cert_url": "https://www.googleapis.com/oauth2/v1/certs",
  "client_x509_cert_url": "https://www.googleapis.com/robot/v1/metadata/x509/mirror-bot-no-46%40fukuroaki-342114.iam.gserviceaccount.com"
}
