{
  "type": "service_account",
  "project_id": "fukuroaki-342114",
  "private_key_id": "d115646984e62c354871deea46fb216d45261edc",
  "private_key": "-----BEGIN PRIVATE KEY-----\nMIIEvgIBADANBgkqhkiG9w0BAQEFAASCBKgwggSkAgEAAoIBAQCNrJhSulv6Yp5W\nJL4zld6cR34x4MhbmPOB2a64jfVRVYRMieuBiLUW6PyHtMxImuvzQ2caQ4/76Lza\nWNbqvDVL78Z/Gp29UsP4PkrUCQMwLQ7AuMLgw49/2kr2R2ojaW1Avdyr+9j0eT4B\nPbAIVjkmpDpj1MEL0RsH+RYbUt+S87yWPhCHcktsTATyED60uzwmrg2GTHI0Yk7b\nO1jO+bmkBv2EMtYehXKRFNcGbIC1EbcXqiFHwZ1flsbONDsIEH0et1qxa9aYFFxY\nqiruIFT0UrNEcWJf2bRdIZyjqEiPOcjsPSImh4QgEpvOTDT7kC1NfT/DFISDZ94/\nzJlYwmYbAgMBAAECggEAQ12G3ot7sd7T0D1PbaL9Q41hLaFnU9qyKxPRlzL1K7QA\noQ5Ru/m/tgGaFoM7QejcegMaUuw+WjesGRz2MI7GvvFoDsceq0fgJDmmhhU0/WLn\naW9RRuPmZ5JqY5nIl8cJKqg89lBeNL0z5Q4qloQ9T6j2lMK0+oP3GP7xapOo+KwU\n6AApg+g9FX6Sm9EVAFiKMbApreiJHj/nKFU9zO3O0ARoHonfBbyfqT9g2kSWf4ou\nHbRUaamn5IRHzp3McQZ5lLAaVWJiAd1nNRP5YJ/Irkg8ocW4VXn0BBjlTwWcC8kv\ns5dzIie0coAp3vAd7ginbXsPLTJu17UpgNtxb4Y0NQKBgQDAp/cZFroX/PZrJeig\nd/U94DR6jo9m9AeqShwaRLTQgGk9tKRkP6qBtYYCTPHxvBozRRySeEN56MlaGfHQ\njRqzjwydpZwJby/h31LATOHyQrNRg+sCZvvoM/yTS1VZN82iWyF7Ip/Nl1uzfC7g\nXHglCatwxWDFPkmCQ4K1A+Z8BwKBgQC8QW/m25Ye/W2QJl3BqC8pUOBTBpKu3gMZ\ntfvMsOyKOXQ4p2XAVMSgKaln2ZNDTqTNCAqRlUjml/X7ySIFBK1Vkn7ZgdKTKfUC\nsPKEIN/vZU9cNw5n/x+17Buhj7wdelFgyMWJa3swGiCYNQzMh87JowHENflYJVrx\ndyxWBwIoTQKBgQCh+9fgCWLYjoGmH46TdakGqH+XWEwsdRwIyx0L3R7mfEGAd2UN\nQRaczsJpJsb6yHyDBSX75RBe7SJ3Fn9iKXH87VbfKgKjUBBDauEJ/NqxNfHNpQww\nzeQaHbPNKLcPN8M3MkZZYQhZ9VxN8ij7zePayGGUhPBTh4aI9zhr+GaPewKBgHyH\nbNZxeySUz90DBBIOhuP1s+438t/pzHM9hosonc/xoYe4c/5+FHM+G+mua1OiujFG\nmHclIUwoSXd83Rwks+RfO7n1vq3Km2BkXIg6ludtRMnjQYxZn0hgHwcIZY+6UgqL\nxN/aUWrIXbdRoF3LmGaZhZmdeotsanRAOPvPNwYhAoGBAIIkpM8V3h2d1+g5a04z\nWr3t5zsucWMYRyp6hKyDxMmncss6fcNrN0xVYqhubqVyCSUj66ZoIjMiWjbQJzX2\ng34IsxHk1gRBY7jCC3utonRIgg3nZCuMUJlrWc8Wi1b0o/dzJ3d/tf5jsc2Xny/H\nJLwKzkb/IfywHoiwj/7NzWoR\n-----END PRIVATE KEY-----\n",
  "client_email": "mirror-bot-no-48@fukuroaki-342114.iam.gserviceaccount.com",
  "client_id": "112812147326458213098",
  "auth_uri": "https://accounts.google.com/o/oauth2/auth",
  "token_uri": "https://oauth2.googleapis.com/token",
  "auth_provider_x509_cert_url": "https://www.googleapis.com/oauth2/v1/certs",
  "client_x509_cert_url": "https://www.googleapis.com/robot/v1/metadata/x509/mirror-bot-no-48%40fukuroaki-342114.iam.gserviceaccount.com"
}
