{
  "type": "service_account",
  "project_id": "fukuroaki-342114",
  "private_key_id": "38719cbde938550859f8dc6bf97043f028395dde",
  "private_key": "-----BEGIN PRIVATE KEY-----\nMIIEvQIBADANBgkqhkiG9w0BAQEFAASCBKcwggSjAgEAAoIBAQDoS962HopeBikp\nmgFMiKIOtbkqGaf/YBswzPTIBHIwXXW9jg6ZUsRjtCsR4Mkrxf31Lqwz7wGxj7eo\n1TJRj6GIT+7ureytZ+O7D/QhR6YYS5L1/tMQi8fYhJzsCwPtV4EH79TPau+xQ/vW\nRT216USPG65VstwAMKKNgDZVewYG03oPSAk9r1wVJ+aTjOiQTOgQ9kYKoPR8Gk4X\nRX7IXg4WZyizTtM7XN9EDQP0Lcffr7svglAeWPqtFgXjravM5SASwSem8x2iPzXa\nn+LCgRmEDHE/a1Y4Dkw/Vgc5WikXXxFAv0cVSVRghLZeX1gIhJnDBZ4xY5ZlgSiR\nXjvK4ThPAgMBAAECggEAbKDmIfZAMF3jK+An0Vlnp0dVsplS1Xpk3LpLkal6mKFr\n6NugehSZYCKlrXOXv4+UBe7weky/VwBlG1+vazKmkC8JBbZxolmdxiFcwZ9Wza+x\nprWmj+s95kOFemBgUsIDxelidCiGtDedcgLpK8NM2ztPmCXO+YvEyDT3s5uXIuMn\nx/iTiYhQp/vOQbRgFKEabc8DgvPtf+kvORDMnXxL5t421liCOFxrCBHUvUjcKig5\nLuYvn7kXsoOlIgJxlMNF+nWmRDgRHdlLmMKvmC5TkW6UNpBO86aTEF+tq0SAnTje\nNxPsyhREJRXu59d6TE40LZpU0ONpk9EkH7xN7dYSYQKBgQD9YXZwmdXCv3Mz+obV\niIE2eM8Lejbu7Q0wHMrU++zUCyhmgVBZLrmw1Q35RQdRMFhA5+nmRBc4eir2mlMP\nUjbwX6/NPHjeYKx1kK5IvGwPS8FD71gAWxh86ynnX21UjL376ziO/B+3Ao6c6Nyg\nJT8vTZdqZO5SFbRJtQAxsvFfsQKBgQDqspxIMIs8diu6ft98A2I3tJeVspd52ET/\nsA1W6Fe4opIIruEtaxkmbVoRZjBEOSQT4qThYyr7+yyvbaTKen1QY0GYWPdqr19V\nZIeSXXDAacbVBt0nAIpU9IFo+blotmvC5aA20wukQWaxK+Ho9uwIYrcQS7mqy4WI\n7J56ivoX/wKBgGTP0UrtugH5IEHvDJSK8jYVDPOZFaAsStH4sq7Y6RpYsiNOkgRZ\nteHoct3ZnBaucH6qhwJp1v9OhCeHsUJoSJmMyKqUw9Zeil9gSCeCaFARqPx5jv7d\nP7n76rk2244HTVOc++zP3WJ4Lvu5HobNKv2MFpFrRPL91bR5wnEDrEuRAoGADDNy\n2nHjmyYNiel0ls7aOUkjJD4fj88Fb0FowB7eCJQzAU6OGD1cFlpS91qXocRSstHy\nfmEYZ/cb0JbjnT8W6qnuTAw7+IjbbOYIAjznUqltE8ACmTd2+YmofJuW3vG00nH7\njT4VedmIjCda3DCR/rGbELbPFSj1bTPX3UkCTWMCgYEA3zJrjg58TeW5156q8KSb\n3n4tWPD8V9DA5SOsA518Bco0huoG/dp/kkM5uTbzZB7j/YVZfSIjJC/r1Vdo4HBH\nv4/aYyqtvVROXQ3QyPzwEJKZbOpCXuZjUpdDBvJc3F7C6MkoQDANYdqpGRvELNe5\nkx56PkjlV92RSVCGi61et1A=\n-----END PRIVATE KEY-----\n",
  "client_email": "mirror-bot-no-49@fukuroaki-342114.iam.gserviceaccount.com",
  "client_id": "114433340053457483101",
  "auth_uri": "https://accounts.google.com/o/oauth2/auth",
  "token_uri": "https://oauth2.googleapis.com/token",
  "auth_provider_x509_cert_url": "https://www.googleapis.com/oauth2/v1/certs",
  "client_x509_cert_url": "https://www.googleapis.com/robot/v1/metadata/x509/mirror-bot-no-49%40fukuroaki-342114.iam.gserviceaccount.com"
}
