{
  "type": "service_account",
  "project_id": "fukuroaki-342114",
  "private_key_id": "6bca314cf86f2ea992fc0eced12ef1b364671ac7",
  "private_key": "-----BEGIN PRIVATE KEY-----\nMIIEvQIBADANBgkqhkiG9w0BAQEFAASCBKcwggSjAgEAAoIBAQC4NefevwJEBwkZ\n55FMuPgMI7rVWcJ2WU4cao5/2TVhdpIBrzZtPNwPvdvrwv8nC8O634ziyo7xAhtN\nN2El3EZaa4uRH3hx4wh+N9qSdt4ccMYNz2YIl1SAnKrmm/nvmhCENRHTOlC0k64O\nNemLe0SNPnP5/0t32x/YLyrWFsQfsqQhLvrH4fRYTp+UwBzRWpLWjOr3UbK1J5Ic\nvWwBzONBXq1WGjBbOl8aCC2+GocI9yHUiacfHXA25oaU4V7BmkeVXjajAZupHOMK\nxK9Q8k+rUwdckQ3agUcxUy9AkspyIYQ44PZTJ/6wcLtVay3Dof1bgnFNm0I55dYW\n3QZB6Zm7AgMBAAECggEAATSxIN8lN6bII3hFljf7v7CYL39X64hoH31/E00rsUii\nagpok8x7MEsw3lk3bF0CWf3OoUlsKB24agf7xdCsUTk0/60yD6TJ0HGzJ5RJnewL\nD9oUs+exsOnVoI7S0wOyKfti83wFPTleQU+PCM+0wivvfGp0ZwNzMOoWILKjdAWn\ndjM550Xp6mQB9JJPF03ow8P1ChBzKfkfG/w6cFinaT1WXfjQYtP402vCmZVVBQCL\nTnQz5K8szMPw0rgIIX2JtjJkauYAvkBiv+ZyNZHjcpxUN6NrI7n/hO22Hog/HjWA\nHmIqiu46eJxBWYzOj71AHxnOVLI6KRiLA+q6xw4F0QKBgQD+6ZCkP/9pYDzydCx0\n3AmP51Nx2/iGySSw3mCbMbKDq4cMfuHRXBu0dsAYD8CKT2Al8sQX0v5ljhnQt1I9\n0u/+I663mpXDg1ZS+bMOAMupceyFXaer+bESGiYXyh8Fj7rt3/YW2ngSs7HDaeWv\nzuxhU37g3M5sUtoCjSSQdAdtowKBgQC4/x1hkiN5e2WcErGxvKBWEzHU/dD6vLLe\nMjnzrW/Z+tdEKXY301go6VjH5nw8+Rqttef2magAjOhn5Wc8qtW6YrSADYp943YA\nreTPQJPXdJxRFTVM5+RZiQPjZrgBesvWRHVcIbNDNQCiGyq4tPiG75dMHOyMT6bp\nV78043w1CQKBgQCgXjRfANwgYSk2pxuo0R066R84DFlIApcQpnZEbHmQGIM3u0M5\nwSa029hxyscovFMSzK3NBzKAlWtsQUh+GIxfZ/dtDtWVULUoMmsRLjLygPd517e6\nm7VoXAcHBGOLziadrD5Xlk3gBiiZda/IcPeJK0wxDvjWcTEyVbVhI33g3QKBgFo4\nCEMiOuyu0iHoOAJ/BA6WM9I0qirtxal5AywkZA0BOORD+CRHjJH/Is3ySJqPvYQD\n14k67GTAU0L/7HX4tly8cFyWvfig6lZwd8rfKnqDowwj9Kd527ISkPPgj1IhabEo\nF7gDs2HOQm3MI+yKTT25MKbs4CuZWMQph9UqL9PJAoGAKjTlXJiU26cp4Ro+ovcp\n4izBVIyqSHy+c1YvBFG9VAKZrgU9M/Fe69bXJnt9+4A8j2CByzGFjbgTmXeEz4YX\niJM2nP9DKqh6/HNa+ZCB2sTpuBJAsxQLmFOrthc6b5NemdzbrNqEqUvW76iV3F5R\nvC2FMG7dvIp+EcHXijJVLkM=\n-----END PRIVATE KEY-----\n",
  "client_email": "mirror-bot-no-54@fukuroaki-342114.iam.gserviceaccount.com",
  "client_id": "100387462284728254388",
  "auth_uri": "https://accounts.google.com/o/oauth2/auth",
  "token_uri": "https://oauth2.googleapis.com/token",
  "auth_provider_x509_cert_url": "https://www.googleapis.com/oauth2/v1/certs",
  "client_x509_cert_url": "https://www.googleapis.com/robot/v1/metadata/x509/mirror-bot-no-54%40fukuroaki-342114.iam.gserviceaccount.com"
}
