{
  "type": "service_account",
  "project_id": "fukuroaki-342114",
  "private_key_id": "d3106fbe4ed5fb7a3b1d4dfa97ab16ca343540d6",
  "private_key": "-----BEGIN PRIVATE KEY-----\nMIIEvgIBADANBgkqhkiG9w0BAQEFAASCBKgwggSkAgEAAoIBAQCpqDkenTYdKh69\nMJ9KUG1RffwZFqASdgXDNyrCZKCFS2YJvVPhyI4YYRtLIU8tQ4Z4kHHFSLEx+ijw\n2WbWSWJN0BO8OEVFzhwssnrJq/fI4c5ljMQJBEx+0AGlN3n4KCBsuLWem84Ebrd4\nOq3iHIJr1D44ob5GDiDHaKnhROBjdzDruc2+ZxK64219mDlZy+yLwlSEePTJzPnp\nT8oZqFGAXGGLd7gakwyKXKCDG4LkazBrnrJcdQHG692FHYoY1Y9+jEOHjjT4/eHb\nHFIvILka39PH+6Q1OL2IoS1sieRCFBalG609jbhJjyG+TGs+YM14qO0yxhIsvh2+\n9NDcG9+lAgMBAAECggEADe5j3lkvd96dDpD/C4WmLGJpgI/kjg+F8p1FlBfaPIfP\n9a3HxQsIbAURTi6Kh197m8vUo8wPzNhLY1eew6rb+SLEdBi0y4Icuyjev0+xNZwh\nLCKOeGUTePhQokX3bIKzAup582+8z41d4HAFFkOcDAmuIE1bx/niBC3agUZ8HH6r\nOgv1e0rH7uijBXgxlSWBKgGwCjBdonaMmnNlF6lfWofY+QAnhqf0XALTdYThoZcg\nrLzMVkORcStGqLoQPjMi+KW1AURHCU/xFn383/JrHrEZZiU5ithndKy6eVGjgFL+\nESAiOAtP35234jaKgXmlju6tYG/JAhdxIupLBhKyEQKBgQDjEXicljBiEkZjhaYT\nflriwAv3ZsJvuc2xHncGOyLBu5Q4wsmrtkovQu1UHsoBW5kXP2bHN4R9UDuSCa77\nRtdxmI3hxoMA0QEuHYOtms59qO2WJj5fs4Qxi53Gziw6FjoFtVROvDfCiUKArUTm\nHpe5JCtcBllxUGUVlvZj1saVKQKBgQC/RhyV0+4icB7KXKRkQNuCgUupQiHxLKA2\nN1TBWGYRvE4Fryb+rTwXSvI2qNniFHOEC8bXFyYMUDe2TSKjEp9reOHtchxu/xn2\nb/tJUZb99IQ63G9u+9IrOfdJgNfVgnpP6gl5wSx7hcJ2BMKCPtFg/GcZYsohbPC5\nE8egsEpqHQKBgQDfCexFMyl3S6gkXcUR5M11aVrXuvJGOGYZEmmrjy7GyXAAiST7\nK+WWotDoDg4yYzzvHvHfwWK8jLDW8/gTDjTVehnzqcBIbwQPviH3xtYJjINDN3GR\nI4439IIYI7BBpk98B+82H59N0PGn34qL14UE8Mg+bmYw7d085bpDu1X4cQKBgDql\nRpJxvmv0sJwfN5A9ipBDEG2/ByUpJ5437NazQehiMhHwGCax+uCxa/5yWwvEdX6h\nFcBRKqtP1SUiFWKmjRaoo6zn9evab51tzEA4sfD/jaN2fvwqXdA/H6D7zjF6pgHm\noi0gm4DsDCmfX/wLQqtX+EyCS7Nf8Zbth6GvK8HJAoGBAKBroRY1clgeSeqyRCpL\nsT9CyMQbgG0kHtO54iINjfDhqtc9IPRSYRROSQhFZp7hyFECQ76eDBQRGBV5z75I\nv2wOhR4tkC4Ii5qtJClXepSZULW6miJOE6Tffp93je7w9bcp4jtYU8SzpIGL4GKP\nqZV8igDUiiDnuJLiUbQyLIk/\n-----END PRIVATE KEY-----\n",
  "client_email": "mirror-bot-no-55@fukuroaki-342114.iam.gserviceaccount.com",
  "client_id": "108324477616098472043",
  "auth_uri": "https://accounts.google.com/o/oauth2/auth",
  "token_uri": "https://oauth2.googleapis.com/token",
  "auth_provider_x509_cert_url": "https://www.googleapis.com/oauth2/v1/certs",
  "client_x509_cert_url": "https://www.googleapis.com/robot/v1/metadata/x509/mirror-bot-no-55%40fukuroaki-342114.iam.gserviceaccount.com"
}
