{
  "type": "service_account",
  "project_id": "fukuroaki-342114",
  "private_key_id": "f0178c6b5eb09d49ca9e6d73a8beba529595ef25",
  "private_key": "-----BEGIN PRIVATE KEY-----\nMIIEvAIBADANBgkqhkiG9w0BAQEFAASCBKYwggSiAgEAAoIBAQC7qqwJ3pj6Pv3e\nLcTVmbBzyIpXwRDPFd5oxxnrbQp3wdTCzQ88tKstRiXqhzDoXtRLsW/7WxsAlle3\n4X/7eU93qTcwFgr2CyGXvfrCYj7S1IL3EDxqGLj76ktVwf0Y4dCJchsEId9S1geC\ny97PDpeeH957ZayAAQxTlLYrs6Owv9D8WpBF0cKz0b82TCd3mnw6iQPUEZbtpuBp\nu+FfaY/II4jb6CM4OOiTjYv78cMST/7NnO7B81cob2CPazMLHgFi7A5thIi9jkds\nGhmJf2f1nq3jWpDYUoCQJrce/6x/XBMVMhvZ6NcOUSAVbe413++G/hEiKR7CKosQ\n8blg30RxAgMBAAECggEABaDFm4nU2c5j+SgzZWTVn/H1RNKfVoKKorxJLfWyxmrQ\n9A2dGx408vzjUWBVX7v2TxXRbKmWX/hiRZC08J2k++BJLX8/vBITOL8uYxV6BQMc\nBrJH3uECbTBL1ZTQKmadRSifoEpZbZ0fE7Wu/H6CHrBzJjgN9Lcd/5oFCOml1fys\nK8RRSY1X4SbRNA/BKtiqy55vf87Py2XhiDPNp5YCWc6ez9PF4zsWiMStB/U8u4xf\n5RAB9/+SHw/k2T7ONp4XWRCUUMy/DccYFy2FHPcI2CMyOMqeEHl60oW8oU7g31kM\nE1ymBq8r3SYUHLGq1aCo4C07rvy4QGfTAUrIQSxnMQKBgQDlufbT02bBaeqN8zfC\nahLb++lun5iKqZptD57xePoiIg+etYtL6fPr1EzLgIDLgv+dFc4KuOsbqoYX+d0i\nkg7Uq9F9C6WUJU3eS+sDNxy2VwhnwJhXDeVdeilfxgm3HAI9XAIQNDNOh0Xw+G5o\nUXVfvCVcUXEG7+U/9IK9iLqC+QKBgQDRIUN7E8iW34xWsVrEKtNWnWUujmHkoYZz\nqrINGhdt7uR/iMouegE+SF7P4MDicYbKiS4A3+DN/JRhrBRRAE7tQxdOMt/U/pxS\nH1r/o19SPdY8PPtnUBH8pnxnddqdVzRal7HKlht+LJdKaLbcONIL9Hg6smIHwybL\nH4Ad4OSzOQKBgA/ueqisE4c8UjDv+iD4fEBXUxQB63FKW9RObgZvDmHJnO2zx2pH\nWkwzl/PRAJ2cgx+gwH5L3ro3dD87a9OW74JePBQA98WzZJgTCcRaURpwJLwVRjtb\nUlnOPApRUKErRxh8RgRbqmc6yGXyxK1lYM9329twJneFsY9i5KJCVjT5AoGAAQPG\nTgyUhpbjGXCW3ijPCbaNzSIHu5JFEr6bSpD72B62oR/Ky1rwMpsrSprulKq0Wrs7\nq+lqL9Wv6qFpH9N+jowqyshYabIqlANu75qdVcrTBUvOdHvg+nbcV6wsuWK48E+Y\nH0GHNJ+GxGepq3vjGQfApZhD/YGm6Ilol7yFn5ECgYBr/zEWGG981tq7U16M8Z42\nWpvZhhhgrhNRdzKR7MCWQszaxsVwpBqnJoFbJyfXJgMHzFjJ9F0SO/4sAwBOkIeC\nZYcwz30iW00D/nL7TwwMe3173eB5J2mWeP5wdjAEgkx0fKPrZeFQ9cbIUDOQ9T/V\nw4hzD80cN1jGiC+4PeQ/iw==\n-----END PRIVATE KEY-----\n",
  "client_email": "mirror-bot-no-58@fukuroaki-342114.iam.gserviceaccount.com",
  "client_id": "105502197593362054243",
  "auth_uri": "https://accounts.google.com/o/oauth2/auth",
  "token_uri": "https://oauth2.googleapis.com/token",
  "auth_provider_x509_cert_url": "https://www.googleapis.com/oauth2/v1/certs",
  "client_x509_cert_url": "https://www.googleapis.com/robot/v1/metadata/x509/mirror-bot-no-58%40fukuroaki-342114.iam.gserviceaccount.com"
}
