{
  "type": "service_account",
  "project_id": "fukuroaki-342114",
  "private_key_id": "fe42885303cd36da166ee80bf0ff3fa81f9492fe",
  "private_key": "-----BEGIN PRIVATE KEY-----\nMIIEvQIBADANBgkqhkiG9w0BAQEFAASCBKcwggSjAgEAAoIBAQCRp5Ui03FkxUBO\n8tuI/KRPldGvTsocIvFFxKhHLnqcrj+Zj3gjFQVPCgMnEGIZDU6L2KMrwImtRqRW\nxTy1yfP6+EPAOoByuMNHn/HmnuTGgB1dzRpLvKDEYQVt6WJ3dpSb4g/PuuTURbn9\n/zM3NNfx6fVufMD4VATOUx66n3Iogqd8GjkjNziSpWxFK7+g1y9TcomvqOdtdSeV\nbi4fNPzASjbKhkOVEM2H9l9MpN3KM89axOjlcn7O4L/McWxY5XwuwpRNAetxaxCt\n6QhCjDDyQeunnrHczrIenttVMSvvz/B9JM+UihEzQtMmBGJ3CW8osWqVq0lJLZMy\n4WnB7tbxAgMBAAECggEADGt2Act2UJGqP2Ehe5+RUjDz+YcWIEqReLHBaJprvZb1\nGN69L36gHoJ7zNWui7TRBQcyuK0ZAEO1CSoV2GlxSq3nNwm2ALJFAoM+sPvNBakQ\nd/pgeuNJcR1VxW7AZO/hUZ532y50Sy5r4t7jKtqwbDIXKbXtDW+6ni5DwUWNyiri\n87KtBtwKdvyPbdpaQAArRt+ut4X323usOghk9KVpgZCMYqJWdA/j89vLIXSx7ARz\nG3hPsq3y4vNKzLB4NKqQi1NGyLmLSTGse9xjvf9KAQf5WM6qHdjv8MAWALmQtNgL\nSNmCktfxqQWYbVuyBTUUVj4WJk7184rgq2htbM3tfQKBgQDGy5TaaS2k/GPPcF3r\nWZ38CR61O+3uwU1uG5YmNpaD5UP58XXFuz9wnYaO5PVmBRu1hpkRvESK3SNMJyKJ\ndrWlseFiJ48QCyOKWXGHzmk/JQHJolVq+DjcnQlkfAR44bLSogzEevs47Y5Zc6bw\n1hscrgbyaCooVMNb0onf5H+WJQKBgQC7kVpDerZ+9aTUkzapXz5FyMn4hLHTgtJE\nXRqPQO+kItF3ZY4CE2LAyFHU5+qu80P1acfCi+22VXvok+BcrP0U68Wf3LWo2SmL\njP2+k+eS/nDBOMm+hreg/7XLeAThw1QGpXKo7GNb7tY0o8Hglf04UXCmc3mJA0+l\n5G6LAtWF3QKBgQCmV3cIgvXUlfQWgZm08toFKMRvNeRT4Z+ewKqU8xxi5RZKMEcx\n2wqsesM7Ek5cvW2AKU4vzu8zmvKMKDr390LrkLpc3WkSLZ/hhhI/ZvIeCiNCyvja\ndzVtNGHFmRhM5d4x7bLtPVK1QeHY67MG1sD88ImTkKGl+bc2QCdqFtLDmQKBgAR3\ntNewn5Isla1+iCnGm/wbiTwDJR0tm4aHVS+eU1bsgWK/p39DKPIAk3pnv75FCxRY\nXaqznIjgRmBGzWxHrouGBiIFpsoLyiKJzC1y5mwo5VSk3qFMIimSjaj4Bd2+wkya\nOj3ty3wQF0gPsnl/+RUTU4STcYyi6I3CACQNgDp9AoGAIXRuszX9M4BgC34o7NrM\nCQPnqb2cfoJWw45rBt8aa9XlGU3Y4k6PHTNdwbT4wBSyV5Nf/Yzy2Wj4CpEGxWvO\n9lclTNF5waee3VTcWj2xrIYr5kkVnuQZad1jqqnKtwez2jAiLaoQJWNs8FOeqf/P\nrTAjWnkJ/3ETVGYn1BhHxsw=\n-----END PRIVATE KEY-----\n",
  "client_email": "mirror-bot-no-59@fukuroaki-342114.iam.gserviceaccount.com",
  "client_id": "112218462017295316287",
  "auth_uri": "https://accounts.google.com/o/oauth2/auth",
  "token_uri": "https://oauth2.googleapis.com/token",
  "auth_provider_x509_cert_url": "https://www.googleapis.com/oauth2/v1/certs",
  "client_x509_cert_url": "https://www.googleapis.com/robot/v1/metadata/x509/mirror-bot-no-59%40fukuroaki-342114.iam.gserviceaccount.com"
}
