{
  "type": "service_account",
  "project_id": "fukuroaki-342114",
  "private_key_id": "bef532a23b82f2cf58e76dd7f736bc4a76c703c7",
  "private_key": "-----BEGIN PRIVATE KEY-----\nMIIEvwIBADANBgkqhkiG9w0BAQEFAASCBKkwggSlAgEAAoIBAQDBrAY1Nu9dI7EU\nQnhvXfCIYcq+VgJGyEHC1yqDjVYQthlXT1u0vWGgGlWdwFgNDiUgNjbCtpS3bRCI\nEgCatknl3bBTesrxXlyaij8KTR1xN1G8UuAk+QuM195H9NO+GfH68ktIvCLRxJyc\nlgLgrW0VZ2iBlAf89WTgQBSzd4MQ7/WWGdcsqwNdfvEsJcuWCZa5f30S9bqTWgFJ\nAaKTe9zzHLzNGIibGuCoz3pfRxA3CH6Hwc+qrg/Hz4VkKHMwJC7sfFy6DpSR1DNf\n2KB0NsXyL5tgMl+TroabOQkQF+sPs2iQe64OPvlxd02rKaRDIlvWCsfGnb8vhtgG\n70iYa8v9AgMBAAECggEAS+td0Z1zzoyPvXPjFzD5edTv75XytYGJ+dFz2nbcnpdr\nrqSuu9ajPuoj1r+QJKn/VrW52LFO8eqAmP6JmxxLMp8pIEhZ5q1JWtFHrgeVu4xm\nb48DS6sO4oq6mXV5TaOJDojNhzks4xMSG3XYse95+/J57pWzXe9qOFgWZVW7nLbr\nzitgHPkJF0Z5bmYO6QXX2AYGO4rMsdOeYGBWfU8fNv6RmSDmqBazA/aFitdPRQky\nn55yVOMiQBA9Ilxlrzoc3Fe3dlG9Kz0TxaKZxJB/olk587Kj2CBRgbRcGFuC0A1T\nR5pIJYHFad5PjWXvdELdrkT1q+/Cx4J597k0s7uVdwKBgQD/qKeE5Z/8Ty4vZ2ns\nLlqxMp0qG21JjXdth8c5r4QlKgBE3dVPEd+tsrSQIFksBtIsXIee4gSiRcSXVkbq\nu5hC9CyBfVM4r/AoSwp4ZAjUHNKL3gh1mNSmLcZR5Yjy4QYL3yTEBCGJZvxKRHjS\nDELoA1LAC4rEr0P+u29C4RgjswKBgQDB7jEvEEKgGMcfFHPBKT8Sv5R4xINVCmfs\neeh8VdWA7ai/JVn037eJ2PpM3ljghdhEUdSD92gsDWpEEbPBIPBs8w9KpeSiFFcJ\nYpi4q5t6/r5eWwBSEwEKuQhA/KJ/rDeOI37OQoQ0hRwZgDxLaLBFEnEzgIbbUYx4\nAcEJyY85jwKBgQDvjDjCxmGciRiOZEiUe26RAArRLHe/ZmVT5Nhgjbu1EuDDplO7\nTdUXLQ4Qya6kGRQPavfMgJy068hjwPyb7wChI6ccAbDbuca+CmoaGilHjmYdlgK5\nJWWC+/sKO5eRdBU1RHVvkStXUn7sm7HVppV+TbbYqTfySQLeCQQcV0tGDwKBgQC3\nUC1jvG4OIX3PjiihFRkO4tM4mSE/uJdlvBKbvRMVTRFupaLzyqkWf2iSUrcWfM5i\nPiuxFqN8yK2DbGxLCZTal6MDv+5vmuRu9alBHs3YpIZUcJbL/jTE6wS3UVdVcfgN\nvtW1qMCJWK2oGURlT68Xi4g/06UmGV67bYUIeGOPVwKBgQCWrgohYZaYp2BNg5p8\nYHEm3hxzL1LTvXgjWCzhtw4F7+eyCGjlM+VD8XsBKnW1N+Ae/MhwDayfAmGjYMkH\nR85llQN2QB0zEpQ+HUZy/vH6HwwkxyzGsln37TfMLtiOYQqYJO7GsCtPQP+fGS3c\nuMcdt0RTbjDaUACZ+VOUqQR0wA==\n-----END PRIVATE KEY-----\n",
  "client_email": "mirror-bot-no-74@fukuroaki-342114.iam.gserviceaccount.com",
  "client_id": "105955019229790744281",
  "auth_uri": "https://accounts.google.com/o/oauth2/auth",
  "token_uri": "https://oauth2.googleapis.com/token",
  "auth_provider_x509_cert_url": "https://www.googleapis.com/oauth2/v1/certs",
  "client_x509_cert_url": "https://www.googleapis.com/robot/v1/metadata/x509/mirror-bot-no-74%40fukuroaki-342114.iam.gserviceaccount.com"
}
