{
  "type": "service_account",
  "project_id": "fukuroaki-342114",
  "private_key_id": "a69c3d5213e2f39ed790a21a39befbba4c55ef90",
  "private_key": "-----BEGIN PRIVATE KEY-----\nMIIEvAIBADANBgkqhkiG9w0BAQEFAASCBKYwggSiAgEAAoIBAQDqZgDbD9eEa3Mj\nGtzSgzrKgSqs3IcsXgAakb36BWuNsJO4MHFuDfHWlNB1yoxIcQlmD+0EKm4Z8gjZ\nWKwuvWAdH4iXuEwZXi2PR4ZOjIMPfD3Bp03pHo6F2+IwFlnboiNe4i+LX5V6R2Jl\nJZGxHWEaWaEH2e5hmpEY/pwnFde1aoTjuNBX0ufPhOJd1wMMME+H58h1CCdxD/cj\nJxYlFE0zyUi1Eex07A/XCTev2m7EC3Aob70wX6m094Lx7ITb6q7A/c2m60esCM04\ncIaKqkQ5y8VG5RjBbvSCSm5KpBWWzHmQtk4iW89weH5oW5QiW5KY6vBe9G1oftMu\nxBpT5u6zAgMBAAECggEAGRs94jjrK7Av+przph9k77CFd/3TA186LEkKC+VYD4An\nV7uQmr98SjCnDMbaNHQvE93cKZhl3KTpFRFYt/+UHj/KFf4pNdpkOjbostx9Y+45\n1daWvhkwyN5ezCnIttbCFSADBFmuSBUB/ArZym/MKSdf29htnnS7hULYSkjI/GcC\nRKUeNG+tw3CmAms/KO2OijVSteVVwsusP1uu8I6FETpDxdX0wCZ3T3COmEUpoRyC\n+2FbM+Mn1SiAMWDGZmCNEiBAZh70pZAvMoG1UaCMNe6AQnpYHLYStdDltDJZhlLB\ni7zqCiK7fhysCeX4rBjnCsldaFvnt5hJyL1PKpfwsQKBgQD2mdzyz3+LpBUCE0B7\n1v3TCbSMEvZOrWljhv6WLf1W8zL7mdjdZEaTGz+rj0jm1bT4TdgMO5Jcyeyrlh52\nyafqfvevwwoWGWgfBZBZ9efsy4Y+Wh0nJmo2CvrHEzAWc0roLTxbK2K+hcnV0YG5\ndIdYgZhC0Q9gG05cJmXoDj+KeQKBgQDzVRPD/wYyUsKF0lDvuLPWOjPiE/OXCtvY\nEsH/wYABmnV3ildwv9XgfeRjJHSHl8Fa9lVFqvaqnqoHE5wThiL8XwFFhLHjw/nw\n4BH8JnUhZxkECd+XMms02S8RQ9OH+3DYeQ+1/7vZJjGQgtdguWrWsz/aVgmEpW6O\nzBsMXCz3iwKBgDDBGMLUrVXRWenwHnadec9ogs6SzSme9VAdF2Zfr0+qg3Dk6NBU\ni/N3lq33hSVGKSJSWZ2JhZVcwrLl2h4IHm+pLJUOTYcy/LftZK20hWb2khLvxAXC\nfYszvoLvUzmND8k5cE5iFIKwdsgURL6CwGOKM606If0RSPvFB67KaluZAoGAXXjm\nAdk6MSSXcr6Ktrt14aoz+fl+DhxuvP7fpPZYzMTfsM7krfwTFYxmqir71IZYETAl\nK4D0BjCy0csXnmxdjiKUo3bIutyya3Q3lGvVfMJU2rdMO5FzmzZ+nRw36rmM7Kr8\nfQZCy7SfP4rzX0V6pATxV1bLizfdU19WWJYj8+cCgYBMm7ovbKLrgIrDSrvMvGxb\nT6dJqrm7r4L+USfxu1cPcTSaqsOjlz4x0xJh62mPcjLqcAddS49xslftVhrYrGJY\nn/Tatcnf25tmLf2kuNG0iUAwGe0GxhBUaC9fAa0s4D+uxoZTkeyzxGW9f4/U4az6\nruuhkXrg1VDs20+neqWihQ==\n-----END PRIVATE KEY-----\n",
  "client_email": "mirror-bot-no-75@fukuroaki-342114.iam.gserviceaccount.com",
  "client_id": "108466525316940468663",
  "auth_uri": "https://accounts.google.com/o/oauth2/auth",
  "token_uri": "https://oauth2.googleapis.com/token",
  "auth_provider_x509_cert_url": "https://www.googleapis.com/oauth2/v1/certs",
  "client_x509_cert_url": "https://www.googleapis.com/robot/v1/metadata/x509/mirror-bot-no-75%40fukuroaki-342114.iam.gserviceaccount.com"
}
