{
  "type": "service_account",
  "project_id": "fukuroaki-342114",
  "private_key_id": "cc355e33b0172aa4aa4a294809b549003cab8f55",
  "private_key": "-----BEGIN PRIVATE KEY-----\nMIIEvgIBADANBgkqhkiG9w0BAQEFAASCBKgwggSkAgEAAoIBAQCl6i9H+iAf/VN1\npgPCAAndSFImjdsvphCn86gHc3ImTsTaE+pL4U9mLgx9xPO3EIqsr2m4/x4NGZ+F\nbYmBW0j96Gx5uMZ9lUgowNCWebz9MaPnTtrzsTKXuZ5lFkony/UtMDWnwNqMsv2z\nqYAtmwLEdLO3DmKMOhm9EZ64C2I/oAG/O2ZLJ9bK5nOVk9u5eGG9WRB9ZSsNaI33\n0I5kfOE8EonuAO1nXbzAHwhtHBECJDuVmEXCSi1p2q8pbDJ2/7ImGnPe2qB7i15i\nFgA8Fm4v9Gj+wON+aqktn4EJjDFR0rddgvTi8kirxURwlSQkkK7jAv8vTc+9R/nH\ngNFpW3gXAgMBAAECggEAAO/2/I//Umsi21wu62UG5jFQ9Ix5PfKmc8X8eAQ2aNCR\nWYbrzQWEx/ZEZuUGzCJI9SRf5bPWI9eFesuGj5116fGDPjyFjvF1Ovra8U8TkzGU\nrJkKnrtRGmegwK2w9vF/4Zukkld18lmBAfUzga/6ZCS/+uSEyzRzNX2nHNYsMxgl\n1OgsWH5t7g2fMT6AtCFlbvvChgpdVLmWIUIARh8hemz4TMAavo2C+m6Cbu44JiB8\n3pGFTNthT+fci34CmQqetag1bNZtg+M38aycTOEVQsjQnadjadUDlUuVt+19ZNV6\nb0cG0dqKzLIMrAm5XgYZ1QIw4LFTWLxs6mdg1nU+NQKBgQDXJzEb2Yh3tfwHZVU3\nVfdGiM+Lh1Im/PoRuhuTdIwKfpfQKEfrvtU1vrni7nMKu6ft0kpSxscCAXbU56TM\nWVnZiLSLQi5idFHAQjogZ/Izsv8akfHWUZ0Nhn2wdXE9EJZrHWH3eWksWprQAuqg\ndemNHpN/iaoBE5MT1EDJeLP6owKBgQDFae1GWDI3KDCYRHkmsRpSqp3pMCFxcQFT\n3maAJRzruRp7NnRdHG38Vg0NlYTmwhpKse5H3NWTlDkzatR08f0A1mFKtbKqXEEP\nRpsD651XTk1Qq0M59rn2LWlQ6EeKjyf2dHz6XgJHqWQdJwRt5XGda3WNjjjcEdq8\n+qs2ZMl3/QKBgQDP7xatHb2gRIdA9pQ3GKQUzSAYbz3cZF2iSEViax70/YfnKybn\nFdWlTaEFSwJv+xC+7Z/bBDVNIPEhroY84JXPgSlL9Tgy+swPjXHz48HWaUXW/fnF\n8bZhXfuXUMmSBLf66bjGndYhgadhJZBwZ8TCGCzg88ETrUFVxqqejEMVFQKBgDus\nMz7KNhOaIGZGfGCHtC88x5LPK6zAvef+F/mwPje6shiAc1gZ2d0mnbd3dL7T+WKO\nujoatKxxZ4D1T9cxtopkQvB0T9dTH49ghkb/F4ZmctRpkF6bB8c0HtuH+ugVMb07\npPOBKytCNrLhMmONsXQmIVhynxlWhEoPc2Vzvbp5AoGBAKC1ai8x4InaXoWq3EXG\nz+FvJmXIoE5cCvvUPQvlIdgYa4e7zS8BuvGvBoeVI/CdmIk6a+LJACDICcpIOGgB\ndcvqaQ9hZ/xyi62QoMwhKT8YBqutLjQIUK1PqHb6f/77nBNOIXRb1Vhv0AemLWJd\nWIzQ9YjpJjA4o5k3XFUzHTFm\n-----END PRIVATE KEY-----\n",
  "client_email": "mirror-bot-no-83@fukuroaki-342114.iam.gserviceaccount.com",
  "client_id": "118361239146418445866",
  "auth_uri": "https://accounts.google.com/o/oauth2/auth",
  "token_uri": "https://oauth2.googleapis.com/token",
  "auth_provider_x509_cert_url": "https://www.googleapis.com/oauth2/v1/certs",
  "client_x509_cert_url": "https://www.googleapis.com/robot/v1/metadata/x509/mirror-bot-no-83%40fukuroaki-342114.iam.gserviceaccount.com"
}
