{
  "type": "service_account",
  "project_id": "fukuroaki-342114",
  "private_key_id": "48ace60b80112521da7a301d48c00e54856775ad",
  "private_key": "-----BEGIN PRIVATE KEY-----\nMIIEvAIBADANBgkqhkiG9w0BAQEFAASCBKYwggSiAgEAAoIBAQCu5gx+ccHUIbNA\njEhpJXP0H1HyYpjo8g6REzKdlyFW5h37fNjrnW6QjTv7taa4Qh1f2ZvhTrqeVhWC\nEZnr3OSzEGr1bUolEg+vBWWSmU2a4ZISLSnGIYY1HGeKl24sN4rqw1+7RxAOfxuz\n/X7z9VZeRT9I9RyH2Hwgab12L1MmbBhBC1izFEu6xT4Il6YtCoYpqfb4sK7zS9rV\n2WsvcEmjQiSsVeLgphDt7c9fxjubvrQMYPaUnh3ax6W8qWt5jrGE9S50h1gK3Lr8\nWN5S9VMqcoCsEoeAf8aXBpPCPJQJyzmkLR1yTdaRcFdGKqLb9QQf3SYZl4IQ2ywi\nB06QjnufAgMBAAECggEAF+piI/onMHwpODbWgfY6nFOaD4RW92d+AW14Gt97Ehhm\nWiiwusssvrxpStqEgSadQKmPbKgo0ZTg3QfOHdf3N9sTXRsEK/yDw4F/6aNn3rlg\nkXa2gx67bNDFAckCKi6wIrjzgrbNZcYQwjR0IyTVmg9q/21w6Mx78Ky02Q/QlWyx\nbAI+CXIsm/SCwQSRAbtI+j5rbjRF59BQp6Z9MLC45rzdfNzS5J0rSncmavLF1m7h\nL9gDRI+5G5FavBmBcJ0qZN35WStizC08GccL/45I8H6Sq89tsL52tQ2goV4g80sP\nS6NdEC9K9xVnsyFbQ2gL/LltDAK6xM3Xw6vIKv/kRQKBgQDngiqD5ejwyVC/hcPl\nhRjovv3qXYVcPNG+dsdgNUNvRKdGY62HtqpPbdqMj0FYvBA+6j4w+j16YE2lUZYI\nGTG2u0daiBltwAMoYQm9iGOHUyYQ3azaN2PYsKkgxwfO4UEoMrAxrrVqf52v4JmM\nRTQwdllTnnG+8DH+5MOSDry7ywKBgQDBZr7V7Kh2F5LlvF2SV0q1U35AfnCNHWV1\nQeoC40Rq+Z0/Rn3xDhJwxGE5A2teN/mKozyxY9gSJs5SXO2qMJF00tahDnlfEi/g\n/kJ+ZriTW1VQ9SUdwwby0BZ4VnDLOyLME+17aPjJlghzedGjOrA35RCIo1jfzrqA\nHFrAWwYs/QKBgG3+mHimqfCNlgIJajQI8vbSmA3cdVqHwxf9k2kQpYOeWOPGxFIw\n5eZrSWVzQxcH86gQ34+htcgJLZsYknIylj496P8InxxYGKf8wwX8YV2Qkgt9Z30e\nyB/Sf+kE557Rw4V33+MbITMCg0dnLU1KLCvCb1qdc2nG8dorkwg4XE/VAoGALrDt\ndZwS95+tWUVmmcP1R12G528fIRJtwidNpbDUfbcRnYsZMK8jCJKAnlETBMYiurO6\nHWFrcsZnnT7OKf5bv4Z/RpbF+ovbf0gjKX0HJpwwNsFYWp0Q+mH+asMDrCz0s6xD\n8z1egtxz4d0RHYU3sebdXP+Cn1W7dN5jknjnPskCgYAc4HHFZu8pcSxTSCqcyAYG\nyXX++tDBsBSn5VU5gsjwQY0DCL48WlHAvciwX4IeGtJp8VRjdYW2XXYDavpgDanI\nTLwf6WMubfatLEQ3uB9cfY2tSdNPjj4bAZ2ZZto3/gUVjs9lFWgYaxF13EhrUe22\nQmLkIZViGNTOOEu3TduGdQ==\n-----END PRIVATE KEY-----\n",
  "client_email": "mirror-bot-no-85@fukuroaki-342114.iam.gserviceaccount.com",
  "client_id": "104475949284723350610",
  "auth_uri": "https://accounts.google.com/o/oauth2/auth",
  "token_uri": "https://oauth2.googleapis.com/token",
  "auth_provider_x509_cert_url": "https://www.googleapis.com/oauth2/v1/certs",
  "client_x509_cert_url": "https://www.googleapis.com/robot/v1/metadata/x509/mirror-bot-no-85%40fukuroaki-342114.iam.gserviceaccount.com"
}
