{
  "type": "service_account",
  "project_id": "fukuroaki-342114",
  "private_key_id": "3e6cb750e22e247768571cee70de3b7a98b698b0",
  "private_key": "-----BEGIN PRIVATE KEY-----\nMIIEvQIBADANBgkqhkiG9w0BAQEFAASCBKcwggSjAgEAAoIBAQDJNjKWmMLBhNmt\n39qnR5aqZy5LQQOsq4mfO2Y4MyFeh0w/fvaYMHkUCpud0SvX2c0SQ+yIKUNHVZcJ\n1RLwZz1F62GP0rFqm/lpe28liEhSEXq9wWgo4U7XZvGRyrLn01HK5NLQo/p5e2ti\niP3vUFW91SLp8A3XQLIi29S0w9+pkGR/9r05nhTR/XBFj58gCN0bx2UYUBfjVmoz\n66vK1I6b0/EdZCmf2fdTaSoTg5xYu2VpCHMtW6mLymJIkOJIvCrNW4xyLbY5p8pV\nhToJne4ccaVbxoSio6SuG599vf8Q4D5D5FPIjL6oSvlnn0wyfgNT8IMR0fFG4JvZ\nRGuKplo3AgMBAAECggEAH3r0yD4HPnq4Ce2bio93QZraEdkOp53A7uI+uG07e8wk\nQEzvbNksoFeWiEb5GpDPdludLqJyDb+U3WtyRp2IZx+QCI34xwq3J2sx9QfQ9NIa\nR4TydG7nxGitQ9eYTQ/xXJKXbyAwqIAISYbQX/hMKeKmTz6JE9Ph6vVE3rFElYUk\nK/IjhH8m9/wd8ydKjLm2dgsuVqffEVB6CSFBjIZcH4cJXJ6mcNioGhFN9JwyIAFM\nj9KaYU9QcWGFBRNs0K8hst24pZwK+gLsiXil6T9+PGoh2bLcqmsV4P6Uf6TmkRjQ\nPHHkxLsCa4f46LbHE1pxFdBFKR+RpOHB8T/kjRh/bQKBgQDvz0nfChF4Z3MgXw26\nU0iEsz3TIemaP3dyz0bI3iEwJ1RyRvf8v/5d3geGfD0ozjfUy36z2N+BJLZwXdlC\nSvLuu48IYX/2euVt5s6Al/lX1+0BZzMDU/ER9VlpnnB7kfteCKhAb0W9mchn15VP\nMApzLKJw+YYGQH9dItydPUbkFQKBgQDWy86GQsHXeO6Bs/fO5zwgo1GfMvpNhh8f\ngAaUAlZAIqblcsqGPoSgvkmh8foSNuBHS+dxnBLAwmiPmBcQelK+aQX9YmqMRi7k\nSyGMiw/SLbBjfp0ohHhq2OefsI3vmmxZ+hehe7ZnS76XSbbtltFg4mykveKQEjEW\nfYja0tIcGwKBgFzK2eu7Cp2LcgnRng8+EK6AaOjck3bDHiZHvD0XbsIiRdPeUDD1\n3ahWtJS+WDAE86ecgk93GKzxFsMOHXZAaBYmbycwCwLF9Sb8i2VI6QurmqLTWvLr\ntTlctZdf3miCSUDOmsQsClFeQySjT7wPe8urNsP+WXTr2hyg07roLhktAoGBAKae\n1ogDxQZ2wt1OU87mRRg0WJ6cFtqITiBLWc76uRlrR/f5Qe09FfjzY38CjDAQ7Y2g\n7dqNbWal6CJrooifuwwFwCW8cFZ8Iufo+A9j2FP8KTYlA5homliYBaU0egYBzkdF\n34rewrICachF4GcRdT4opops2hFUa0u8+ap1m5M9AoGAMpsmxS1/jpAAqHSHfBHG\n+lmaaATdjMEfkRhVErR1KdqAbXIVsfJAI1mslKw4nXYI1nlbsW2hcspFSTHk5MD0\nGSckCrV7NqZlX40oruLCzEIgTDUR6s1vXG8q9v07ynTZvxQO1jFvBKDf34PSQVIg\noapPBLIiajrVQea/k1CSH78=\n-----END PRIVATE KEY-----\n",
  "client_email": "mirror-bot-no-97@fukuroaki-342114.iam.gserviceaccount.com",
  "client_id": "106268110980341342113",
  "auth_uri": "https://accounts.google.com/o/oauth2/auth",
  "token_uri": "https://oauth2.googleapis.com/token",
  "auth_provider_x509_cert_url": "https://www.googleapis.com/oauth2/v1/certs",
  "client_x509_cert_url": "https://www.googleapis.com/robot/v1/metadata/x509/mirror-bot-no-97%40fukuroaki-342114.iam.gserviceaccount.com"
}
