{
  "type": "service_account",
  "project_id": "fukuroaki-342114",
  "private_key_id": "95b8fa8a6e5deed9b0bbea94c807b8100aab1fa4",
  "private_key": "-----BEGIN PRIVATE KEY-----\nMIIEvwIBADANBgkqhkiG9w0BAQEFAASCBKkwggSlAgEAAoIBAQCwqNNPb/QDojvi\ngX80MISMc7fPon4C1f+SK8zzu3oWyW3ZlCNVVh6z3INXpHxcB60DMay2eb+ps0nW\nGNna4ot7bornhYSDTdr9qhhlHzZiFx2/xNY1UZ3TL3g61bn0YxHk4zTWe+zvkOkI\n/I+zKGQhbMZPwYSzBTZXKJ1f+unfjZqIgxBJcpUNCDpPMnhTiS5wTzljDXRStbU+\nXJDtNjfRU1NvTiJt4DaCZOr8kZq6aQyBUrNIS7rosdOGqVgSjJX4LYb4HNe0bcdI\n7D2VF+tkpTCaC27NjSMKvC/PXCg19+j7Ypa0zc0RpSMneff/7d7gXDxcnLRYbML1\nnWZEqHj1AgMBAAECggEALtIX6zpfQGVLnN04cwMW5ki3I0tMPYEtMrb0I3cBRS/O\nsvdto+zmx0G+98gLA7MvGiUcwuIit53iiGFewAIB+M1T+EetVsWYMFnYDFkI51d8\nFXrcURZYD4RJx8Ikfk6RjAnh06TVp6rO8IhLp66hVzCGoNXHz1Cm1dPYXftY59wl\nqPxbc+6/BTu00W+ay+9hXY3/upzwl/QGimmS237McytE36qtVYPj3Ym7agz1dfdR\nhGU5u0KIEToIHONgMBirCqnoBc/Xke0Oc2uNNHDnAcVqi+283k0dkCuxyb+vHDXd\nx457NshlNetZQCp4N2Ij4TDHO+aVCvTA3AmZbGjEYwKBgQDWx1/4bqZUjt4ugdh6\nARuG9c5sZLQDE5hs6eoX6fVUGQSmessBYe2OmUnlOx2BMY7ILB8ttVIZcH34vpkJ\nsGmxIofASyQc7k9/CBmByosKkhl1RFrIUYs3TML6iLeqJt/Qfjl12KIcoHxPsLIU\n7LNSzR5p63yu1ijpoBb+JikvDwKBgQDSkI0quvtfHMEZmkbHRe9Th3Pv79RZ0kEV\nF6veI8dsVNWINKdAyl+COa/O4VHp5qMFHcfvtqcxkFe84Ni7z0E3XXpnxXnvqpW/\nLaffSfhhpiAMOqmwe+AGPNang8VTD54gpdXDdz1tVUX9sIP7MH569Xtv9tArVaeY\nJhyooRtXuwKBgQCitQePPMPk6xaGRPep9YzVAQIQO3njmsSuPcaJt0OTIiDTvdJs\nibNdg+LnNZF0fgacvlAgYGyBuSa1ei6VmH95IZ+VnVcOU7sFkS1Blh8fMu72V4Iu\nnxfIHO7YvRnmXOzRFc6R6DtnVGzYMhO2plpzL9EKjMs36CW2VwEUJ/SrIQKBgQDE\na+Gz/a7l/73GM1tZIszpX47wQQoXLAJYObeyxi+Ox+hVYcCvuNi1czikRR4Tknl6\nGVjcLcfzfVHLOPgU4nZUvlekG9vujXOZXm6d5bPU65Iztjl7D2NgjjozE8HsBMKe\nc/RfnYjox8Y9q/7CQG+MJhkazeNMuV9YmBzd1UPbZwKBgQDDjLy75D1nY3ixZ4sX\n11TFPqDrt+FE0XUEYWEK74n3lZf9y6r5yC81cJHgPCtG+EoLxTHkOVFNfiTunTTh\nAPkF4A5kvKQlGsuPthmZxIoHtfqhgsq9qPf/8S7eHFc0FcX0ef79YXzbz6KavyZH\ntKekSXEF0Zk4stlD2figIJafZg==\n-----END PRIVATE KEY-----\n",
  "client_email": "mirror-bot-no-98@fukuroaki-342114.iam.gserviceaccount.com",
  "client_id": "115152366714513937406",
  "auth_uri": "https://accounts.google.com/o/oauth2/auth",
  "token_uri": "https://oauth2.googleapis.com/token",
  "auth_provider_x509_cert_url": "https://www.googleapis.com/oauth2/v1/certs",
  "client_x509_cert_url": "https://www.googleapis.com/robot/v1/metadata/x509/mirror-bot-no-98%40fukuroaki-342114.iam.gserviceaccount.com"
}
