{
  "type": "service_account",
  "project_id": "angular-geode-289003",
  "private_key_id": "68a20ab0a1f7d9dd96912459b223779e805c3b29",
  "private_key": "-----BEGIN PRIVATE KEY-----\nMIIEvAIBADANBgkqhkiG9w0BAQEFAASCBKYwggSiAgEAAoIBAQDgHZWzURf0xBVT\naVndtpE248NiVhxKr10TqI5tQpT1NVTD1LQu/L+AeY+EFnENW4IHA6i9T3hY7qSz\nb6tdUj5ZfEFkTNiaJk/O/o8Y7tGVwCUSEe8OC1MRGjmv//tjNdyjF8BSJAC9XD2E\nlvcjLBBKzdm/WyHkF6S6vKvBVQb/Vh8rWhfXx4yxbBd94o1I/ITwI1HnPrsj8cHT\nFxyR3nFH+WpI0aqgjLarqn6IlnZWvmiylJuJViNdwyqswMh/9LCzybWtGtgKvhTI\nDtO8q5SGaAwxdhkV/kj2v64DqMwyZWgmz9UZSCrh4amdYbQL0HnfSnFQt6AoGE7L\nMWsfaM41AgMBAAECggEAChIqRPmS6wPYtXvZdvYaRm4rvIKEGPMSaqy7YbuJOA+i\ndH5dbnMbI+nSgiwD/oarLCeE8KTekph+vDV7bOEiPiEwSxKM9Thdg766rXMl5eXR\nhKNbq7TkkbMs/nSxVj74YDfUA5zsj5XSid/C0UjMnp/rdgbhWf+Z/m42BaUNgHHH\nwkSnXE+oZ3M4yLwR7+hTIbxVOEKQ/0O1sP4JxV7d83Fi0+RxgSoVpjSoBPSbpago\nIj0eugIHbaM91NZCsVzvPPnl0go8ZoTUMJCsoSt1TA+CtfYeMEQZKDtqqRmzyid3\nW0WWBx5WcGFYcU6Ny8po445pRfaXIMGVE2TeRfRwAQKBgQD1MwykZuDXH5TPqI4h\nWxKeyTvsUym9Dq5JutdJEZVCu7RUL1bqJpyoFs1JS9wwQuwjk3eTBYMX0AI5D6ct\ngKIdnEVfuTXlyIOSNeCfNr1NIuCV8+v978/7zETIal5BCJGt8fmfixHmipLa2Bu/\nvniSAGvdikSSdzWZG8CJWGfMAQKBgQDp/Mlw7FYAJMezR2QCk2ZgBLOBV/J1y9Xx\n58R/Ufw5NofSnrcLcQUcB6sIEaTsm0VK6UiWMd+ck7GEVvEjayT4+mJzr+maItP2\nJlDfQucF+X6zvmFTAoQPxEp85MyYkAftFNpEyx20gFsqrsJswMO5G1gz8vfId4n4\ny4Xye5OSNQKBgCDN86MLIImncAFYS6uqw5L62UmE1tC0Zhz3IlZkQ9PpyPZ6XuZ0\nxAC5DD4CKDNMwMsBr727vw4whhucPIGZ9BaCEcX8wXk8ml21V5f1et4XDHUDbU9M\nBkdpzMoDcRjCTLs45Gyz7nEpmPwubYf5s6fU5pl9Ji9yQ3l4fQnjCgABAoGACJCv\nUwnjsAeoo8BmQc3hfnxNkduFTZiTkVJZmAuJPxLm7+fNbYbKmBcTxKzYq6yXYcGe\nXZkfxVyGsAB6vUArz01jEzcKRxElTyph5XpOeKKEZ9H9QAukh+s4is/ZSXBkSeJs\nhv4kbToRnENfbJm10G3W0bgAJ/9wNoJEufaaFU0CgYAWOew+oHHXQyMn0KkvYSwA\ngzV3UitUoWixnfdo7WXTv6aDpRIOQ8zoFHM3RbYxKtUOb0IwniPSDcw0qNa+DuVt\n6ITkKW4gcrIYJ69x6/SLl5z7FrNV0rcDvW/xe12y1iRbTLghi0ZuRMMz4vSO57xT\nxpZ+h4umHwfm2LUia0u5BA==\n-----END PRIVATE KEY-----\n",
  "client_email": "somedco-master@angular-geode-289003.iam.gserviceaccount.com",
  "client_id": "111413801327878384874",
  "auth_uri": "https://accounts.google.com/o/oauth2/auth",
  "token_uri": "https://oauth2.googleapis.com/token",
  "auth_provider_x509_cert_url": "https://www.googleapis.com/oauth2/v1/certs",
  "client_x509_cert_url": "https://www.googleapis.com/robot/v1/metadata/x509/somedco-master%40angular-geode-289003.iam.gserviceaccount.com"
}
