{
  "type": "service_account",
  "project_id": "angular-geode-289003",
  "private_key_id": "3354226f7857354b35bcff0651dc6363246f20e7",
  "private_key": "-----BEGIN PRIVATE KEY-----\nMIIEvAIBADANBgkqhkiG9w0BAQEFAASCBKYwggSiAgEAAoIBAQDOhHBNGsRd2R+E\ngnJ1Qz6OsDnNP2XmWVEBsX0qOopU9Zn/SLfsQiHbPQaMuptMSDZx8SkW7xuekzqh\n9EQ7cB66SZm6f/ND28aX4EELTaf4IRYLX6FGn0+8R0dojsil9dGtqB7iv/PhN+vI\nSg88EClxEPW4raGopgzBg8rfgDooGAOmOtjK40chPIQ+VcI0q84uMXYi9t6tumPr\n9RLkAO7AgvRsm290zj4KcmGUMv9LN8RxWeWaLBdTM7AZCSAXfXlSfqPAKo/u0o9B\nJMajBMWH6x5k3FK4/aUnEXEFjUKbB6hjn87pf6RISFMscJHrO+poJccud+legnWA\nP14ctgk5AgMBAAECggEAEQBCdc6CI48IHbKsH9mBJmJSjSzZbiz50rpc/qN4F4YV\nKeNqJLx4U2HtjptJb+5dRmRfM2tMFPII4yPxPrVnCi3x8QevK+3FUQ5zPFjQaZ22\nVgmxhKyryz5Q83DBtYvhjuVmuYL/iDxqytUcoPSxp1mz6Nf+asb/XipD2BdocjwL\nVg7fIAvG/52j/fei1WpCMEEgNSqxCDFlDqN7VLwFlCqeOEYFeFxcYG3ZE6Y4XZII\nVowfeGkFA3HxVWjVeM0i38K+bxZcAPlOYdKI9OIcTLcvEkSR45CQp27VRHrE1Wbj\nimFQ2lATKCcVoSkSpXtSUlqWJHwF/Q82S8P0lPISswKBgQDofO4LaZLE2HptCUBl\nbUZViGa1VmtGaMCjZz4RWjmB+g8+zqtKyUrp3GyyP98ySz3sm9TSx/WxEpSmqnsS\nMLBYYQLzefJSlITXO73ptjXsBossVZshWFbo0XPFn6jb9gkZvw0o3NmNK14n6R7g\nrA8joDSyO6uWbp5Rzkki+BCxowKBgQDjZyIWs7dAaby1N9525cqjLYwIuh+rJOcn\n1sUJa6Gv+JrmiPYwf50zk2t6/AJQFQxsj9l0UjeIr9iIaix0ncFGEd65GZ5jE03J\n94TMbJxu8PIwMo7+zi8CXtx/3R2+vjAGw+mS25TFw+Ef0uaXYk4ejhKzQvb5i6TP\nAZAaN7afcwKBgA05jhD4IHEyH0S0kgUzAh07dRw7nj6TFuI0rUMvbrYGE3fvKa9H\nZAuJjmVVXMzvmsYq1yBmX4ODGxGgAQA35NAiNJjFBxPLfwL/Uv5IbyjN9ny/IePz\nsn3r7DoBqwlYJYxhYc5BQd7V6LU8fZUqNHJCWr0Ix+n2wOrGYUKr+cchAoGAKNqY\ndzemTn4wluYIo5e5BgPiypaVpeulU7T0BTM/AxxIx+4HPMNQfLmZb6jiyXxelQpq\n6Mj0jSv6XNemUPUeifYf62U83VPUf9pmE0vX9t52xE3w/roQG/7q4lXZSDFm83Az\nAF1OpxD/2vXK05unqTmhBm+ba025OC9xsiQcPR0CgYBftpgoW4acCk9XkwUyyjdU\n661H+bswPawy/Y4MrqvBSYjOBPKx0SBbUSqc3wA31uoBncnwqeN/7aswqNF97ljL\nyUwRriidIo/I6Yn62pFB9Wf3wmOfrzm7Pb3M85lqysQSnkoYNsudpj7QEwtsvrkU\ntJxlRRuEu9OhwF3goOlJFw==\n-----END PRIVATE KEY-----\n",
  "client_email": "somedco-slave-12@angular-geode-289003.iam.gserviceaccount.com",
  "client_id": "102939289221546806710",
  "auth_uri": "https://accounts.google.com/o/oauth2/auth",
  "token_uri": "https://oauth2.googleapis.com/token",
  "auth_provider_x509_cert_url": "https://www.googleapis.com/oauth2/v1/certs",
  "client_x509_cert_url": "https://www.googleapis.com/robot/v1/metadata/x509/somedco-slave-12%40angular-geode-289003.iam.gserviceaccount.com"
}
