{
  "type": "service_account",
  "project_id": "angular-geode-289003",
  "private_key_id": "98f162b201c028a1aaeed50a4fbfc2e5292a85a4",
  "private_key": "-----BEGIN PRIVATE KEY-----\nMIIEvQIBADANBgkqhkiG9w0BAQEFAASCBKcwggSjAgEAAoIBAQDIQpIv9n7X184V\nZ80SBlG7zRPpYeCrvtaoc9WPYWqqilyhD1XEFFYUVKiVp8CavHKi6ae3Iy4q2RZ+\n+VENPbCJgmuK8H28OvdTvTVOL2NHUjkcDhibjDcwWWyMbUJsL8MtujB7AQD+Er1k\nZ5z1YFNt+dG6wM6qJBlQN6uaNnWDeB70xx8YEyE1vOYCvku064Tjtns/nnYfDGBY\nFZp/vKJR8Om/IPNaZJkvBM0+r6tjM12QPiO9icBkqjravi8hXiblUAcZrLVaFf/8\naVA8n31VkH8xkReuQRdrzcsUU3SIFVvPQZlc4dPWdD5za0g8ktUFRLDTRX7LrfAd\n9s454T1NAgMBAAECggEAFutLiNK4tKI9s0R0e14ex5QSddDeYjmOnqvXIrg++XKp\nZEN5iN3c9im0O6B90hfENPHx4GtV0tCSmwiUpqPLSwmSnk2kzkCfYsWSTrbssVJv\nN89DMLYs8MsjObUdd31F5Ltc5g742psxcsbK92hFVB5Vyv5bCKzl+sDMUnNuIpQO\nInmtYegN7fQX3yvy6YwKkvTogQ2U16I6lONMo8jjLD4WakWYo4o8aLwOtWywsEQ4\nTgtooxhv1yUWGyoFxwodRL+1NNThMMW3qNBXtqfCzwGiwZz6QHisgSIXecz1HAaN\nT77AZ7fAZnFNwkcYuAPZx9qrOOG7WITh8Y3hJEfq4QKBgQD+0IisURPzNFdzXWTB\nfmlnyyYb1pGB8MYwu9Mxj/1UrerkPmbTUN7nacXEFhx2oak1pFlpJbIZ0o5kCGLn\nicV6lmz5dkTKIqQZ8uRk9gZ0/5wog3/pWjVCRQTK1bSnTyMr0sF/L5noj/bhPosV\nlyure4y7JaP/aXCSKiK5MxdjEQKBgQDJMREKtXj/wfIkW3ZPPA5fAMrSzwxgjny4\nVd5AWhCJYfiV5ioG4MHIrGZkDNR19wJUNuxeN5/ZPEnoUogHB/oBHIcA2tlRiUtZ\nkdsMPxb+lQwv7sWIueVVZ9GQavnVDlyukXr13MtnqMwY+czCpCeiXzomZgri89oh\n2Y222nv+fQKBgQCweCUfCWuCk+44dCaSJoTDIBq9TsUos2HeYEWr3md4XJX/CgRW\nNnyY0VToLtP5iI3SG4bcXgHRBlQcjP5KEczU0BaaUUDkqEbzvZZVIVlpb5hrKl7M\nce/OfFQMUSIyeIkIEYZ2GbZCLGmypojWJAJXWVImTbQc753JbCruDacVsQKBgAcg\nDrtzW9qq8rlo59K8jMG+lHBM1uJgiXg5yko7JlTHPHeKlDh0I0jJGkM21RtsaQ+0\ndkCL9cRKx09MBPdCyA7cBMf5+DJUC3Abo0dWwKi5fJoB+cry0nVo3Nohf8GU5aFl\nE5a7gBSmvLuxtRe7mo+8kaGkgYQyIKqMOuGb8UI9AoGAYq3rMGNdhx7XsShYUB/2\n8bautH5XQ8k7S21DkNkv5Akx+rUoebuP3+/YoxWVsom4Hjlif1XmCOH1tBMamjy0\nyCnE7AaoX0LFP6wvFTxejOEuXqIuX3Ur4j9rHr+PTOfAaFmJNBbJNYt7ZLu5KEeq\n9TRtZbcHqRzdDAdrLr8Sa78=\n-----END PRIVATE KEY-----\n",
  "client_email": "somedco-slave-2@angular-geode-289003.iam.gserviceaccount.com",
  "client_id": "102752279997337286959",
  "auth_uri": "https://accounts.google.com/o/oauth2/auth",
  "token_uri": "https://oauth2.googleapis.com/token",
  "auth_provider_x509_cert_url": "https://www.googleapis.com/oauth2/v1/certs",
  "client_x509_cert_url": "https://www.googleapis.com/robot/v1/metadata/x509/somedco-slave-2%40angular-geode-289003.iam.gserviceaccount.com"
}
