{
  "type": "service_account",
  "project_id": "angular-geode-289003",
  "private_key_id": "4b83f79e5d38db93d94a9652ce29993b5b0ae79b",
  "private_key": "-----BEGIN PRIVATE KEY-----\nMIIEvgIBADANBgkqhkiG9w0BAQEFAASCBKgwggSkAgEAAoIBAQDSJ8lo0gf+6bzP\no4cU5W9yZr+YVPw93LHgPxhpMWtYljJieR6uaR6Zh8zaQevHE9sew7AHOVp/3p2R\n5WH37SIR0RjKfbOwyPUUFlwKCLMx1pv9XGEl5Z5BGPmrYR+ielsP5OaWwUFlFzSD\nu+pkgoqWXxXex9HjMc8OdAR2Po1j3jXhsbFFJ/28ca76dfZQYq11zai+R9hSOySF\ncOw41qUKGgR0au5KCh+fNej5ckn/rYEK6RmFHXIzs+ZiJj/zEVo3iO3SZt4R1lTl\n8HRESanXFj68b7qOg6ZMWlCMQjdm2R4YpKm93LAEhgo44vYUMF1i7hiWlMqDtmrm\n3i92AkAJAgMBAAECggEAT7LTCTON4LiX6E7l7aDNUR9yTbz9JCDMPHTxNwOM6D2d\nwgaZAh/PgP4lTChv2EHJebNQ0IyJq7CrJSdOrg16PDOGKVTejo7HkuSf5xZBjwcK\nhV1BYnPgPmPQW5QrwRyR6Ecww79qo4HXYpYjYBa5pClPS/uPt4+uLJcHEijKyjJN\nEioBnmbbZTKfX+0o8W3FYf7b4X+014gW9ZRz1yOnn8PPORbF8aKgqvHG/rwAseIz\n7Bu7FB7Z3dQBTxMj/cSVaOAQBueJilCtg5oBxDNDhHCZoZpxDliQFbNWF8o3FgCF\n1Ytk8H00YA7rZh/5mdr9ARApo1OjUFT4/j4OKgySWQKBgQD2RuFIm8UZ3yB5h/DV\nyvscWJhn1EZwhdN+KkQ9B5adYawW7Gg5Xjivio97Z9ewy4FPtpzvq3dXdy+hcnJ3\n2QCd94DW/s93z9OznyUBYFPlPcvjpk9WNCQrchDWo3KAt7BYX8aAVTUdBaUhiSQE\nJBnaKkyQUOT5fhizfxSuD/hWcwKBgQDac9PE2AU+QhK43yPSpVkorEZP2HqX8wAR\nAeDXCZ7N1r6meLmlvApFXCt3JIPXS1a2tos//z7AugZ+IdwAyNUbHr83coxABnPZ\n3NovPKeCo8ETG1u2ztSWk/aqRHA44Du0qhWx+CzpPHCE7dd2Vncjx4s8TbUvw1eJ\nw2LJxDH0kwKBgQDBkNhEr1ntibgGjVg3UUCo+OFgyjFLA4RFJ4dWyH4S2M/ffJQ2\nct3u6uL3RZj7the+xXL31TcJof3n0QIzPHYFsqCrWr9KFij4ht8ZA9Ms3LNCDFdT\nE8xR8WdWrES08qtB6pUkDNSgKO2vPBD4yD8hgBmJXGt7xSY4/msMnDS+DQKBgQDa\nKZayHTKPTJk5+87gzbTPA81sbDtyiIHmekO7PaZU10OrKSHuPG7degEGiXcJifnd\nm0xR620WODHHwbTfK7J31SsOCt26CzejugZD6oU32KY3mLjtRn3Uq4xJ2vNgOcAm\n2z2zcLAZdfzBJG5rhkqRdvS8kraCLsm7kV+VNNTW9QKBgEwPwTq0xTEnB/SZFHHE\nhbmok1fH4DYcoZqG+Yu75VVc4G2tWx5DYHh5qq6U2hr5BajCcsOvH6pBRjjFKOap\nCIKmMUeU5TYmtY75DP8RS2d99v9OGHzmaYqYoQ9Dpt1A91de01IjPDFrtwFUrlWT\nrzzF1nX0NSWmqobQWfYwkFgf\n-----END PRIVATE KEY-----\n",
  "client_email": "somedco-slave-26@angular-geode-289003.iam.gserviceaccount.com",
  "client_id": "118403230499096313434",
  "auth_uri": "https://accounts.google.com/o/oauth2/auth",
  "token_uri": "https://oauth2.googleapis.com/token",
  "auth_provider_x509_cert_url": "https://www.googleapis.com/oauth2/v1/certs",
  "client_x509_cert_url": "https://www.googleapis.com/robot/v1/metadata/x509/somedco-slave-26%40angular-geode-289003.iam.gserviceaccount.com"
}
