{
  "type": "service_account",
  "project_id": "angular-geode-289003",
  "private_key_id": "daac58fbe37dc851f22eaf35bb68cf9aeb529e63",
  "private_key": "-----BEGIN PRIVATE KEY-----\nMIIEvgIBADANBgkqhkiG9w0BAQEFAASCBKgwggSkAgEAAoIBAQC9cEGjLbDuahQh\njfS1ZscfxUAnZ+KjDM1uDNzTU9mJ3nYXUW88Apw1uzmpwfo3NMKHBqlzTw7RMcy3\nxhNL9dA102tWgOvkdmhkK5tF6D7j7+TTPcz7ou0d/OLHqD92CBDR4YU7azCa1kG9\n/G55rdNe/pE23AalvohbbXT7TxvR+9l8Bv0+DqN+cugRvYGnLaDJUiq0pZqxPyoE\nqynNHpGJfiHUCaaA9JL3OpWh7taWDSe9nFkUOWo1TfGWNqyJbSwafKk5DN1ZBxir\nYZJlrV9W2XA2yxgEzY1TMvn8w0isY5w4o0aI3dVKJOpzsJJBmpeJFz55FltJsAtg\ngVYvYRGfAgMBAAECggEAF/46Sf0U/jVQRGmy1zDjwnncpMELGuSZtjkJ1Pg3Qrd6\n1Hw7bunTuBh09rO7Sbe0dZ6Z4qFeOo+oopQDSKkjDFYxL50Xg3GdyiYdve5q3Lq7\nDCg1KJ/bkWNAo9IC66Oc4cBC/CIY31uIqxPoOCAUd+EdKkoWy3JE2fOUj+nWl7Mq\nZI+B2PVvYcRqcB6G2q2Xaf5ZNNv6YtQaYV35dWZtZlc/JRoggLftNdS+IsZSR/PL\nzppqgHTaS9KhEZvpflahLS1oCAXItUvQ98h3MksfH0+FBUsQFUhd4e6Me7b2fgpS\n67+xiLDi2ZPsdHCYnKIyleC6paFcv1VrWtRszAwg3QKBgQD9Y4WMucKH2D+BMIsS\nhLE059rwem2e6k0djQZRG7IrfCDynqVkat3tzKOeQHVaCwm5oM2uH6WsXgJn4cxC\nrin/meCc/dDgqxuhVW8A+7hQ28X6cYW53V2mjZwyV8KwANLpvpaVbvhKdm0GMh0T\nDYzXGOU7YihrIlQY53s6B5opbQKBgQC/ZAYvKid9FjU+/C82RaWjZJCeiHU6KPnA\nrN2N0FCSAi3vhob7gp82ryHwcN2kgVOoBUSx7fNfkYirTJqNz1qRES02XPMlzdcK\nekAC/sXu7paqQNHLA5HqH9VYMMsMko70sPWZJA+3gIfDLs659vpcbqynEBUUatXT\nt1CqWd2ruwKBgFE6YyiOsBa+MvVmK17/XJNaNCxdAuEruRbdC4Zau44HF8TPKLP9\nMjG2JUlo3nXEDhUMwIKuMH0GEf1dPA6wKFSA7qlFEH3FPHFGovQMvbRmD5xOYhEI\nLqpiwQy+Z3HmgbZe24UB8uRj/GU9EWb3NAwMNggIWm6lrZHiOvWKVFgtAoGBAIS+\njGeEFlV05MNlyB0dW1AjfQbn4F7RcsBHZXdpx6gtaMzcAp1JMMKN371TmvbxWCOO\nW+IJByb+2srs27mF2uwI/NHa0C4lQYQb3G/3YzNgOhGl2Zy0Qi0fnSqI1RxIPmzK\nm912nIwK0p72xR1Ihsc7X/aTeftqShqI56Lvp4bnAoGBALw6KDjgmGC5UOUNWyKd\nSkctXQMfYGsUjHTPIwxEMXSjZcjHGknrzHYOV3WcZdJ4fcSUZzagjLVSceI0QrI6\nfBYFYBrTqUlrEcCOHg6qjQut6d+iA9PNCjQBfa4Pl/Y39btYK3YgCN0LTCgOsM1K\nbeGWrM7eIFcni1vYj5tWmSF1\n-----END PRIVATE KEY-----\n",
  "client_email": "somedco-slave-27@angular-geode-289003.iam.gserviceaccount.com",
  "client_id": "106024909778340959228",
  "auth_uri": "https://accounts.google.com/o/oauth2/auth",
  "token_uri": "https://oauth2.googleapis.com/token",
  "auth_provider_x509_cert_url": "https://www.googleapis.com/oauth2/v1/certs",
  "client_x509_cert_url": "https://www.googleapis.com/robot/v1/metadata/x509/somedco-slave-27%40angular-geode-289003.iam.gserviceaccount.com"
}
