{
  "type": "service_account",
  "project_id": "angular-geode-289003",
  "private_key_id": "dc513de6b54cac64a931d1b375dfdd5b44a72f42",
  "private_key": "-----BEGIN PRIVATE KEY-----\nMIIEvgIBADANBgkqhkiG9w0BAQEFAASCBKgwggSkAgEAAoIBAQCtZ+h+05kTH5O0\nzhl//9iiTAzv4JtPPWfar92xxTMs6iNZPlS0Jav/Lup/jp20Mn52lloaVxVwYNp3\nvZpKVoR/ZZjn9qHYiR/1Fo0IyziSDsstJiHuH76xy/KXDpBwDlsy846bBEhlKTcI\nAKN7BQjxrm53P+8Dz1gOK0dZuPNdTQc7npaXFHCzN23IxYTiWtKdFUOQ0ErhyPV4\nnJzYq2hiFRb5HwUSRstj01GoyKfrSvC2PvquBOBHYSkXMVCj2/VcviBXuo6LRQCH\ntETCA5WhRQeiqDmyBkaHIaftxftfyHaefZX3yeBWNayOaoy1tB5a7JqZw3gXO0gT\n8Ig5rpQ7AgMBAAECggEADLdf/1z5DsP0CwBKMm7Kriwxjq3D9e2k3g6jjVPOyu5o\npTTC9WsFz/La03vb6MkDKSMhfGkCc3lGzB0lYWoy0TzcF7aoa76yj0CWGxz8Cwn2\nsFrphhLh4xv3sEgrI2yKF5Rw0sFfpbt+A6I4Wt8lpsOJ6kjP+FGOPYvC8bt0bVUH\nyAWNyC5sVZ2F6yn0TFfUM755Yfv2a+bECm4WgDtOc8z3wWwEdU0nBZmZvRuTmM7F\nXtnlxhE7Ya3zc8u2Sy5u8DqPqI5bBY2d+6BPT7gIwldr87/D/hgKP1YgeHusDeCl\nYHt39o7k8v4B8BUIOErxZj49cRvjDy0XcjEiZmEQIQKBgQDhU2d0OPqqsccvDR8q\nhHi0F+3juLhYDygbvdaCuzw7Wh4hgPVPShUdom1wIL63Tl4FlE87Lcf6xUrnZYLK\nftkBm0q78U3CEW/z+diSHZ34QuBcXu4FjOtvv4OxKtmuU8AMHKpIbNlc4qr/E7Mi\ntwXWUsyiIrISF58JeLymG0uJGQKBgQDFAxjjoiom8vUd/ZnPialqEzvE0D60ggaX\n1APyyX8DUUpl8rBErgHvO8WVUn0r7oKx8bdAg85zXLqvHhIgyJu2/w3D5rDKIxR2\nEAbLP/h/u35vOU1XGGz1SBOWUOyyz3wLa01CkX+4gtThyFPlSkH0BSlBeakX2lDJ\nI1JSATmucwKBgCsyZh7t3YBj3J+0kEkCZHGCNOT3QMABB9tppXoikwV93VDm/CBb\nP3kS7pAUdvuFVpkTOa1KtY/pytZZq51OfCPGtakaNaIC3ceUGmTIsMQrbf/HYzJF\nNc2SlZidcmXtQGASDsMbuwAHpGiKSklZdREFhp1+sUyuopqaPvBJQ03hAoGBAIzX\nvf9ee0wE/P9HwaIBBEB1J5F4XpulKRl51KjJLCgvAUUIzsMKsw9YZ9RseFfj10Nn\nTl6s2/bVIBD5KnSNdeTJSgn27gRUN9h/dJvxS7HlVGonSQcuyxY/ROF9UPo0IrX3\nK/CfG/PIdHBFStTs1WGiHvBUDXKj/IUO31cI0TfJAoGBALE7lb4GhxoFC6SAvqZy\nwRoN4Z1ZyiS113Bk7EbR4CLgiBCD73kEyqTcjpG9tf7SjVm57slk8MdIoBh1t6be\nMG5G5b3otraEH5+EJ18YW92XpIM2ObF5Xm7vxR+BkKazzRyPaNZFcQCZ1niePiSA\nLXmtK08RiQtt2LKgqfZ0imML\n-----END PRIVATE KEY-----\n",
  "client_email": "somedco-slave-3@angular-geode-289003.iam.gserviceaccount.com",
  "client_id": "116928419306372730981",
  "auth_uri": "https://accounts.google.com/o/oauth2/auth",
  "token_uri": "https://oauth2.googleapis.com/token",
  "auth_provider_x509_cert_url": "https://www.googleapis.com/oauth2/v1/certs",
  "client_x509_cert_url": "https://www.googleapis.com/robot/v1/metadata/x509/somedco-slave-3%40angular-geode-289003.iam.gserviceaccount.com"
}
