{
  "type": "service_account",
  "project_id": "angular-geode-289003",
  "private_key_id": "3d07d0148f43538807ba382f974c8bb4b1605942",
  "private_key": "-----BEGIN PRIVATE KEY-----\nMIIEvQIBADANBgkqhkiG9w0BAQEFAASCBKcwggSjAgEAAoIBAQDJE3YVXk/cQ5A3\nh0bNSXFXHK/ugarNmGusaPKkXr/UIdIoCwT14sEwVchLeEWoCMdObHK/DkRPmgtH\nuQ7Kcnl5uu1SxucMbmlD2kDuUPKsiviN/TfrRBgVckDw7CA/GYBns4pbU7+FVX0U\ndc/mQKpYZSYQUjFxwnO076R+L+6T/8fSHb5UZwA7d81HbHCFAczss67qkIUpDuBm\nX7y2Icgs+G5hm7wEFOWAjJh/gqIXtFF2tFY4NVhtofWBGQJGm+sl7y6FrRraPG6F\nXUeViGAj6n7HqafDYSj6iPpTLmX684YsrJY0JY71PSkkbNmXhYYRe8IGO5Bxtrwt\nYqPc4NSrAgMBAAECggEAIxo7phVV2b0NwzPhf1sP50ZBzGBkogm22l1j5qAH2w+g\ncY8i6Y4Rbc+77LjtaB1INf+mtIXYFRFuYLIEzADaBg9E+QtyMHBh/g9vAGuvQcHt\nDFSlW3QCxFOy1JxUMM/R48irIbBoIe2/rT+38JlfY5kc4QKIUTTCIFcpn0Hc44cX\nI5e0BDutYgf3LDWiRj1fIMh17NY9/Mac6nFs1OAyDxDrW+n2B5TrEcps1wiQxW8l\nfDkYn4Uq9PUz7j+qiuco8uKj0gBeFQQ27AhhCX0eCuWf4uuvwVlmSx9dNLLPyBOV\n/qeicdnJRYdX/7vupezWURLQQxTF7Lbc6DKg7VYqsQKBgQD32AsTwOZylKQmacRW\nvikydxjbTMwxONr5+3PFlGYXbzwg9lxtxo8z2A0gsrFOyxTeChiJG/OyUsLjNzwY\nD0KT2kddXQ2MditCxSrJ6dg0ecfuv/YAA8yET1CYYqJGqv+WLA7UGb5ZoMpdaXal\nJGXXtCRZ6Ehiz0Sj5Avu+2lpWQKBgQDPsWwzOc4SO+h05aYqYd9lt2u7fRg9lahI\nZkKNlDqVkjzdDVRXC0/6UYj2qOsEW6OGabWJY0gPW3dila5ELRAWHTw4EojGon0R\nV4ocyXd7Kj4/BJniwI/Ls+MldPGbi2WU+QoIJoaNy9TKGFv7tUzUbXir/BhBLhMY\npKRNdg+powKBgAh3ohE/st/RQjZpwKJyBrhJp1i+q+82kQyfUZo7cq10SGqb4BaE\nBRpxVCl80V/uwjy/vYzZnp7GAxB+L5hm1RB2EaAX8MGOu/WhBNA3JALO8kyu1Dm1\n54PRreA25nJhny/DO5J1erJXMvK0CrCjqLMQ3XkQ3YA6so6i2OGGR1ipAoGAdTwA\nCFZLtM0uJLXweqHuWNsVK6qsAS8141Adpw8RlpYKVviML+oJxhE6D4k/x6D2iAup\nVhi9dzW5COPWj1MkbmcoM7p6jCzyDdTs99zc3Z/1rNqrBmyNfn1W7TC6pIMl3tZI\nTFt6vhVdUoo3ebhX2tzELchJ5JjeXJ2qxLKsmqMCgYEA28LMkG0Lb0h9pUAQCIwn\nmwuV3n+nFSfAdJyP1gI03iT3p65tBmH57NP1YQJ1Q2QvvuS8+8bHkUlPL/RYtnBf\nplQXzBjRM7HpJAmEJVpNWxwXb1K8i7wTUGppWeQD8/sEnZyenMSIIW2CzMuiiAfg\ntYICQN2hKZ+LL+hjdzQ31sE=\n-----END PRIVATE KEY-----\n",
  "client_email": "somedco-slave-37@angular-geode-289003.iam.gserviceaccount.com",
  "client_id": "110395705740567038528",
  "auth_uri": "https://accounts.google.com/o/oauth2/auth",
  "token_uri": "https://oauth2.googleapis.com/token",
  "auth_provider_x509_cert_url": "https://www.googleapis.com/oauth2/v1/certs",
  "client_x509_cert_url": "https://www.googleapis.com/robot/v1/metadata/x509/somedco-slave-37%40angular-geode-289003.iam.gserviceaccount.com"
}
