{
  "type": "service_account",
  "project_id": "angular-geode-289003",
  "private_key_id": "78be60a7870105b24110390e4331e234055cfed9",
  "private_key": "-----BEGIN PRIVATE KEY-----\nMIIEvQIBADANBgkqhkiG9w0BAQEFAASCBKcwggSjAgEAAoIBAQCVUvaoyYS+kunf\n5TqeAqf1yY6k9HC37S4zqdXtQju77D1ufOGxZNAn+WO7mWc56ieSAeYm9CRAl5lb\nhS7WSamHvmyFD7QtktE0MsJSC8jDt1zkQdjTGhAx0wMjnQ5apKc+/V3VkQ0LFxcy\n5RCdke8G2RXpDgZCXtXPSwO/r4ioGsQf8uO0WAh/C8gtSEICcDNh4fjTpW1vyP23\n9PfRXorrbz3tFNMNNDllr0lyxh/6ykj+uPESgZtYwrJb9PhpHaf2fWxbVH2RAjyE\neErPDEOggMmWRxV+/fgtj/DKmDbpp5b4M6/zuaDDQ95+IY7hHxLvqjWI4JtnLjXw\n7C/ZjxqNAgMBAAECggEAPCY6I41hQl7thHnS3dlWDOTO59VrHjuVE8yC1tqKM02b\nBUmapBlm2+NScDv/381ZeS/4pJJNlBM8/Ceu0TTE7GAhWIwV2RG94ZfcvK3whh3z\ndiKsE4T5JwjHx+243XxbvjzTMncGWQRJHQA2bDJfpVOGxuUWUl/fImwmK22qz4Oz\nHjNyRE6Udjbd/yFx6BS8xyIEyQzDfHXoK9khYpEv9beh5zIi4f46/7TAnZsJfD2j\nXKX6okGai/Vsg/BEFe7eG4qVy65HkDIAS0Yttlyjx+iPGb6z5OJr1AIWCSy25SAb\nGho9y+VddH2XdJOXyQ2ZGMs9vo8FDsFkNhHTreHcBQKBgQDEw4uUvstJZItAlGyJ\n5dGa0zkyX+6QBDMITavfX62RSweM9duK5dpVtAXSyL42seiS4gLyJDsQpJYuX9fG\n/uDUWExfBl/xNgyHebzm3d6NDJqJYq1MrjSO1s6c1xifyi+rLykES1KJxiGYkZ78\nl+/vmliGYL+hipU7Ba8+DPk5lwKBgQDCR0SACi/tA0Ed4u6UhHjEmpRLk44XlSyA\n8V3TfUEy0A1Q1nJFt+r9oo5RS//LMPAROb3PI9diFf3AGtPfCMAvtacG0Ar3VOwt\n/n/C+IQa+ohhZv0jHIoPwqsBFbt/8qW4J5jal3M/MgNUV5jmoIY6dSbz2E14m6tn\nyVN7y4rpewKBgDthUARpt+vEPgoVQNQ02RbCW+aJ8PLhcY0184KL21OXswWlRMYc\nK9HlbER6dH0JH8kEECOHL5QMN45zOilBzhQHObULtXST/R/9aza5CmrCvPhtISOd\nBxt8VAodF79RQyWEK/qxyIzvkD/84mAUckJ67/BNzkcwDW0sgABX5fatAoGBAJk5\nbCUv46yirHDN0i0Abd9hqyQQNDkVRgxMURvD5fAVdusStv2VmJiB5Izpy8yNxElR\nqQn90plhjsg8YG2/kRQPyLPu0TdQmxWLa2hyaH5+qaFogK14jMrxVb19TmwTC/C6\nCiwc1qA46bdTfxwl7recPiSDrFY7MGyitF0mo2CRAoGAWP2L43b4xcl8rdMNrlM8\n8Y/GoxxXszC82Q4uZIZQR0h4tBXdmziNU2sGebDEI2Ygm/F0px6Szga9+9WgpCGX\nxoFo5je9XR5p2xA+gowWTU2FasmeZ3xEwcboqyy1CwMba0FA+e1maGR5s8n21oRq\n5DgJMHKEMPeh7nakdvRgC3o=\n-----END PRIVATE KEY-----\n",
  "client_email": "somedco-slave-43@angular-geode-289003.iam.gserviceaccount.com",
  "client_id": "104162377393292666185",
  "auth_uri": "https://accounts.google.com/o/oauth2/auth",
  "token_uri": "https://oauth2.googleapis.com/token",
  "auth_provider_x509_cert_url": "https://www.googleapis.com/oauth2/v1/certs",
  "client_x509_cert_url": "https://www.googleapis.com/robot/v1/metadata/x509/somedco-slave-43%40angular-geode-289003.iam.gserviceaccount.com"
}
