{
  "type": "service_account",
  "project_id": "angular-geode-289003",
  "private_key_id": "8a1ce52e05840f601acadf3687ae69f67ae8a0fd",
  "private_key": "-----BEGIN PRIVATE KEY-----\nMIIEvgIBADANBgkqhkiG9w0BAQEFAASCBKgwggSkAgEAAoIBAQCDUv2VYZYH6guR\nMqevcTPg5tjoGHioJmX/kBmF9kHAhd0g+QB2Nb8E4dcQoKGW5Bk5cL2mmNEqdQ38\nIqteaoeN/srI08cbSQygl1eHkIwXkDiBzpgEcFm3I6oZVW8iN8778ac5W28CJzBu\nptWqklo/jBc72jQGSwQLZ3pQqxFRYnpTqAjUiCKjAigvl6tvpLuVcH3vcj4h37Pc\n4a+Imc3DwdHZXORwoq7dO96PUCA+CtOPgLgJgV3Agcxm6ktz+gi3mKnWXWv5ttM2\nLYQA63mKoL7xrKFJM4DE8UiMJviHDKpfG5hgqK3ysVZi9M8sN0S764Bb5lXaLMR5\nQ4a2Y60HAgMBAAECggEABr5BBCXLI46P19L54PHXSpyVQFxapwkLDWjeTqPQSNeh\nfPscMXWytchM7UR6Qk+7FdklUS52oGSl+lo4t3PmkFLSzHtyCq4hEQaZuX3MG7z4\nPH4ZuIdLrAePnpZloE8CTgCLaCVlmVQ0J0e3dUySMsIkQpqtN4eBkSkCkwLTCaff\nMJcNn2vvL39q2Litt35+IbCUqq8QB/pN1Mx42WTsFJEdG75N1SlCFBPWgmvgmEDM\n2KhoazJ0/V4oPghD2cbC4NqZVXE5KjBJUqqn7po1O0yj8hzAquNkcMT/f9pAfWk5\ndfe4OV9k6a1p97GqIMGD+AjeglTRDJIJtb3WQ/9yrQKBgQC4a4JwsB4g8YL4lLI0\nFLQe2mxmNzMZeJlpeGLkSwDW5fqk6/yR0+7QZFBCetDwKSH4c8H5fhK9F4QBcEgM\nestGPVVsAK8/cg6xW8aWCLKmgeHMulOIU7iHIs0WFPA/R19HCu3cwaH7wh8g2jBi\nY87zRfqEZF5EzvoR4awCsw1cMwKBgQC2S7vi/OB7obQoWtcuii2jk3ENsifv5rQq\n/eMZJmmZCw1nQtn72lpwaBBSOyNaa1mJ3XWoP0RECpHfywsIkKLv/7KClt1bUmI4\nReVBOZ8xoYlb7SyJASPyiJXbGA1Thqz0OLcOa5Ds3MBWL9pIxKGFY8WoNRnVHn0d\nPRYQOqOX3QKBgDVy40EpqfG+TUkiP2ucvH9cqqINSYAOVdgdjfvASSP/T19RDcht\n9f7rs98wnTGdmjzZv9RBV8j58cZA9oC3bgaTbBh7Mk9fDScWBD4jkzNy3TBqqB8Q\ntKBl066cruyIEPMUFdAvRnUi08a/tdouNyKGm46XUEL9AbkBAMtffXXFAoGBAINy\nKJCL9vIur1FJ709Ho5EHh8VwaQu7Nr6pQ0+nOw13wrpqofPQhtX2s44Xxm40aePX\nJDelJvxJAtZz+gi7AkI8BePUFNj8loYtIBngCsIm0HzQkARaJimEA0pwFWvc+GlB\nW/2x4lZo9ucuqh8+aZldT/DyGSZrTZv/qCEbp0qhAoGBAJWh4CZdmPxr8iPDL6ee\nrfygSfAa/uHXrRroos1nngFKFg0fgbEpCVcYm9tR6dy1IaVpAJG6ooSDwLG92xao\nF4LtOptZ4+UJpEK8KWemOZzAiENQWiPzRFjfV8HOw0xBBgtyBGkMKAfESXYFvOXm\n4JNMM1b8kaj7mley8iJ+lMS9\n-----END PRIVATE KEY-----\n",
  "client_email": "somedco-slave-46@angular-geode-289003.iam.gserviceaccount.com",
  "client_id": "109370289005733760044",
  "auth_uri": "https://accounts.google.com/o/oauth2/auth",
  "token_uri": "https://oauth2.googleapis.com/token",
  "auth_provider_x509_cert_url": "https://www.googleapis.com/oauth2/v1/certs",
  "client_x509_cert_url": "https://www.googleapis.com/robot/v1/metadata/x509/somedco-slave-46%40angular-geode-289003.iam.gserviceaccount.com"
}
