{
  "type": "service_account",
  "project_id": "angular-geode-289003",
  "private_key_id": "7193542090c0f7e2c13bebd172f7f1f394210744",
  "private_key": "-----BEGIN PRIVATE KEY-----\nMIIEvAIBADANBgkqhkiG9w0BAQEFAASCBKYwggSiAgEAAoIBAQCtTOnmGRqjlHWp\nYlguIlyDpZsd11ERTiZ0wEtApc6t8IC98lvRPJbg2Gn0gsvmuDr88/lRcTCTq9Bp\nOpmZ+0pb75ZKZGJuf1nMZ+WcUmL4ondXcwhKxz+wArwnH60izHPtGlJdGzXFXhJX\nvr6UAo048JI9vmB/1c8zQOiJo9YejG3VT/gbsKKERuSv8UlCv0FoNVN9sU4vwDSw\n1/MGHjvDgyDAWnZ4lbQMJpxkZtMz7tfn4Z/F/lvLCGlhIW4JS9qJmuuz7PrWKb8A\ns2WJuhCT0uxF975E4sNQqgvYiSOsrc/yO6ucsD0Bqd4q5Ps6Ge8w4bOksKiB1v2X\n4VYjCbo5AgMBAAECggEAChgRBqE/Mzh2OwG6q6M+Or/GX3BXbTfdVw8NQwx1U53O\nzeGENhV+n0WTtFV6/WsNKocmZjc+0lcfWkW6xSSFIgI8QYSD1DZQO27wyZBl6eAC\nrgIKAVsGK2EZZvj6G20Hso+GLRyk3uRaEqjOTm4wnhirF/QTCFcijLRy5vN3SQuh\n33HQyHJDRloKYiY0q2r5Fij3skgBM8SFmIZj/MPUieT3Cp7gqGMudXPQWo0Vb7sO\njbFl5rMUxDcY1oX3tVAdG5Ia5pjMpeMOkpTJbhy7rdoi+YavwROb1m7ZD9vZv+M4\nsEXszvpmP1Uik903/i5YE08iI+t6HLtNKB0WABF4IQKBgQDUVOIu2ey+gsvT+OEV\ni9Xvd6gd6yXg5/3GsSLL35rJU53z70NwJ+wVaz3uar6aXS0ETI2T6DXXJmRl8a4c\nFvcLOxbA8XBAl260KjdW0IpP8249Saqi/zgC25qbKfO3V3GPqPqBhY9GUmcGO+Pl\nCU5Ijt2JXJwCTCJhPtrw8jDxKQKBgQDQ8REjhjNvz0uzzU5IKSU1OjN0KPSmwK12\n7pcoYXVK/Qf4A9AAg1cXSNGfYY9owHV0htw68E+WWEwn8ZFQ0jyBIZpIhcfoFmlT\n3Hq/vtv4UUUohzJYkVdUdvWNxhy7+OPjozrjcecWyu7Rftp3qHciEhU8gKy/i8Vq\n8a4ML8JSkQKBgC25bc/LDClmf0BRix8ZsuNTsDdpKQoKy2KbSLQAnhOW1x/tuWcQ\noc1m/7o08IDLaeNQHPjp+5YuZVZyuhzAcUjQ27CHDbZLJgLUSICAfhiDgozeLUnW\njhhHdD7PxPUJdqIKMI/t1BG/swHrqcLrwxjq8xgeglYYURsB7yIN9a4pAoGAB+TT\nrO/pCZRfW8+p4XgMe9JTF1RkydgFtbSV6WSlNcwRfQFH3n0X0T1jDg51iJOc3GYr\n894YY6m6Vtf9kXwf5REL7yl+v/n4yL5PtObVELChWEKjWE1Fa1+DL3QIqeFhWrxU\nATvQa0AHfcq5HkQzHApq2vpRjHsPXlb7KGK1iMECgYARl/jNzuj1hTYbnfqWM6Dt\nbwZE9UliY4jJno86/35He3PmCpecpoLEUCnbSCgqWUvsF3VF8tK1RR8+Y9eXKsY9\naZaWSLax5ULh15Fy4YaOz6/7E8A7Ltf7LTT60QJUL3FpSBeb8rd7FF4WrTsGZoxn\nmvRegeeOxc7BI5gR0Z+faQ==\n-----END PRIVATE KEY-----\n",
  "client_email": "somedco-slave-51@angular-geode-289003.iam.gserviceaccount.com",
  "client_id": "107358529646155101440",
  "auth_uri": "https://accounts.google.com/o/oauth2/auth",
  "token_uri": "https://oauth2.googleapis.com/token",
  "auth_provider_x509_cert_url": "https://www.googleapis.com/oauth2/v1/certs",
  "client_x509_cert_url": "https://www.googleapis.com/robot/v1/metadata/x509/somedco-slave-51%40angular-geode-289003.iam.gserviceaccount.com"
}
