{
  "type": "service_account",
  "project_id": "angular-geode-289003",
  "private_key_id": "8af86a08fbcbc73ddcd9a033b104978b1388d7a2",
  "private_key": "-----BEGIN PRIVATE KEY-----\nMIIEvQIBADANBgkqhkiG9w0BAQEFAASCBKcwggSjAgEAAoIBAQDdHncdduy3+I1/\nLVw7FCtP0unzkfG9kyWm08LshLyLhcD2vsRAAkvD9/3kMl6T3RARdD0n4g7CJMRw\n9UdR4yLKXy8vuan1GFCaRfnbzbq/VzA+uIkkUMR1zOiHuQ+KuMgCNXouIMvaHJUF\n8nc+aXzWH7FIT4yrcDnJfB6BeLRCdfjZgzDSHK9GNDLSQ/tin8RhYhsSLCyFdmvX\nXotJtcucKxRdA53pJEceru3/0pVUEsYzT8vvCEIVBuv2/0BC5ah0fnYuYk+8xRZN\ntZ+wnMT2Nl4+LCNwPCiV2Cd5lXmbDjacYQJnyZ0cUPaq9BMkclNdSexgyA9D3xfM\nfLlCVLCbAgMBAAECggEABZqpEDEcbMk65NdEeCbZtis1TLwNMW3STXkefpoaoTqh\nml9ZX/nu66eUYr04Em1O4/JbPnCHSTpfVDGTPisQjap96qq8+P5FxLMzUvPS4NiX\n228X4ri9UfMAjbgOAckPIKc0Uoj4Qa3pxP3RMd7AkDi7aIbDnPC6NjYUG9nwT6Lb\nt6yuKUGuJIOPu8Wr9mAkomYOogeM2XTOOLDsI9sHqGl4SPOVhLEL0AYyDcbp0Bu5\n6NjwzBB4xKsRoTQYhfDEGDW8piW0Z4OePd7hkmrrdUEins78Chy1p+m+reRmUf9Q\n3j3RQ4O68e+lkM1XF5kGiT4eb85arm92Ed9qm1FVSQKBgQD8yohiQAXgdySkbWSt\nYt0HdrszSPoy1QIbifmH876zTJeUTkz7Om38stBEzZsvdIW7beWfi8WlAAW8r7Mg\nfPTZYJeBdQ0xUO28biYA5KocGxpWhiwD8nUmJOrUkag6znKa6ODQ2WXRUYkS5p4a\nbKuvyLV8DuD9xnyQDvDpXwv+VwKBgQDf7QLYwKizpzAxQG/CgnEM+kQbZ3POEjjf\nGUdLCaXK31qs17YZxyF7uu8j4hO0Uax7CgXkuCQfcwueg5onKmKMCZoR3wnSQBEH\n9UYI8SuM7r71Yvwjo0SoB0pSzsrXyICoQOGFqCEkxelpUsLMpeEgsBEsq8oEk2cT\nerxJiFwtXQKBgQDihAVjrKTXd0tRP2j4aN9QAddK5Di19eL2lFMRvJsEBTzKOsOG\nVtwZlI1FKcvF4S64PYiFx3QqHvQFGJd1JCMu6fu4mA9jQnZU44qQQFYh6zNVltK4\nErlgnbIDGiXZ1AYjw0s4OaWfw+UFF7tSSFArqrjc2mRHYmVZnNnI9E9F7wKBgCwl\n9W64pUouR0EenCo0P4e4e98PSXSygQXzXOv9bfOOj7kOGngAm6hiVa20cAAYLjJf\n6oOKjoyoyPyqo6TfJWjIp9ioKa6LNRBlmjY/Hj/9/iYxKtb35JxgO5YR8UoT3NHP\nYOdSG569amR6ja99cOJZ9DjjccPvL95WT3ML8Gh9AoGAGh/TKATbUF/oemgqY3yb\nVfXqZMwWlWg4P4iGPn1HyE3UpuCVDGTW00WAU2a09yc9g9hAZDF+vEyoBGY6PYuk\nnliWZ74wX4P8UOv3WAZAiYJbZnQPhjqhkPUrOYcwA2xPxMB/SfvjDcNyGopMY4os\njGmG4siKeVPYa+npn0Jfs9E=\n-----END PRIVATE KEY-----\n",
  "client_email": "somedco-slave-52@angular-geode-289003.iam.gserviceaccount.com",
  "client_id": "112751112416711086016",
  "auth_uri": "https://accounts.google.com/o/oauth2/auth",
  "token_uri": "https://oauth2.googleapis.com/token",
  "auth_provider_x509_cert_url": "https://www.googleapis.com/oauth2/v1/certs",
  "client_x509_cert_url": "https://www.googleapis.com/robot/v1/metadata/x509/somedco-slave-52%40angular-geode-289003.iam.gserviceaccount.com"
}
