{
  "type": "service_account",
  "project_id": "angular-geode-289003",
  "private_key_id": "ca3a5363c12a48676561e9193c9f489b9005c39f",
  "private_key": "-----BEGIN PRIVATE KEY-----\nMIIEvwIBADANBgkqhkiG9w0BAQEFAASCBKkwggSlAgEAAoIBAQDZsK1T8tbS6q28\nz6O80CVjRGQZlPxN6Itq/Wgq5fX/Y+Hyw18llSxzVP6WDyg6mv1/CPKxEuPq2cA+\nrmr8R3c5CGpg0zR8/uQdkoIx1wYP6G+/SyE8CvTBfX3ApqsSutvxzhugyHUgg3q+\nBrz2W9FScSYhrrWi0GWX2fjQmhcsXN3PdnBh5uVn6IKmN6Ajl8r9KprNxBcSdc1Z\nr9jl4Em/7F4kVy8kOiJnvVURQ17PybuGzeEmAp5NNu/cIIqwONB6Svi564g3uonx\nHN02KRsrTvVQYh2s8GneHjKaymPH/8UE7jGpxZ24BVvgs1bSvtKPeIFUHXLupwfY\nJTinJfHRAgMBAAECggEABwhGNyaqgi6G3Yk7JcG3HXtzfOCTXHxxSYvlYjJi1aTf\nQxmE4LjOkmy52zTi5K7GVuTd+zKsJnVxmIzHo732x+LB1f4orUuKKLrnhg7nURr+\nBijaCl+ju77vMaqort6WtZtmCNYE85+PtuUOlGpPqylA1Th4wWlYSNUnrKx3qG0J\n1DSr0eG9lbXpwXfxu14JnKlb6PueyGP/yyUKZ0KUZphHLXfznvG25xCnjJtLJjcw\nGL9hTuvsirHhZjJ2kxlFqnXG27356lwv/hxfLS/WAH2ZFiPZvW0MrIuwENFUUQ6H\nV2hTTONgnlF2wDPpltZRx+pFVZ03VK5PWxAC7QbMqQKBgQDtHS+2IBML0ck4v/zn\n3uvoHzZoIcpsec21/j68HP3Zz9meVM9AuEHNRu1IfPXrj1U8rwNcdLRRrXyqNPAz\nVuk8IfHgoHBV98HCgcxrCXwHwXpAdlA5vbl5U2qp1bSd9ivPopiQJTJNkf+GUwAO\nhVcqee+lKMG8QHbj2BIqDaPKOQKBgQDrB27qMetfZ2rpipv5gvUTIoSv5vb9OlIv\nvDJlKd0FlXQKbtsgsPGf/QdqhEUD8exF5eViwOgRJdX7N96c1uNqeqpnWCb49EeD\n0gATbXjND0fq44oVPF7/OM+LMAUlMWM20u9amnxOuBzkHoLN14zqXVLmbl8PhdRb\n4VETGWnEWQKBgQDl/Iw9nAi9SyNg7x9QjDHHeRbdlADyjIZSQyP4dCppLSjIYTyR\naucwQ959k+84J1Omw55//Ba2ro6fzS86rM8Xa1lf5l5vlBuVHS74lz99ilWY1ulj\nyDlxi86GoulI2fCOugg+sEWFZdoyIKmKbB0q7xDZ4plfjiuDPh4IOiinSQKBgQDH\n0sISi+66ZosXlKmYMid75VU62PwVwIgv3apbKISqQq8uT6Iu4UIN7GtpvJuRBxcD\nNrsYgzrLmYec15uFbY5c8X3/74rzD33eLaWy3theQCe9JUg5VeLOy9ZpWKKHRL49\n1ol6Vu5pX0/xA5/isuk0ObRKBnz8DaTHmYH84xZxwQKBgQCbF6dPKf7ua8qeRrhG\nxRscTp1tmEK2RR9qYH3H0mW1x/FQ4Z8KbVn89Jdjn0Iq2d0/OEz/xDmm7rLcXwEY\nhgPimJfAXz/gp4WrzUxSzFY4yuq2BPmKoQSMHEUpgWbgXGnsNGLaBdUlBeDvZ3jU\nKBPYn8k1X6MILiSIe+hKoCe3IA==\n-----END PRIVATE KEY-----\n",
  "client_email": "somedco-slave-55@angular-geode-289003.iam.gserviceaccount.com",
  "client_id": "108886146188331476553",
  "auth_uri": "https://accounts.google.com/o/oauth2/auth",
  "token_uri": "https://oauth2.googleapis.com/token",
  "auth_provider_x509_cert_url": "https://www.googleapis.com/oauth2/v1/certs",
  "client_x509_cert_url": "https://www.googleapis.com/robot/v1/metadata/x509/somedco-slave-55%40angular-geode-289003.iam.gserviceaccount.com"
}
