{
  "type": "service_account",
  "project_id": "angular-geode-289003",
  "private_key_id": "a340b485f4577d37eaca011ec3e0def92919239e",
  "private_key": "-----BEGIN PRIVATE KEY-----\nMIIEvgIBADANBgkqhkiG9w0BAQEFAASCBKgwggSkAgEAAoIBAQDW36A7rvHSo2um\nxFPS4FWiNU1Mew7i/Adqbj/9zVKNoA/QdPC83thUNb9AldzVXzg2O7sRFmO8OYAo\ner4PoFeX44JNKU0q6gAjNfnFrqFrmNyS1U+2uVIQEzJj/R1EXKPgWPjtLOr0Qvb6\n68l8bSNl7G+LM11rUXGaR9cDRNUd1DVKRz9c0oSMJCMlBRmCiRpcwkyttpjZAH4c\n9ncLx9yE1ov8KSok243sjoSYCIQwzu53TGKef1wAx1rroA7hd0FyUm6dXh+ioor9\n8hjxDY2c0SyJUqAD6EDgqikUxDV8r+l/8tq48Pa+gNA6hFR5EuQAAKnfXHjIjUh/\ng+pEX/qFAgMBAAECggEAAsjqtMR1ulvctdZ2OP1lI0y37ncDixfB+EaJbU3BskoC\nuzirD2haoqQAo41pGsSOKSPf/hQVNTWKJKzs20vY2E1YBl0JMbZhcEQmM0hnBxPr\nrBwTiircnIJXwV8juH09W2/ot1YEOGTJBsOZK+k7uNVCWZfWHbCrJpYd9hUHAtUf\n+rNA7ovDxV/kbHIZphYIJDIj8VCPUZixet/CcZM+/YBQKVAwlni1z+lu6xvDfJeV\nUOaxbNaK8tBnpMvW9BBufez44BTrwgmcHQL/1nKveBzx2W23+2JGW8x4zu0FcuOG\ndYpsQPI841E5pKFj8aJR/H3YK7bH2uiNcYSltRfJLQKBgQDxZtaMFud0osRGznGi\nGoY+VvwUuX4ecUT2zY2O5pycpWqyZBtyqbUWaYRiaaalD80psrBRTjbaNwPyzZn5\nwoTp5a2frSZd7DR7reSAaqKIFp+kD7W/gSsRLucQw0XL05rqa+EDXvdk5I0SLggv\nji04oWk7rXJ6Rnc1kCg3b11imwKBgQDj3hpPf+u2g01+SXGcHtbqkID0yscmIAZ+\n5qrGEprIPL+NnHun1rpWi0Lcifkt+R2Nrowuj6hmoG/0SrqJSawBrEtEgnTNQ6jQ\ntSxiMkV49lE0kw9tYA74j0994jrF1CHO+otD6j0L2ZLVgC6kOnyNt5jwUNuOe4iZ\nTr6EZRnZXwKBgQDlZbpf6awNVFd8idXGG7qSJwrpjtPgjfbhKbhpoZAV88OOvj6v\nGcIyCBd7hbaMiJWIGHwg51iMyVcBNowpocW4l0AEyv/4pOvC1B6eQbct54HQ3/Tw\nhQiuDYoajdYXuYAvYFC1aVtjDyVXr1KsDkm+1PQxd8OfmrLRvanZ9AQkHQKBgQCN\nmDIZPJAoNact1k12ieNalrjLZEYj9rqSmJt9wYnU64rMYHSmctQPezHtAP+KBcbL\nh68sL7ChNQjccKNBNDpiP8H1rGsQMf7w0ePmkP6Cj+0eElP/zzT+V2859h43V/46\nM43egeu1NVn8uU5CVuWW2oN6sYP9Id5cBYZ1lq1dWQKBgBASGCErfJ/yhB1/GcnH\nb4E001/buVj/W0mPpoCyCJ8A1r3wKzvWR9cBKcO1APZg2Z/NhGceZzLhSXPqbs9Q\ndYyaFSwFZsK2wNWrbyvTMTm6u6nZXScZQ12BGRarxcdJctU7OzlrHMGXUVhGDq+V\nbYwIB/k+p4wv4Y3yljlWtwWj\n-----END PRIVATE KEY-----\n",
  "client_email": "somedco-slave-58@angular-geode-289003.iam.gserviceaccount.com",
  "client_id": "110532597380778036650",
  "auth_uri": "https://accounts.google.com/o/oauth2/auth",
  "token_uri": "https://oauth2.googleapis.com/token",
  "auth_provider_x509_cert_url": "https://www.googleapis.com/oauth2/v1/certs",
  "client_x509_cert_url": "https://www.googleapis.com/robot/v1/metadata/x509/somedco-slave-58%40angular-geode-289003.iam.gserviceaccount.com"
}
