{
  "type": "service_account",
  "project_id": "angular-geode-289003",
  "private_key_id": "30559ab14993ce5fb99c73bc839da3767ee4c82f",
  "private_key": "-----BEGIN PRIVATE KEY-----\nMIIEvgIBADANBgkqhkiG9w0BAQEFAASCBKgwggSkAgEAAoIBAQDMWKSv1oRnshxV\n4AtHaEYVBl+F91dz37ig6Vg3shiblyC74Uh36na7yYwdpS2V7Esjwr+FMAYywdK4\nc1vJMcHjoHaum/rcHP/Zy7bGRX++4GrmhQcWA6SurAEjcG52JXK9U4toIngDIdGH\nmSVZ0nwCzVqifFhc/9jq5/xRyCRsRhEnFlFf/iA3fasr9FnBMnM6gwDaVpuXKkxg\nv89tYxT+lLZBmQbkSQIwrzO6kMToFyfP81Wde64KElUYrUxHv5xRGUmauCqQQh+7\nw9iSqAEh/1bAAPJM/q0kaentKqMNgXjKyicuXViaBrl+dGyjw8TK+UeUqtkVZcja\nkaCfWbelAgMBAAECggEAC1W2at+EEClvy26mSYN18bgdB9YQtod4GwrefxZkqYrA\nQNOt/KLXi7KSEFnndau5/kWQ8I8ZpOqd6OfTNU2KgvkVZDmYOGnuYjMb1BMqUxjp\nLRi/bB/vHFZDqObVZb3Nh8Vw0+mnjQrs76/Vw836XYBtENrDXwM9Ecik9RdcN9ow\nvRyc2kH3bxnjqjxbcRf6RmBeC6s8KeDdoTQojQXizgZHUiGZINcy2RBo7l3+JeyW\nMuscEJizxt5mYrg4uzHIhdnly6GkyVNzGEB6pbe4QQiJiR7xc/8h2dYwHmKHMI5w\n+UuCLpQnlmQibva2rQ5JLZJoPsnJeCohAW2paqNLEQKBgQDlkFIAtcoBwPF4z1GB\nRn51jzEp0cQBQqTvG2AJ14H8gJUvQqr0d4peI6rb+NKH4ryV3hoqKbnor1TN4USJ\ngiB4/E5vvkAZIAUkPEBTnaARq18kI7l3aIEFPH2nAHaOFbK0KKnXzXPzOW199RcM\nLBrhLz/NhM5WQKM3kUP3hOxuEQKBgQDj4OVhaq2wNp4HpHJrFTaz3C6m/F62xcG7\nj4H6kJ6lvx1YGfW/S+M6qgDx/ujcJPBdnwLFv7kVMJ2k/xB9qLrr72iVwvILR1eE\n8mI8Exe/PfN74/zK8tDMnYmRmRXJXU+nsOX8K1mZ35aWJQVyFswr43FgxFB6LDL3\nSbbPlcpsVQKBgQDlf0hbqWGQK0G8kxZadQ0LneF6e1jGIcgdunJipG4w7qM2IiIi\nUDemMWYojzJ54rTB5s6lhB11f4L6Z9BK4CpyiVoo4DvYYmiBdzKf5R8XSwnMaWKK\n+5CwmW7Mu+vJ0+tZrKVPNvhKGglaOOGXq6gbo07XuYNGO0xwyur10o9C4QKBgQDh\ni509eHsFKGntooRlHJASIWJDgRK10LJZ1EaQHEgKQUjoBHnJp3D2hYF+BBGyoxUN\ndO8njwW/xWijAJnv5etszn8zi8pKA4jKW6WDVFpyvPybqSJyNTcY7uxUobKApczL\nazmXB8kdlcHURjxHmeznm6yCXIxTACBJxjoc6GN8KQKBgDEoVi9IMkl32V57CMRg\n+aBplj8qn7PUPKyQPPQ4xCXDk6XampGH42x4nY+SICQk0ZED0xXTnNs5zNWaOE8D\nkBjUMyVnaPM3ebYLxyU+VvTxJtZsJvM9jIA3rrEicdIHFbUA6BF8AwoVDKof8+rv\nfMq90EoqdxcamJExm4mUXlNP\n-----END PRIVATE KEY-----\n",
  "client_email": "somedco-slave-6@angular-geode-289003.iam.gserviceaccount.com",
  "client_id": "114613223009395718338",
  "auth_uri": "https://accounts.google.com/o/oauth2/auth",
  "token_uri": "https://oauth2.googleapis.com/token",
  "auth_provider_x509_cert_url": "https://www.googleapis.com/oauth2/v1/certs",
  "client_x509_cert_url": "https://www.googleapis.com/robot/v1/metadata/x509/somedco-slave-6%40angular-geode-289003.iam.gserviceaccount.com"
}
