{
  "type": "service_account",
  "project_id": "angular-geode-289003",
  "private_key_id": "45dd8d832163e96c4e0b1d97274b6cdd51dde3b3",
  "private_key": "-----BEGIN PRIVATE KEY-----\nMIIEvQIBADANBgkqhkiG9w0BAQEFAASCBKcwggSjAgEAAoIBAQDr4ARDYZ8bSvTF\no6zqRK7Xt/8WjEASniEEbyeWpgcOjuzXJ0m6dhAto5omal74Y00g9BEhxWfXxrMC\nU/xUk6Y6rEGBeV1YeQDErZR3YqlN9H1VMMsntwZwHLOUqv+fE94p/qHXnMeLj8/s\nFulrqEKWlIMJw6KnXD2oSHJcRiWjmO44JwrUMG++IO6tfcYIdNq65BC+WUnGqLpe\naApxSTIappbl/OMf8LDtG+f3o5rYtP455ikhHS03qvKBMiCCuAgtsvNZfm2mlk2i\nltHQtT9EApoi3dpmksoU5YANI2RVQQ12WFIXQTIEOLRC7dIs9j2eQxRn0RsykQxr\nGgzQihfLAgMBAAECggEAA16ml1dPBcplJVdHZrjaVpkCEHTu4SICynn1pgbqyMIx\nbVW38+107j7I5UDvPiH7+W5pl7XrDzLlormLoqI4S9yv/p6YtodkA6+PrhcUnB2P\np3vpoo020yGaGukVahClQ5tBhj+RAbHx3jiDcOgo3pKlYN2IOvCnvrXZLojTFJDQ\nypjvz1duzNi3DT170u/j6FuKF3PsbRC8WWq2wat6+06kYZedSzhjrBWmqW18F8El\ny6RJgDJepN4XY0Synd2YckDvtqgW8nlGa6s1ptXUdnLaVQBbR5iTp8PtKo8xtjmS\nvTWdVAR0b/1mUmfwbtQRx2ve83srKnZST6l5iphTgQKBgQD15UX0gP4l/31dxJue\nv+fqtJn2uzej7UkGpQW18DuxmEvxztGwrEImJ4usNhG2UyhL4JZmS7mxyLTUE/kZ\nZCyvHR+yDSczJg977J8lk49BpzwvzP8wwKsKNqVMgye1RehrMFtRBwPnlK5qAoWM\nAmHZXvDjxYi3E/hyneq60mr8sQKBgQD1kVTMmyaL8mT2BExjr80y5D5+sKAdAuic\nmvGO4D/tC2zith8t4qI7F+K/+1myrKggO5Ofe+LQliI8GGaYBu9o2vhb4I4hqq7S\nsThHIbqP38BLwGQElZyiY/FrJhDT26COC2ow9YDB5IB4iDFAA5RMZeD2aD9IQhAd\nFk2KxfpLOwKBgFvSrynb1Ywo+Q6/8YD5lsgdgvUQ+nkbjc6OZzCGsjPidFGq8sDv\nwo/u6oh3dGvKZ9zV1DQFCSXrliMwBjBGKS2HSaO6p63BA706Ij/s920D30TWX2E8\nQWLB/z4wJ+7YWS9V0nPSk9GxwuPRZz9eUF3Ux023IROEwJ1EfTgghVUxAoGBAOFj\n2ulRHjgk6vXDTDnTCgxD4fh2NP9rxAS5Ui1JNmNjsTUE4+lBspV6fuymztVoE4hC\nJmSjWLMKmbF+0+uFsggTsxDhMpNEDeHkNztSgeG8BMuCckqi53lFMjieX6OUWfEG\nGRmGu/86s4/tsQaIQn08pRaE6FByEkggSFuvCuQxAoGAbttE2oxEfBpbwsZ9eWeJ\nMJ+V5ZeO9laIPq/OCjamOB5rK6Vv8iasvQBduRQH1Sm2Zbr4ibFdQ4AKjsZgjsK4\noqz6bB0QxF96tgi75cekBp6a4cUms0yJO7MGQsPp9FgN16HhaDy0zsOQZ9pGvypD\nOCWQHW9gwuX38fAI9yGwL/s=\n-----END PRIVATE KEY-----\n",
  "client_email": "somedco-slave-62@angular-geode-289003.iam.gserviceaccount.com",
  "client_id": "101994193825703567419",
  "auth_uri": "https://accounts.google.com/o/oauth2/auth",
  "token_uri": "https://oauth2.googleapis.com/token",
  "auth_provider_x509_cert_url": "https://www.googleapis.com/oauth2/v1/certs",
  "client_x509_cert_url": "https://www.googleapis.com/robot/v1/metadata/x509/somedco-slave-62%40angular-geode-289003.iam.gserviceaccount.com"
}
