{
  "type": "service_account",
  "project_id": "angular-geode-289003",
  "private_key_id": "95a4fd6fff202d2941049bd901f846fdd4633a32",
  "private_key": "-----BEGIN PRIVATE KEY-----\nMIIEvgIBADANBgkqhkiG9w0BAQEFAASCBKgwggSkAgEAAoIBAQC2/Ph5ZFvkciP+\ntrGJ/RQSOZ6NzTJKSa6HwK+/a4H+SccmQA5zqzi9GBdtI/culeXk+o8ZepaV/QqZ\nbIz1WWf4/PtK2Fnajmj/YGK8mHu5wKGQml8SiEaoJZGwk9xL23Vovx+ttCIKIjq9\nxRi0JH7hOXjhiD5wW+F3B/7R40oXAYduGD/HTdjpNmKGd+WyGBVYVS2hjcygYJzt\nnHocat2BTVhQBdRM4s3dOIOwcEJ2yVUycb5QcFdykPFW5rubRnuUXk+ZKaMG1shI\ng/R3M8PvQ861WxSrMzA5DL+VaCZ09QSOBW9P3bZN5SPs3DCP+o6x3XLNaZzyKNiH\n1ezAc/EHAgMBAAECggEAGnQgblmDg1dmPBN96mdAzeWwi0ASjh9wG3ClYknmJV8r\nFYIwf1OjGeBwD+IhgNrrZ5qQB2yWdSEmCsoLkrNAea6w8Wqs4BCzEyrZpflxTDLn\nPc1jWH2E9sKqTi8CAPa9Vs2ShH0ZvVdMy1RsCYGL1NQx1SuUwzo1MmJghJ0+1RZa\nhhzNRBMYt6BHs5AkM9yret1zmxs4Cq41tRRBC9h69PZ5ob6WqgF75pG6W0yw1qRc\nqS7y0nFDe+CUWJVnhcUCkgJvb5Kg5UoycOMqd1wjPEOEmwyawXKT5FWxiRJWZQRj\n4VebwFkWJ9baPYIteEmAW5EQsOF0EzX5tMwIcvAU2QKBgQDidCf25VjD8h/2+bBx\nq30JIrvV5geE20kW2jg812mu7/BcS5lZ6R9uwqqky6C02WN8MLke6068W4NqD9Bs\nZr8FY2DbtOdFgOmQAhCQsyA25HwdKarWPCN1l6z6Snl5y2Sl6GAzO+gdUQKqYbwF\nCUp4sYnPonrIxi1xghlNw/H+EwKBgQDO3QJOWmU2in4mxz8WdpKQJPceIMZL7wnp\numMzPgc0KsXxSMUzsoYHXf0yVPrj33UNTa1PWaLkKtbMETAxKbBHwHfTLuovaRyF\nkbaNhCXay7+Jczq15gOdXqLPzQw/yabmAiHJfFo50veDMq+KawmrBpoeGAYV5Pic\n0S4iz37PvQKBgQCkYbck9QUDb/4eFNAtI1PnTsxVD97DZT7gFNYf7CquL0Qma0ZN\nSvljOHIQoDPvM6KQ4vluZVdJSZDSa9pa5hahvarwsZf0Dwj8XVNTBoRK9H7X2IhH\nbW48DTcmlOsrKybLfCxg5IqwxT6PGdUXPtBNXmrwSzygA6O3Mr5Vgfhm+wKBgQDF\nVYN7pzPiIZ9R8sQ184rAwuKR9QX1LeSw+ELlgQhyNVN6ZsboGCdPI9QDjZmAg4wv\n0qe/iGyhaFRbexIT9Abbi7lC1gBElerFaElTGnraC3996VRabT+Jgduii6Jhv0Xd\nKK9+e4e+nYfLujBGxPEGG1gt2REFFdYsEkgGoRYBqQKBgHlw63GYKXeTnvJW0Dzn\njmRQ+RXT9daLETCEgp66+v073ZeJheRO6qGwnsRvBdeQsvzuZwbreDi0bHfXJTSn\nsBa++G2mALyFd4J/w9lsC7dMpwaKiGNuR+DDOY4lozFkK0z6Cqvugi8lSK8vpSL4\nRflTdm8ZO42H5eKDEAXfZXBF\n-----END PRIVATE KEY-----\n",
  "client_email": "somedco-slave-63@angular-geode-289003.iam.gserviceaccount.com",
  "client_id": "109802714357380053108",
  "auth_uri": "https://accounts.google.com/o/oauth2/auth",
  "token_uri": "https://oauth2.googleapis.com/token",
  "auth_provider_x509_cert_url": "https://www.googleapis.com/oauth2/v1/certs",
  "client_x509_cert_url": "https://www.googleapis.com/robot/v1/metadata/x509/somedco-slave-63%40angular-geode-289003.iam.gserviceaccount.com"
}
