{
  "type": "service_account",
  "project_id": "angular-geode-289003",
  "private_key_id": "0362659fc6451023a6af994a68dae4e81f0ab442",
  "private_key": "-----BEGIN PRIVATE KEY-----\nMIIEvgIBADANBgkqhkiG9w0BAQEFAASCBKgwggSkAgEAAoIBAQDMQFrmW+tFqDJ0\nyXMBj9CmtsQbCq3T01lD4HjUO3haJsk557t/iugJHyYHaoJb188J9P3DjPNZfOql\nNkQD7auJ3DGImLkVZsXXrsOyd9l1uf/pc+2jkaiNn7M+kwiMoQvep/S56UrAyU8T\ny0BJkOvc9b32Vw2dbvjIvNoeaEESO4liHFHXP/+T6zKKsUgq4jaZuZHkPd7hfkPJ\nU2vlm5iAzaoUOEtPWjSvn4dBwVmup2OswQVqNzR3KNLhYhD2XfdkzqKSC+Z3oK/r\nLPSmJ4fmIPHP4y5oEGtYBFKm44sNdfw/NYm06lwrnJH89Eh+Awv9qBNPKaMdk+63\nY6l4Bb+XAgMBAAECggEAW0VIuVaK4EIkZd6dNy3yQYU7RZA0lAsGARheNgxrH/Hk\nCq2cMga64FScdETqgqsBmAPzn74tAiiZXAFPTGgYts6ADfedAUy/DL3KMkZvFLXs\nfwAwSV7t8HdULBqc/+Z5POJVr/vpTRPH8+Ln09fgJglj/R/ydA7iOiV13I+ewEuw\npPM8/CtVaTGfLtVNGKUqgelXUMFG7J4pYOFXbqDeEyPtOADYzQJtq0+JDo9zAqKA\npbEMjfP1F1DxXLG8Bfgj4Cok1Q8RhZDVVnJ4GmYy4Fr0NQcbLP5aala9lqOsjjPi\nDj+kiAV4a0geNeL/vLdLOYiZ4MC1jC8gUeAq6XlAzQKBgQD04CNUebjKjjM+cA9J\ng9abP729P9HRIztIUkETAXnpUugcRIAaHtdFTpWU/oEwOCs8d6DGFAKs3NWq0D36\nnW/0duQUNVjFWQt7btsiWHCgN+xQau5R9vpoLYgU5kRRoRhAGkmrgt+m2ASr5eMb\nA4yJHwOaKEQjGMNOH8WDpEqt2wKBgQDVh8PQyMwJhjXCH+9GWvlqFWUHT8tnmkfg\nqKtO4MNy6AjOLiUYhsru39QbwgUsa81+tn+1BQAsA/UH0pgwu13cUvj1MhcLWPbi\nObO+X8Ec2bEZuvqnqxO38GafwlVAdhiUFcQk3Wthogj+C9UYlq9HehX5WQPowr62\nJhrSP4Mn9QKBgQCcakdnAFFfYTGuYloBdWsxw6dpKUjWtBB8A755a2n59fE5jS/e\nf3C2XpoBkAfpSxejCi7yF3oV/QGmmFneqY4Hs6HAnsrTVCuXbpoe+CsIzG/wdj1A\nsegFf3/7CZL+KU6aM7B3E6PUqQti2fcVHFE6jUr5v1q2qGyojHbXvavOHQKBgQCo\nvYci4OtMw4CMDcx6nr3m9U1HP+mPz73pbaEizj/l+DOtK44pGawYpUzrOqH3/qD/\n95xoIrGGFwJ10hhuukJsMC2JJrJLR1yiXdMLKIRlFir8GGSoR2tnulR+/4V7UVgO\n/jxonYmUOAY/LH6T1dBh/bqLt6p9MBihvO8JIyO0WQKBgCckCjjimiXyN5xE68yP\nYQZ+PskTQJeYY7y71XHyObQBs9H5EPEHzavm3jFTpCNV+jkb0ccTAV40ySxO5Qkd\njHKOSG01BID7wbfgJJ9zxdhVpCHUCDsZVb5K6Ep1SZzWeLtLB3OW2261CR9SDWBl\n059boeZkL4UYm9JHPBD0mRfc\n-----END PRIVATE KEY-----\n",
  "client_email": "somedco-slave-64@angular-geode-289003.iam.gserviceaccount.com",
  "client_id": "111330720534248882438",
  "auth_uri": "https://accounts.google.com/o/oauth2/auth",
  "token_uri": "https://oauth2.googleapis.com/token",
  "auth_provider_x509_cert_url": "https://www.googleapis.com/oauth2/v1/certs",
  "client_x509_cert_url": "https://www.googleapis.com/robot/v1/metadata/x509/somedco-slave-64%40angular-geode-289003.iam.gserviceaccount.com"
}
