{
  "type": "service_account",
  "project_id": "angular-geode-289003",
  "private_key_id": "5604aa414ebfcf515238cd3c18f9746b805ad44e",
  "private_key": "-----BEGIN PRIVATE KEY-----\nMIIEvQIBADANBgkqhkiG9w0BAQEFAASCBKcwggSjAgEAAoIBAQDfAlg5wrnkXftz\nuEtncu7nhzhFnKVFJHO93ANLtB32m8kzUBhg1SEHyMHQZtKS6ftZttSWqfVk7cWC\nDrShbKGOEUVIKr/9JzE1AFt/WDVk/32zYyzCo2cH36WgFS8bW27WKl5s3t8tqXzG\nStA+xGJmnV2T5qCVxj6zsZRypjURnGaRoShyINgtdHLg1e0Cs95/mzHfy67UhW/M\nSAIOm+TmmBjXtMyhATNwI62ZepOHkzvK4POYuqCkHTiq5TThl8UJ1JW8FhJ1/W7z\nWs2brm2lIglsFcp0ZpEAY2EkarIayTnTmeAFN0sV9f7IGdoV4nTYE8XYcM83jOy3\nahv0ss0ZAgMBAAECggEAEJm9lIskyFWgprQU1N4O36hGrZPkD5oPjZYHnsaJJnbh\nStMPBYJIA6rTlp5Y1XvabIq6F38OV9WFStGqa4vJGOi7NgyMnx0gQhhFN10LGHoW\nUtiyl8iPHlxtGVYKXCh5vzKHNeZ/SYhg0+f0yX9X7diQAzb7RDruJvU0njY2JBnT\nRK2aLXCTlxyx1I2bSxlzn9yTUaNOcAC56VxOIxMGJ/pRSvjnjqK8GkuXC8sXVL5R\ns0IFf89TQ/KPd5yIxLT5iInqeHAax7r1omQVYlC+SUSLt/WOchbLvMgvdsNjVNQY\nDnQg44VQL+EetMq6Q5Sb77evZ9Za4d5wuApC8CUBgQKBgQD40mCbpaAgsdtOFyCI\nObrqOvNSTpAjPMBakGgW8JbgEChPiAZeoatvok0Omdg/MXs6zAczA9bwGKaKuZlf\nxAeuEel7XUPEYtWX8N+2xnuktH6Efk1AtH4TUsIeQ9OPbRr2ejL1zLPinew4VZ2v\n4aIvIBEbRPxqHBeI1L0m1yRUIQKBgQDlcVVWdWgu2pbqoejTz8gJHFFv8QT3mMIf\nYh4guhk1sSDSxI80lmVI9UogkNoT588ylJpgAouh49CMMSiMm8C4uOyz+QrBvRwr\n1/bqhdlqFzDIds7JoWhNohblygHxk5q/lOYs6KlqWQ/OKmnz+yot7i9Dg30RbIQG\nsMyMdW3Z+QKBgQCFXn5Z71T9MVgTa2IMoqUFl8OEgofP22hfIrgoU50LTJ3Ow2Jm\nptF1bNFQ2jWG6cbbpTDWr2AuIYhjI0iKhFB5hTBY54zDXxaN8pZ3KbxsdDK8YdaW\nsChDw0A5aLGlVx30r1tRVP+2oF9Vcs6qz45XJCEHNNr3JUeYGC+q+faHAQKBgAIh\n0HoyMxqkW1yozoIRXzl+ct9IbRRj7gHeposFT7CpCbYLr4z8jMplxR+SWQRwVgOR\nT/HudB+3/zseRdMwq1TMGx79BHWSbU2W/ytkvQV4W7KxL/C9uDtoczAFdYkqJvj6\nyDzImLJtS3FOAZgL0HOG0BefhC0CRiPNxsjTWob5AoGAAyU2QOOojI0g061BbMqq\nXL5CX+JetHvALrp1MmwXq55xfsAZcFUrpEhzl4uME3f6Lv3uEgMIeH1uAxSHU1pM\nN84u37qjcaGd6yDof14MMvzLv/Es5sgVuvZgfRUeqkPs9OsE0LV0+EbUGc2YON2s\nsEVbCH/+gzyKD5WxlFfeL4I=\n-----END PRIVATE KEY-----\n",
  "client_email": "somedco-slave-69@angular-geode-289003.iam.gserviceaccount.com",
  "client_id": "112991556649617114245",
  "auth_uri": "https://accounts.google.com/o/oauth2/auth",
  "token_uri": "https://oauth2.googleapis.com/token",
  "auth_provider_x509_cert_url": "https://www.googleapis.com/oauth2/v1/certs",
  "client_x509_cert_url": "https://www.googleapis.com/robot/v1/metadata/x509/somedco-slave-69%40angular-geode-289003.iam.gserviceaccount.com"
}
