{
  "type": "service_account",
  "project_id": "angular-geode-289003",
  "private_key_id": "b0b7e18f7fe93e021cf3282fd73b7ccfab0cce9d",
  "private_key": "-----BEGIN PRIVATE KEY-----\nMIIEvgIBADANBgkqhkiG9w0BAQEFAASCBKgwggSkAgEAAoIBAQC+sfpeeMRMgCac\nnIL7FQ/cgfugwJPll9f+hJSQzInvxhD1mDsx/tcrpj+2hHlB841V+mM2LOAbTjv5\nF3m/liziMFQAgwfBu6L3CS34MeawnG4dGP6g0Rv0MlciSo35HBLcLHBkqsAtVl9h\nKe4sz1FyMala2RILW5KZ3bmrcm7kd0OULl7oILtdO5J1a/LWTubUsyBoLduzrBka\naMuiLbiFJM+kwNgIQCMl7TR7HqmsLNnZXyHS3bdEKVOTCGPUexFNU9q6/420ubRo\n+Xp+6Ko0ZkDVf23XKPCPN1wgcWZoAww83vOCsbn/uXaem/GY+TfmRErLugPMklPl\nAcSGDvRtAgMBAAECggEADh+E1TfZA/huw6UUz08zRkfLMM/qdDPff55mmWXIpn0z\nFtlgMvb2jSlKKTSc/W0yD8bUT7gZnfQYnX1nWzDeYJ8nLYWGzsqcinK/2JSrivN+\n9UE7ZIIwMZED4oqGgsdZPzy8UzxRMNpnhHz0QpXVKKG0cwHGJBizXhltjZzTSTDK\nAQYgouBrgyNmW2TwLEcM99N8Yol6Qw6ho9/BYjUCvs1kDPVas847MO2EhpMGvrVh\nCLCRSImJK1LgYZQRevP8VjzHJRqia5VjXhxRU1RxYB69yel6p2/fBOQ0nTO1s5SQ\nKACYhRPMlskE44WlHI0vRz41J05TLUcpoFhva1X70QKBgQD99/692ZuIEweUDBDE\nYk0U/+nsWjLBKhx/HozydG2OUBzchoeFXTwx2r1sIqmVYA2Ex6qnI8FSJS4K+vT1\nwbyI9LWwlLAEgASNPtnPRp9U66TNiviwEGss5DltBAaPuwAUzgkBRMpSmdP6dx8l\n31R0rRXVMMYbVtYsuCPQn5B83QKBgQDAOG3vq2aMrCoGkjdaN95dFBfEA8GLqy1H\nVe+Iv39feVbBTB13XlgbX77MBP0+gWmRbfkZVCBGHZ78dll+3uMD6R0YodHFB/Bs\n2dbp4jWYtmNw9lx268CMf5YEc0fcr7bBBn9QroTpSSVcROPIOHlnY4+d8Idqy4DL\nz644RFrU0QKBgQDjCjz1w//C2iBAPbkPl0GJsG6TGN+ex+LJ0an3ZhY6z2u9yZaF\npyAVAZOthB9OppvvRABPgytkIFDVCBzNRvEhDoMO5R2mKDvpeXKGVoBCDpc6GS7R\nVxw4+Z5M0vh6rZYZA0gRlkm5JkPW+X8jAFAkLkgCWqP/9NVrDQMXkk49EQKBgQCt\nK6lPPFlc7lXGKcAYVTDNJibq/n9FdueJ1s+/oNX9i3EvH4WEXsh9kNpxLyV/RFN5\nI1xBB1s0D8eFppGmDOL0SPVflZlIKojdZ7uIZbTnaZlY0Xon4OhNKzxZsgnRtbOt\nXk8gvrka+jzgTWfwn4AwNq/SGDnHaqMT+nv4UQyLoQKBgHX6xTOHXk2nn/HIsgSO\nKz+YV+ewpepoibq052sU63bCyb2lskIhgxQIuDzuuckhX+TzT5Z2P7tA00bpg4eG\nIpwzBwj8yZ2ldQpIuzFURJ+ju6pGFbOoSTDF5d6tYiTi90oXQIHPkz7xQBKgjGXF\nAujAqgdwY1hl4yGvacRD782Y\n-----END PRIVATE KEY-----\n",
  "client_email": "somedco-slave-73@angular-geode-289003.iam.gserviceaccount.com",
  "client_id": "105587161236555700639",
  "auth_uri": "https://accounts.google.com/o/oauth2/auth",
  "token_uri": "https://oauth2.googleapis.com/token",
  "auth_provider_x509_cert_url": "https://www.googleapis.com/oauth2/v1/certs",
  "client_x509_cert_url": "https://www.googleapis.com/robot/v1/metadata/x509/somedco-slave-73%40angular-geode-289003.iam.gserviceaccount.com"
}
