{
  "type": "service_account",
  "project_id": "angular-geode-289003",
  "private_key_id": "dde7cda526f15fdf6986963dde31c5abadd3cf36",
  "private_key": "-----BEGIN PRIVATE KEY-----\nMIIEvAIBADANBgkqhkiG9w0BAQEFAASCBKYwggSiAgEAAoIBAQDY+c0yQjDOWJ5A\nF/mRHWKvVj31adufzT8Qzrl0+R9a1e36fRfZP9oO1Qv8Vizlpta/g5Cc5uT6deLA\nyavgWjSAwqqJK2l8H9Agt8QRGGBttq/0mMUOIe16sPZGIUalQj3OQSxYZSFfE2fB\nEibNY27jzY6W2+x6vSiD0lQ9t6spgt6hXSAgWuW9qJwdVKNmnk1xtT2yzIiMO66b\n0WJsxkaFqWqKNSGMslgGMX8WVqZimkGO7KSPtVMa2n834WEqJY32FspLGrwVpJ2Z\nMEXpJ+NfL0SzwUXPH14AeUtx/ojnh9L/hWYpccc1I8twt4K1M14O1iKNxH1Ur9kT\n7LV4KrbzAgMBAAECggEAJpdzrEtClAkGCJ9bB7kCyu3bclGEOy2N2Ib0TH5c2dKw\nE7v5KG5ncfjpu1V2gdhFXOXhLE8TDgs2rBSSqgJRUU+OdnxOtEGSSqd0y5ea2xjB\nvg8ICYX2T7q26u1TO+SGyq8j3IsMPvVcIGaCmUhkukbe5C00p/YKBTw9OIb4/hZR\nYU7R4IBsavG7oqmHRg1/VOXpI6laG7MDiEbR8Uo01Kpl2sJwZyjLWOWMzwKKXvqp\nonJ59EqDRF03q50+l6Q9mmotehGBQmstwLp6+FXtMsN+MgpNAzUG5HbBPxiZJvx1\nRpxaxBenj9vZojlLAjc57n0QlsKXPKOjZQmWL1sXtQKBgQD3+ugPhGe3RlNEpfQA\nCUCHTdydMxaVIKiYdL3B3DstEoNo4KqGaCzev+AplfRHFkBEAsePBi2h+avXyCrp\n0i4QT/w4hD1CJzbUhQ/QGU5zUA+J2CB0Sn2m6EL85VH7eDbUlTY+pePp/ceHiJHy\ngTfD9rhL+IGBxx3maVCMvUcEjQKBgQDf/jO5UG1QXg1CubtokhdSi5x+gtcsZkSf\nSbbHLrA8CCI05WoTpV46PVOXcOpUoqDkaNao9lSbZqMsM0lEQGTsDGK3i8mrnG9i\nikQnsndrrGlbwDKfej4ox/LjznbwE0VvoLpokQTDUqDPDnBnmFrerUKzIRb4igan\nOR8t8oCJfwKBgEh+gk7e/08V8QvVlBJaohGsEn2mTMjF5mPDZSICVw5jJiWH4HIw\njEWGRGsD2ojZmWoIgfxu6vI6QiFv9BOtDShZqbt/9UScoCvaxneonkWZtyEuHLbC\nfB9KMSMrix7/0s+s21HPP2TNewJFS51gZ0QToWccPAgLhNMyIIk0YEmVAoGAMRtp\n+5bGYHg+MALIM4TT2CUDijjlM7a4FLP0fnad7Itb9HzXZLc8kUggq3L17Ng6rdjO\nNvzKT8eQvn//8BauCZItkk/zRsxlHxVxG8Lkq5aBAryAXLZQKmCrv4XkTX3sGy0B\nsSsaADh9SOfBfPTJ90fE98CpaJPaIY9EZq5jv8ECgYBz1CW4LBhfuWByBUH63O4s\nPa3ymC2zzx1chZt+Lqm3Srrcs1KvMXUfoiV+UIV2dcT+Qy+QodH9SrzNvQIB0w0w\n/aC8BhfywFY+hJDJqNnsycU9PDZYlLqHJGnHMA0csbjpwg6Ci5a7JulMSL2fXtq7\nhkr/lodw6e7t/19V2ixDlw==\n-----END PRIVATE KEY-----\n",
  "client_email": "somedco-slave-80@angular-geode-289003.iam.gserviceaccount.com",
  "client_id": "101329261447083804578",
  "auth_uri": "https://accounts.google.com/o/oauth2/auth",
  "token_uri": "https://oauth2.googleapis.com/token",
  "auth_provider_x509_cert_url": "https://www.googleapis.com/oauth2/v1/certs",
  "client_x509_cert_url": "https://www.googleapis.com/robot/v1/metadata/x509/somedco-slave-80%40angular-geode-289003.iam.gserviceaccount.com"
}
