{
  "type": "service_account",
  "project_id": "angular-geode-289003",
  "private_key_id": "7552f3189974849c7365da845dcbbe660808c323",
  "private_key": "-----BEGIN PRIVATE KEY-----\nMIIEvQIBADANBgkqhkiG9w0BAQEFAASCBKcwggSjAgEAAoIBAQCOy9xkRjS1B425\nJ2ki05Bp0n1QHOTmBXn6gBFYcruGRctJrduxrS72uC+3qAHJbO8PCEsxIMwnYqNi\n8jjrr+VYGuY6GhjUTbrzp2INCcEHheJ4tiPzeXoAFPJeAMrR9nqRKljbHhtfzpGO\nt+XyclsBY0ZIK4vO9a00ByeBEOZkCs6Y5Y/gwzM+1oCMTmeXYMjBRUJBcVQDKlsu\nl/TlPEKpM1oxDU2VOpOivA58spYWtZ0n5j7DkiNxRRuOViapCgv9roptZwnamMNW\n1jsCDWuCK8UFTr3VXzfkj7IWdvUVqodf8ccvxqnWThbV0aNtNFHNvpyWrM1M+yh6\ngYyWXaNBAgMBAAECggEAEWjg+rfFitG8MXgQ3S5io8hGP3t6W+IMjGJLWxeH7fe5\n8IZ6K9gzyuBLbw6UgzCdF93Yvwli4qVnyrNCBdg488w5yBkw8Ed21OiSL4lCJ87m\nvPVl/jQQEAz9vMDHeaBdsq+xTCvIRh7LB9W7exr+pfVq1vc6MTYqUxbRNe7vzAAH\npsCwmp09FvBF9/XiUQO7K8rqUOlVWbF9WtpJW30ZzmdWHqAIxuVya0nPevDgnvx2\nmpPKW+NAygBpGYZsQzC23rf+eyze1GynNam8rhT9QVkUHLfPXK814KDmCxD4DQno\nibQNAoj3T2K1IxKr463r/QBpQt1mlQPQj3rCvziU7QKBgQDGsgf6Jimbx8ecBzXm\nfaOUK9Gj6XDpX04UFM/ZWzAXlI+5Xv/PwZT72k7V1wI5tRf6C9XzznY2goXowK/o\nF/JG+j0lAfWyhLxShcKEm9ZwqNrMKzX6VUqmKG+xNNSWepy1XKl0V+SLm/U3OiEV\n5/lAego6rZf0LA0M15Xea8V7LQKBgQC3+rgGEGfUF+Hv1IiDDuRwdLysDdORzIf5\nM+vGvTUMdYtyLEL/9qyjr5bKlcUi3hnNNSdSqkc+ocx3pjdzwYdT3qR30AzTlNWa\npD101lBgRAUIZbvAcuLNehFS9WLM4kMXQO5JfDJAsM+cBVQa+DeHroGqC6mTOurG\nArkdjwjE5QKBgAHkUA8hreO90zi5GNpI9/XBNQ3Kezi9n5CxYgk/xQV0dKnfLbBc\nt35uZbHDilHiV4gZ9L+Nh7KdK4k7zHD5SWVDnLFtg1lfyis++ssocLJB6VNoVes8\nRKmwWN/nEN8d68AOUc65x4NMyNjtxMLgoo7qmo5UeM3qXXVx2At2GztBAoGBAJ17\nTT5TmKyh7NI/2MJmYwAnzMBx7WHl85ZK7U1m9BvAGicW4Br96XULfkXWwbJA71EK\naKiH/QgNs1nPu7OoOtB9ycaNHg2WXulKIRj7wj1EvBIeEwJ+1MkR7fZW+cVrAAbN\nm6rnVpStRGjG3uFfCxlnNLJ73SGb0w6/kflNUDJJAoGAIK9oA6HcV2mvwuIfqRgV\nZZKbDT2M1pSgC3F3DrKhTDYBQ+yggJyng8oKU0oAP0VSwRPN7s0uMQj5gVBjXJ7J\nKsDXcj5hSgUW7aOyQNGaWXCX9KlsiNDBMRsdwaumZtA1MIb29DUsaQI+b3HIoRxI\nIOvHjaXqd+jir0zyuIJ7pgs=\n-----END PRIVATE KEY-----\n",
  "client_email": "somedco-slave-82@angular-geode-289003.iam.gserviceaccount.com",
  "client_id": "102348377120791139598",
  "auth_uri": "https://accounts.google.com/o/oauth2/auth",
  "token_uri": "https://oauth2.googleapis.com/token",
  "auth_provider_x509_cert_url": "https://www.googleapis.com/oauth2/v1/certs",
  "client_x509_cert_url": "https://www.googleapis.com/robot/v1/metadata/x509/somedco-slave-82%40angular-geode-289003.iam.gserviceaccount.com"
}
