{
  "type": "service_account",
  "project_id": "angular-geode-289003",
  "private_key_id": "3fe589e2d1b8418ff4305e3595383f1b05c70694",
  "private_key": "-----BEGIN PRIVATE KEY-----\nMIIEvwIBADANBgkqhkiG9w0BAQEFAASCBKkwggSlAgEAAoIBAQDFRiUvf5fjp+zq\no4fhhdHnAmmVbcOvkfWpG1u1QvPl6b9aoCcMQwCR3Av+uT7flMdod8MprxQkYURd\n9034rpt2sagjUo7y5TIvgljD+YXRI8ouinvFKzaBjXiUv4XTVpC03igQ5U3UrwaM\nxSEg0sV/Q9sK69HVGaI1SoHQ8uvt016PT1oKpXRFwRHlxIh3yG9NsVJLwEpewCWq\n0j2wttcYd9k9Vk3iTYsktL5XT8sircwlmBuKiUjfReFn7li2LH6owWy+08K1eK4y\nVZau5OH2C+bcYXj6gDIzVz1GJg2LOyLlRMCseboa4Uejtd9EkhWfZ7IkpWmImfTT\nyxAv4BKzAgMBAAECggEAImLVNX/QmnKZZdbmZwWb7l/pxo2w9+gBwZ3OsPxAJjnF\nzIaw976wGTyZbKeekXtN/OQvRRNK+AJqV9S1Jx1MZPaXn7ySxTz1L/nQ/iv+ytMp\nuU4TP+2F3TQrKgZuTcW/iH9WzYcit2lgw2XTHfUPTt0lj7RGSZZjw1U+5oyJWlVY\nhAyIvpHhTFlolpXN/VWH9b+fsrZg6bM1EvLO2zfRyABnnShxcR4gl9Vdw7D4qU0m\nRkHzslZ5634k+TSByDV27dgap7nN1FpKkZb8LKcRXfgPGFhqzsWIWtJhTEBVhb3j\nGFUnnrXP5TbfsJDXnVL38m86TLQ3TQQ2vWFBN6lZwQKBgQDzguehOSwXFLLW6rYl\nD4GB3gkwP4Xy63NME2hIwd7qa5HNEkWJFUY2hO5qZjqFngZbwull7vyTe8YnDxsI\nK4KULXdDDqiHfj9b6O9jSjQ1KYT5UFe7aO1NO3cFkoCSFvRj2ymPS0iH659QAgtl\nSgIlgxI7XdikrAHwHFGR3oOt8wKBgQDPZC8NRI68IE+Lqvcoolc8PuQO8mvPCg92\nhlnzAVEHImPJgikU0HHRYZOrA6fY24IOuZsF9pMwwZAwU9b03nLw9l1HToS5ZDKt\nu7BQ02Dtw7i7ipejB/Jboda8SYhJgw7H9CZr3Ibd7DCc6tsodXe9hbwvl8iRKCBP\nWdWybD14QQKBgQDhCYev6dsCFYHUtaHQjAzeDGinav0J6mdp1cGZA3lTYEekoY8b\nSUrS1XRTZdgNZWVw5aa2Ke7HCSqtK/uKSFNrRr0hfmlmldhNwu1/77JhstYNZR8+\ntZAfwKWUw7gHyijeI0q7/xGvcqOO1+TaHVPwgLmXnXm5bLB5ymHjkSRV2wKBgQDB\nZ39Nkzq9DDDCYkyd808BGvFZUw/hA1PKR56ItRiYW6TNXfnrtDwAdEvetskHviU6\nkDKWzA0V8d0ChJ04vF5agpYYkovJzDxKsnbJ2WZSNS0IkEW7PwTwGSwFaVmUnIjj\nRbey7PRE7yeino6E248wChCmHZlobRA8j91ux+xHQQKBgQCsiRhMyfsGdTUUBjWn\nad/B0p8O1JW/d+IoAja7azhJHh/6HUH1i+/lLO6OuuDIajiV1oo+PNmCbTPZgL08\n4oCB7pxPAUNFYuwwhhjuoKpgtYR2aKtn90OxxwK3gKfLLLaJOncr9bg4vC/X3tDU\nAl6aYLw0Fq/R/YxhCyOs9VkxMQ==\n-----END PRIVATE KEY-----\n",
  "client_email": "somedco-slave-89@angular-geode-289003.iam.gserviceaccount.com",
  "client_id": "106290904573956064275",
  "auth_uri": "https://accounts.google.com/o/oauth2/auth",
  "token_uri": "https://oauth2.googleapis.com/token",
  "auth_provider_x509_cert_url": "https://www.googleapis.com/oauth2/v1/certs",
  "client_x509_cert_url": "https://www.googleapis.com/robot/v1/metadata/x509/somedco-slave-89%40angular-geode-289003.iam.gserviceaccount.com"
}
