{
  "type": "service_account",
  "project_id": "angular-geode-289003",
  "private_key_id": "ffb451987399ce45849696bd39f3e775a47ed3f7",
  "private_key": "-----BEGIN PRIVATE KEY-----\nMIIEvAIBADANBgkqhkiG9w0BAQEFAASCBKYwggSiAgEAAoIBAQDfRfAeiiAZjuL9\nYpUOTyLlovScMd99aJ4q7ZrDiMYN/t373cjmMy2H1L+CkwrSYht/9H3khball4Eo\n+uE9COwKUiITho+kNYs01x3+i9vxd7UtkHw8Mogkm7RlK/ndTcIzSUHd+inLgS0P\npLD+i7Mj2l3OUESePmKwaC9nM3ZwCQq9GvIOXcuBPmRoSaPojOxuCM0vhZBuIdZa\njqZDbMw4cw74iaXiGMLb9wmMlrCs0seQBNukG1boFmS7DGOnQXFwScC8YXUmqLA5\n7wZzGXAyBAWaH1u9HQNzJE657G+6ZdHirePcB1EBtvY+FuGxYOqBXWLV5csTeR4z\nLah55YMrAgMBAAECggEAI0zB6XoqGBBct/XxngkJ+ed5KAbEkGXNd/kH+nkx4v2U\nKCGJBUg7HxoWSzUnRVrogSLtEofHeEfLTmjX2pgCBaG1rIOeSzaB81E9d0SyeetU\ntEb/NV9B4hPSAhrhTslf9k7TQJ6wI/Ig5zPBHgWFRZpdMWTEbIZtgPl/4R+kTpL7\nvuVU2W5J6KLVIyM4Tcbc3q2neYSnulSZeOMGsk46mmNl60v0e07hX4Gg03rnYSNh\n0SMi6iWK7IEGHJCUhz7Owo/HzblEj0wWJta8A+29P7pxebz2VPRIZsZDwyx9spcO\noJ7YeDQvnNadOQKQ0C5qYtiMl2gSyYH7E8/MRssi1QKBgQD4Db1MyXOtTWd4SIH+\nuVf2Z5Au1UUa5RjMSeLS5wfVvGZx8aRUfVNv/vLXJTCQ99Q8ZNQAlqlrMLyKQ6W/\nA0I796IS9a15NThz/aIpQl4JlDHUrJOaAAJA5UcHw3Nr2jFzMbCbQbVTIuOpy0G+\nsA8GcY7eA4RARFjke8/8NjfMBQKBgQDmbPoCWIQYUvn/1B5hTWtTKB8NbiZjJ1xu\nB4Rw298HfgnDtoo0XnMCIvL3zxZ/RaV9KNH0lH5iNYe4ArGD0maCENX4bYWdYEUM\ninNpChi6AL4WShlsk4UjjURtaH0R+z1raTd3TCsuh6qXs9qWxny7Gosevx4y7MFP\n3v+vlc5pbwKBgEYay/dZsAG4sJeEFolBJKUVG+DAkalKOjnyX9KvTL2RY3qsin7+\ndIhgi41Wi2VNRYRUEr6f1f3fZknFWKClcSC1me611HM/IVdWxW/Xu/AFHBg5NfX+\nLqTcp7h/+qzum68syfb3GSIH6EPimBAmffiaO4Bvif8H0f+xJlTnldlpAoGAbXgy\nYjDpOKEbEhYVBMcCCPSTpA7Df/GwMLmziuZ6E5YmT2uGRxDj9Izj/yTMHFTbJRXi\ngR6W2FN0EdB9wxGPD5WuAaMOilC1HRsdbzaTvrIhnHdBktqWsugnLQ8p9AP3DvNi\nnXN7RFTBj+arH1xW35DhrQ7A6xKdWDOqJyG1eVMCgYAeDdOu194X07mS86QfKYs9\nE6x9YAMY2Nig/uQZ3YQxGqykL1d+00LtRR6lRcWZqZl8WEp4bidZcx1O3BrH+qZD\nHTocuh3S4tk65763l6LqacWfck+jxnMzyPfl9BG8Py3cSUCszTIWk2/PyBz1oAVp\novhLaGaflNXIZX/51EMnnw==\n-----END PRIVATE KEY-----\n",
  "client_email": "somedco-slave-91@angular-geode-289003.iam.gserviceaccount.com",
  "client_id": "110016378325328564522",
  "auth_uri": "https://accounts.google.com/o/oauth2/auth",
  "token_uri": "https://oauth2.googleapis.com/token",
  "auth_provider_x509_cert_url": "https://www.googleapis.com/oauth2/v1/certs",
  "client_x509_cert_url": "https://www.googleapis.com/robot/v1/metadata/x509/somedco-slave-91%40angular-geode-289003.iam.gserviceaccount.com"
}
