{
  "type": "service_account",
  "project_id": "angular-geode-289003",
  "private_key_id": "ebfc4ad72b2fa1dbe48ef082ef5df5ab9ef46e1f",
  "private_key": "-----BEGIN PRIVATE KEY-----\nMIIEvQIBADANBgkqhkiG9w0BAQEFAASCBKcwggSjAgEAAoIBAQDPk8r/9/3MuRP4\naaS/lfFRXQOdsFgtYbVmTSslTyE2d6s1DSrrytfGa5M56qC/PGs9iLEVtOjkYPZH\n4ZWQfVVasfvwjckkG3pTBqcJYXkEf73rsPUe55SgDrKXKxoPwwTDJpsVRY/E/30J\np2zW9nKiZeFgjb11MAUBs3U9Ij9MuAYC5qlye5t1lkzEFNcMG4YaIlPuLJ3sZDhI\n0BaE1mcTQJ61BzEJu1LxL0Afm+tBkI0LBzCXcuHuq82BTrIHaedimSYvy6oyMb7F\nBNGlNHs4dZrHzqJTtyAOfCC9JQeCdkSHMU+vxu1qV19Y0f0BCnSbe9xLbH8GUnp4\nFocG6yGdAgMBAAECggEALEfmY7Fm8m++61y5+ObHKmixt0dhoBi6Zj7rB9P4DVL8\n8l3DPLayThEvwIilTvZYGDHbOPq1PdbTYuUkD0U1WpoiWSAd+vZjo2eFZZJmCwgn\nHyrKN5QGWBiaj3Xx4s/i6bCIH8MNluQ7q74MEVVUggFC0WKbOm8KemDqjyaJo1cx\nmE7swJthLxMe+fLyOs4i0KoPO5YsyFPl63dywOcWFXWHLCaWSmr4aMA2FPrnua7W\nnzEfs0tWA3Cx53Jc/ImXY700FshL/GKGojEosI/loo4OGTmTcy1piviTqsrqMFxv\n3nfpDFLAat/MhXccZ1foqvhJPYkLrZvvq+CKvr6poQKBgQD+bhjTp3dVA6XtI4Bq\nsasQmHUhE4gIJJeY2qX27nH5tRLT2xlCsdl/jmKAN43uUXxTHOV0xOu7PBpDQz+a\nkn5xaYuH5eTK6QFOMOaSzUp0DnVje7fQlyNPhDwPF8XsApWjkeaLnBW6sT5Yysiy\ndknn1Rs5WOWYn6M4PqdgTY8C8QKBgQDQ26+4ob/8wJ3fFMsY54nyLqDZgHY7jUhR\n1snBrl1XTVJEE9MiNbC33DEbejS0DrsXQeH+inH1nk//cy8egiOYX6Pdcb/IMS7Y\nqiss5PWWgVLVWsMroYQUzBhgeBFsIxeanXUJfY/pwCJr0ffvPjulmRXlOmSsJCFg\n02jJL2LxbQKBgBiLIlX4h6hpy63OiOrB7NCTBGmGas7uSLl0DiJ96fy+nOxW7F7k\nrSiC4bmgok5lCesylGfpPxw2tgnbCN2uWAg0uEMJyEJSq8+RJAzxRMdhRa2tF5RF\noCBhjzGdh3g235yBzI2XJvl1c6A5H5cnlgWJJzEnBC7u513bnWXK1YrhAoGBAL5N\nDUVLjCT+VFppFczxW02hksnbNN96EcUP0fF5sG7Vcvm4no3zIbvFE7GXneHZ8jp0\nuzg0aTWFNBrrlqlTpp81tZcWB8qelbKxCnnzfJnP5+uisWZV2oUgma18eVNwfhdR\nFMy67Z/sgvB+9ku1BqASZlLg6821dfxFZJq7ZInZAoGAQyFhb78jrTCM0fWKR9Dy\nw4VKJgJ9InJjnLWe9B9IittbNZMLfpDFfEDvtk2M/cmidbbkFdNrROW4xuM9QeRv\nSFmjAnGcArcNa5fu+trCbcyPB1p6/QwguzbT5WlUlUyJkBo3HaQcmP/WRGVW4L7/\nqGX5ww6O/dblecpXC72NbaQ=\n-----END PRIVATE KEY-----\n",
  "client_email": "somedco-slave-92@angular-geode-289003.iam.gserviceaccount.com",
  "client_id": "117204884537532311418",
  "auth_uri": "https://accounts.google.com/o/oauth2/auth",
  "token_uri": "https://oauth2.googleapis.com/token",
  "auth_provider_x509_cert_url": "https://www.googleapis.com/oauth2/v1/certs",
  "client_x509_cert_url": "https://www.googleapis.com/robot/v1/metadata/x509/somedco-slave-92%40angular-geode-289003.iam.gserviceaccount.com"
}
