{
  "type": "service_account",
  "project_id": "angular-geode-289003",
  "private_key_id": "d38e79c9454f293c4c7836419171935e64bbc16b",
  "private_key": "-----BEGIN PRIVATE KEY-----\nMIIEvAIBADANBgkqhkiG9w0BAQEFAASCBKYwggSiAgEAAoIBAQCrCXSwaB6DmMrh\nkH8TfORVIZhfVVEVdWoq7yUGsvjP6mGgj49EzCwqzNbQ9C5qBUIdeznF/GwMqGls\nwEKzHCiaNjbbF25sA8xvNjZ7KQ1Ws5KFcBgpZEuYo0bg+iXoFCaFsmXL6Si7qdXq\nXiJ54yoeOtUVU32EFoacecpxtZiYxN9NFTrQhYLE2T2XVPrzagULIr1Ejsg0b1TJ\nEEPgK/tyeAZcYc/zZh92TQEQgiNvNgegJssL1tyIm83xQFwgCXMDIjX5vfZDmYeg\nUGVPNNJWlYIH2ATFKKyob3SS+m/to/XITAE97BvUEPa8sykpDQ4FLWByD7/ukoer\ndbJEyKLnAgMBAAECggEAKThZrYwiUn/X4V3UKmuukc/La6phpMTL5fYFm+Q1L9Ki\nXbJLin6UZGpCmVBIAVgsE3PXvB32ImTSJ5n8WTM/m87WEJ5Ih/KwadsMbUk7BDq5\n5LvbrtoTmAE9u0m+Kfz1PcJ9YxPZs8SeH+I499wmEewG36Fj/hn5ritx/U6RLLvb\n++WQu3fc5W0LTqjvld+wAJqU9sjNdpQ8sivW0O/e4+1adar5ltqgYK0LueoFmn+y\n5F96VGwdCTyIS5rLY/dZIcEC6vLVcxosAwKtdqKDsSoC3tBu4iVWiwe/EncC/7QH\nuT+u5PMzHdj3DJtCkm/xyAPiBF5rR3HiJNfuaQK/VQKBgQDvLVR4EXznC1jZ5eUx\nNN62BAB/Bf5xs9x7IJGgBAuHCvKEEKoYgX+05hqmZ4OkPcR0aK/2qFHMW8tLoHcD\nsEJxTfUbmAeJPMcdoClN+QQxK9Ny1d+dJbq08fqReDJH3DMCr2or7d8mv9TtDhek\nUDDas1/3azpED8rXe8D/F+jzqwKBgQC3ES5Xk8XAdKyql6t6kgpLLHfJ7biisNBj\nYWnFsrQpn4ZgwKs1MuU4oQvcfxFShehbwly7L8jB3iF8DIQnIIxGVu5ylEDzYJKd\n6ZRqbD3Ve+7yhIWRENe5D+m0tI44kpqKfDDvV0MAnlW+42aOSxQyN9FpxKgwDwd1\nNZBbaLIRtQKBgByffSNdXGg+CGUTSSlpXVnFAtYwvnGXB8TIcgUHVuXTXpCFegWy\nwbjBbOELNErchX005hILtLZTKfIkAvozBtCOds3VlNlMp7uY5jiJm4HS79wnUjp5\nQG3VI5pzGvlUldo1aexV7EWz4WR5MkUcv6v8mXh/oZpxlWHSUpd0ohE/AoGAZO8+\nI98/+xrZUL2LOGto7YW5DkbZtCnU29aL4QrktsZT6uiP/Sbwp0Z0KcCNpnhaYq1J\nP5PbFrkIsUKdYo1ZijbIBbikDwxCCnsM75h6h0hruJ9EnXUx28FgU9fxSlPajVxo\nBq6QLLkgAb2TgAT5P67y8WQSb1z5+a/sxdl1xLkCgYBy91kee52jmhUbwtOlN+A2\niFhBKOEFsMWpVon+3WwOtGU6F73aV7QeJ0Efrg4hXx/ewAW5TnF3Dz73FIdEAEyg\nTeEl00APU4P/dOgoB6qZC1mRKEtXYhhH58QrcG+IZSqnBHuy4gxtRRTWhk4DeSe0\nykiFIbxcetV6os9OfzvnTQ==\n-----END PRIVATE KEY-----\n",
  "client_email": "somedco-slave-93@angular-geode-289003.iam.gserviceaccount.com",
  "client_id": "101111714342328495403",
  "auth_uri": "https://accounts.google.com/o/oauth2/auth",
  "token_uri": "https://oauth2.googleapis.com/token",
  "auth_provider_x509_cert_url": "https://www.googleapis.com/oauth2/v1/certs",
  "client_x509_cert_url": "https://www.googleapis.com/robot/v1/metadata/x509/somedco-slave-93%40angular-geode-289003.iam.gserviceaccount.com"
}
